Enter the GPU ID (0/1): 1
Select GPU with device ID = 1
Solve Laplace equation on a 3D lattice with boundary conditions
Enter the size of the square lattice: 1 1 1
Enter the number of threads (tx,ty,tz) per block: 1 1 1
The dimension of the grid is (1, 1, 1)
Input time for GPU: 0.156320 (ms) 
error (GPU) = 0.000000000000000e+00
total iterations (GPU) = 1
Processing time for GPU: 0.045312 (ms) 
GPU Gflops: -0.000199
Output time for GPU: 0.108544 (ms) 
