Current Block Size: 10 x 10
50 iteration
input time: 56.301846ms (avg), 0.160109ms (SD)
gpu time: 3.505635ms (avg), 0.050838ms (SD)
output time: 41.594669ms (avg), 2.613115ms (SD)
total time: 101.402168ms (avg), 2.576941ms (SD)
