Current Block Size: 14 x 14
50 iteration
input time: 56.510040ms (avg), 0.054127ms (SD)
gpu time: 3.517060ms (avg), 0.027947ms (SD)
output time: 41.544899ms (avg), 2.732388ms (SD)
total time: 101.571999ms (avg), 2.726104ms (SD)
