Current Block Size: 17 x 17
50 iteration
input time: 56.799129ms (avg), 0.027063ms (SD)
gpu time: 3.466030ms (avg), 0.017632ms (SD)
output time: 41.505138ms (avg), 2.630180ms (SD)
total time: 101.770271ms (avg), 2.607644ms (SD)
