Current Block Size: 18 x 18
50 iteration
input time: 56.887184ms (avg), 0.073288ms (SD)
gpu time: 3.412530ms (avg), 0.016630ms (SD)
output time: 41.558365ms (avg), 2.739237ms (SD)
total time: 101.858063ms (avg), 2.715336ms (SD)
