Current Block Size: 21 x 21
50 iteration
input time: 56.263203ms (avg), 0.031250ms (SD)
gpu time: 3.438612ms (avg), 0.014583ms (SD)
output time: 41.581345ms (avg), 2.731829ms (SD)
total time: 101.283157ms (avg), 2.730399ms (SD)
