Current Block Size: 25 x 25
50 iteration
input time: 56.468456ms (avg), 0.076547ms (SD)
gpu time: 3.445134ms (avg), 0.013175ms (SD)
output time: 41.583736ms (avg), 2.719962ms (SD)
total time: 101.497322ms (avg), 2.680769ms (SD)
