Current Block Size: 29 x 29
50 iteration
input time: 56.475586ms (avg), 0.071603ms (SD)
gpu time: 3.396307ms (avg), 0.018580ms (SD)
output time: 41.556534ms (avg), 2.661965ms (SD)
total time: 101.428421ms (avg), 2.631131ms (SD)
