Current Block Size: 31 x 31
50 iteration
input time: 56.765156ms (avg), 0.564666ms (SD)
gpu time: 3.409816ms (avg), 0.008053ms (SD)
output time: 41.590858ms (avg), 2.962205ms (SD)
total time: 101.765831ms (avg), 3.527099ms (SD)
