Current Block Size: 9 x 9
50 iteration
input time: 56.740528ms (avg), 0.293151ms (SD)
gpu time: 3.548115ms (avg), 0.120387ms (SD)
output time: 41.560978ms (avg), 2.727581ms (SD)
total time: 101.849640ms (avg), 2.813194ms (SD)
