Using device 1
The block size is 4
The grid size is 1024
Enter the number of sampling: 
128
Input time for GPU: 0.171264 (ms) 
Processing time for GPU: 0.121632 (ms) 
Calculation time in CPU: 0.042272 (ms)
0.239315763115883 +- 0.004902418702841
