Using device 1
The block size is 1
The grid size is 1024
Enter the number of sampling: 
256
Input time for GPU: 0.217248 (ms) 
Processing time for GPU: 0.127904 (ms) 
Calculation time in CPU: 0.043456 (ms)
0.243762001395226 +- 0.003627141239122
