Using device 1
The block size is 1024
The grid size is 2
Enter the number of sampling: 
4096
Input time for GPU: 0.184032 (ms) 
Processing time for GPU: 0.080960 (ms) 
Calculation time in CPU: 0.040416 (ms)
0.241137534379959 +- 0.000903426087461
