Using device 1
The block size is 512
The grid size is 4
Enter the number of sampling: 
32768
Input time for GPU: 0.181696 (ms) 
Processing time for GPU: 0.517696 (ms) 
Calculation time in CPU: 0.041792 (ms)
0.238512886028791 +- 0.000321064864038
