Using device 1
The block size is 64
The grid size is 2
Enter the number of sampling: 
512
Input time for GPU: 0.172576 (ms) 
Processing time for GPU: 0.075552 (ms) 
Calculation time in CPU: 0.039552 (ms)
0.237259507179260 +- 0.002488826168701
