Using device 1
The block size is 512
The grid size is 64
Enter the number of sampling: 
65536
Input time for GPU: 0.172672 (ms) 
Processing time for GPU: 0.460576 (ms) 
Calculation time in CPU: 0.040320 (ms)
0.240631570967572 +- 0.000226852474902
