Using device 1
The block size is 1
The grid size is 512
Enter the number of sampling: 
32768
Input time for GPU: 0.252960 (ms) 
Processing time for GPU: 5.522880 (ms) 
Calculation time in CPU: 0.043360 (ms)
0.238032406494360 +- 0.000323610503687
