Using device 1
The block size is 16
The grid size is 1024
Enter the number of sampling: 
65536
Input time for GPU: 0.253632 (ms) 
Processing time for GPU: 1.071264 (ms) 
Calculation time in CPU: 0.042880 (ms)
0.238901105294779 +- 0.000226095482711
