Using device 1
The block size is 128
The grid size is 64
Enter the number of sampling: 
16384
Input time for GPU: 0.171488 (ms) 
Processing time for GPU: 0.158272 (ms) 
Calculation time in CPU: 0.041376 (ms)
0.240236866589961 +- 0.000449406473581
