Using device 1
The block size is 8
The grid size is 4
Enter the number of sampling: 
2048
Input time for GPU: 0.170784 (ms) 
Processing time for GPU: 0.205600 (ms) 
Calculation time in CPU: 0.041440 (ms)
0.239133641123772 +- 0.001290378160775
