Using device 1
The block size is 128
The grid size is 16
Enter the number of sampling: 
8192
Input time for GPU: 0.170400 (ms) 
Processing time for GPU: 0.067360 (ms) 
Calculation time in CPU: 0.041568 (ms)
0.239179790019989 +- 0.000633715302683
