Using device 1
The block size is 4
The grid size is 512
Enter the number of sampling: 
2048
Input time for GPU: 0.170208 (ms) 
Processing time for GPU: 0.076224 (ms) 
Calculation time in CPU: 0.040384 (ms)
0.242138475179672 +- 0.001236866693944
