Using device 1
The block size is 1
The grid size is 16
Enter the number of sampling: 
4096
Input time for GPU: 0.252928 (ms) 
Processing time for GPU: 0.720832 (ms) 
Calculation time in CPU: 0.040736 (ms)
0.238162457942963 +- 0.000890528608579
