Using device 1
The block size is 256
The grid size is 8
Enter the number of sampling: 
32768
Input time for GPU: 0.223104 (ms) 
Processing time for GPU: 0.348192 (ms) 
Calculation time in CPU: 0.042112 (ms)
0.238512886028791 +- 0.000321064864038
