Using device 1
The block size is 8
The grid size is 4
Enter the number of sampling: 
32768
Input time for GPU: 0.220640 (ms) 
Processing time for GPU: 8.061184 (ms) 
Calculation time in CPU: 0.041504 (ms)
0.237966643961867 +- 0.000320565949539
