Using device 1
The block size is 4
The grid size is 16
Enter the number of sampling: 
16384
Input time for GPU: 0.350368 (ms) 
Processing time for GPU: 0.806720 (ms) 
Calculation time in CPU: 0.041088 (ms)
0.237633556127548 +- 0.000450606079539
