Using device 1
The block size is 16
The grid size is 32
Enter the number of sampling: 
16384
Input time for GPU: 0.323264 (ms) 
Processing time for GPU: 0.399648 (ms) 
Calculation time in CPU: 0.042752 (ms)
0.238682299852371 +- 0.000456797308289
