Using device 1
The block size is 8
The grid size is 2
Enter the number of sampling: 
65536
Input time for GPU: 0.256576 (ms) 
Processing time for GPU: 31.743616 (ms) 
Calculation time in CPU: 0.040608 (ms)
0.238005225482815 +- 0.000226991459964
