Using device 1
The block size is 1
The grid size is 256
Enter the number of sampling: 
2048
Input time for GPU: 0.219488 (ms) 
Processing time for GPU: 0.200128 (ms) 
Calculation time in CPU: 0.039840 (ms)
0.238495185971260 +- 0.001313455053605
