Using device 1
The block size is 1
The grid size is 2
Enter the number of sampling: 
128
Input time for GPU: 0.185952 (ms) 
Processing time for GPU: 0.193824 (ms) 
Calculation time in CPU: 0.040480 (ms)
0.241353616118431 +- 0.004293987061828
