Using device 1
The block size is 2
The grid size is 2
Enter the number of sampling: 
8192
Input time for GPU: 0.214336 (ms) 
Processing time for GPU: 4.649440 (ms) 
Calculation time in CPU: 0.041120 (ms)
0.238103032112122 +- 0.000638685596641
