Using device 1
The block size is 32
The grid size is 32
Enter the number of sampling: 
32768
Input time for GPU: 0.169888 (ms) 
Processing time for GPU: 0.341792 (ms) 
Calculation time in CPU: 0.041536 (ms)
0.238224442320407 +- 0.000321551496836
