Using device 1
The block size is 1024
The grid size is 64
Enter the number of sampling: 
1024
Input time for GPU: 0.176512 (ms) 
Processing time for GPU: 0.170720 (ms) 
Calculation time in CPU: 0.041568 (ms)
0.241743355989456 +- 0.001777593628503
