Using device 1
The block size is 32
The grid size is 256
Enter the number of sampling: 
128
Input time for GPU: 0.257856 (ms) 
Processing time for GPU: 0.269120 (ms) 
Calculation time in CPU: 0.046016 (ms)
0.239315778017044 +- 0.004902409855276
