Using device 1
The block size is 2
The grid size is 64
Enter the number of sampling: 
32768
Input time for GPU: 0.313856 (ms) 
Processing time for GPU: 3.023008 (ms) 
Calculation time in CPU: 0.043008 (ms)
0.237522777918806 +- 0.000319625949442
