Using device 1
The block size is 1
The grid size is 1024
Enter the number of sampling: 
16384
Input time for GPU: 0.309248 (ms) 
Processing time for GPU: 0.521920 (ms) 
Calculation time in CPU: 0.042656 (ms)
0.238232359290123 +- 0.000453048007330
