Using device 1
The block size is 1
The grid size is 2
Enter the number of sampling: 
65536
Input time for GPU: 0.213984 (ms) 
Processing time for GPU: 240.048798 (ms) 
Calculation time in CPU: 0.041280 (ms)
0.237758851381928 +- 0.000226030396642
