Using device 1
The block size is 512
The grid size is 256
Enter the number of sampling: 
65536
Input time for GPU: 0.170048 (ms) 
Processing time for GPU: 0.874944 (ms) 
Calculation time in CPU: 0.042048 (ms)
0.242524547403954 +- 0.000227459124061
