Using device 1
The block size is 8
The grid size is 256
Enter the number of sampling: 
8192
Input time for GPU: 0.405472 (ms) 
Processing time for GPU: 0.339744 (ms) 
Calculation time in CPU: 0.061920 (ms)
0.239179849624634 +- 0.000633712799754
