Using device 1
The block size is 2
The grid size is 8
Enter the number of sampling: 
65536
Input time for GPU: 0.182528 (ms) 
Processing time for GPU: 31.396992 (ms) 
Calculation time in CPU: 0.039712 (ms)
0.238005225482815 +- 0.000226991459964
