Using device 1
The block size is 4
The grid size is 1024
Enter the number of sampling: 
8192
Input time for GPU: 0.221216 (ms) 
Processing time for GPU: 0.172064 (ms) 
Calculation time in CPU: 0.041440 (ms)
0.241137057542801 +- 0.000644033832941
