Using device 1
The block size is 2
The grid size is 1024
Enter the number of sampling: 
64
Input time for GPU: 0.163360 (ms) 
Processing time for GPU: 0.065568 (ms) 
Calculation time in CPU: 0.043168 (ms)
0.230888053774834 +- 0.006376439705491
