Using device 1
The block size is 2
The grid size is 4
Enter the number of sampling: 
65536
Input time for GPU: 0.257024 (ms) 
Processing time for GPU: 63.010654 (ms) 
Calculation time in CPU: 0.040544 (ms)
0.238241964164908 +- 0.000226605270349
