Using device 1
The block size is 64
The grid size is 1
Enter the number of sampling: 
2048
Input time for GPU: 0.182016 (ms) 
Processing time for GPU: 0.133408 (ms) 
Calculation time in CPU: 0.041120 (ms)
0.237319380044937 +- 0.001302974647842
