Using device 1
The block size is 32
The grid size is 1
Enter the number of sampling: 
4096
Input time for GPU: 0.222752 (ms) 
Processing time for GPU: 0.415040 (ms) 
Calculation time in CPU: 0.040992 (ms)
0.237967237830162 +- 0.000910922244657
