Using device 1
The block size is 16
The grid size is 1024
Enter the number of sampling: 
16384
Input time for GPU: 0.185056 (ms) 
Processing time for GPU: 0.150368 (ms) 
Calculation time in CPU: 0.042144 (ms)
0.241758033633232 +- 0.000450416293461
