Using device 1
The block size is 1024
The grid size is 4
Enter the number of sampling: 
64
Input time for GPU: 0.188160 (ms) 
Processing time for GPU: 0.171520 (ms) 
Calculation time in CPU: 0.041504 (ms)
0.230888038873672 +- 0.006376444362104
