Using device 1
The block size is 2
The grid size is 4
Enter the number of sampling: 
16384
Input time for GPU: 0.171936 (ms) 
Processing time for GPU: 4.628032 (ms) 
Calculation time in CPU: 0.041568 (ms)
0.237509474158287 +- 0.000452810287243
