Using device 1
The block size is 2
The grid size is 128
Enter the number of sampling: 
64
Input time for GPU: 0.171872 (ms) 
Processing time for GPU: 0.066208 (ms) 
Calculation time in CPU: 0.039456 (ms)
0.230888053774834 +- 0.006376439705491
