Using device 1
The block size is 4
The grid size is 256
Enter the number of sampling: 
32768
Input time for GPU: 0.317632 (ms) 
Processing time for GPU: 1.464864 (ms) 
Calculation time in CPU: 0.044128 (ms)
0.238224442320407 +- 0.000321551496836
