Using device 1
The block size is 16
The grid size is 1024
Enter the number of sampling: 
1024
Input time for GPU: 0.206880 (ms) 
Processing time for GPU: 0.095520 (ms) 
Calculation time in CPU: 0.042272 (ms)
0.241743370890617 +- 0.001777589553967
