Using device 1
The block size is 512
The grid size is 256
Enter the number of sampling: 
32768
Input time for GPU: 0.172000 (ms) 
Processing time for GPU: 0.750336 (ms) 
Calculation time in CPU: 0.042112 (ms)
0.242288013566681 +- 0.000322055070576
