Using device 1
The block size is 1
The grid size is 4
Enter the number of sampling: 
128
Input time for GPU: 0.175136 (ms) 
Processing time for GPU: 0.125248 (ms) 
Calculation time in CPU: 0.039808 (ms)
0.237919479608536 +- 0.004761998075992
