Using device 1
The block size is 128
The grid size is 2
Enter the number of sampling: 
65536
Input time for GPU: 0.166816 (ms) 
Processing time for GPU: 2.285312 (ms) 
Calculation time in CPU: 0.040832 (ms)
0.237671819338992 +- 0.000227435879325
