Using device 1
The block size is 1
The grid size is 1024
Enter the number of sampling: 
32768
Input time for GPU: 0.377152 (ms) 
Processing time for GPU: 5.599264 (ms) 
Calculation time in CPU: 0.044640 (ms)
0.238224442320408 +- 0.000321551496836
