Using device 1
The block size is 8
The grid size is 16
Enter the number of sampling: 
2048
Input time for GPU: 0.321536 (ms) 
Processing time for GPU: 0.380224 (ms) 
Calculation time in CPU: 0.054912 (ms)
0.237250626087189 +- 0.001319764647633
