Using device 1
The block size is 4
The grid size is 2
Enter the number of sampling: 
16384
Input time for GPU: 0.340416 (ms) 
Processing time for GPU: 5.010144 (ms) 
Calculation time in CPU: 0.041760 (ms)
0.237509474158287 +- 0.000452810287243
