Using device 1
The block size is 64
The grid size is 8
Enter the number of sampling: 
256
Input time for GPU: 0.168224 (ms) 
Processing time for GPU: 0.115328 (ms) 
Calculation time in CPU: 0.040032 (ms)
0.243761956691742 +- 0.003627157304436
