Using device 1
The block size is 32
The grid size is 128
Enter the number of sampling: 
16384
Input time for GPU: 0.316768 (ms) 
Processing time for GPU: 0.345696 (ms) 
Calculation time in CPU: 0.061824 (ms)
0.239346012473106 +- 0.000452247040812
