Using device 1
The block size is 1024
The grid size is 1
Enter the number of sampling: 
128
Input time for GPU: 0.222080 (ms) 
Processing time for GPU: 0.116800 (ms) 
Calculation time in CPU: 0.039936 (ms)
0.239315778017044 +- 0.004902409855276
