Using device 1
The block size is 2
The grid size is 4
Enter the number of sampling: 
256
Input time for GPU: 0.350400 (ms) 
Processing time for GPU: 0.381248 (ms) 
Calculation time in CPU: 0.042304 (ms)
0.239089444279671 +- 0.003374041058123
