Using device 1
The block size is 8
The grid size is 16
Enter the number of sampling: 
65536
Input time for GPU: 0.217984 (ms) 
Processing time for GPU: 4.517280 (ms) 
Calculation time in CPU: 0.041408 (ms)
0.237733519585478 +- 0.000226929896986
