Using device 1
The block size is 4
The grid size is 1
Enter the number of sampling: 
64
Input time for GPU: 0.188800 (ms) 
Processing time for GPU: 0.221408 (ms) 
Calculation time in CPU: 0.042336 (ms)
0.241067826747894 +- 0.007360741030425
