Using device 1
The block size is 32
The grid size is 2
Enter the number of sampling: 
1024
Input time for GPU: 0.338496 (ms) 
Processing time for GPU: 0.165216 (ms) 
Calculation time in CPU: 0.040000 (ms)
0.237888857722282 +- 0.001900626695715
