Using device 1
The block size is 4
The grid size is 1024
Enter the number of sampling: 
32768
Input time for GPU: 0.186144 (ms) 
Processing time for GPU: 1.623776 (ms) 
Calculation time in CPU: 0.044064 (ms)
0.238678306707513 +- 0.000320496390148
