Using device 1
The block size is 1
The grid size is 128
Enter the number of sampling: 
2048
Input time for GPU: 0.259168 (ms) 
Processing time for GPU: 0.370080 (ms) 
Calculation time in CPU: 0.041472 (ms)
0.237250670790672 +- 0.001319760573097
