Using device 1
The block size is 1
The grid size is 4
Enter the number of sampling: 
1024
Input time for GPU: 0.328320 (ms) 
Processing time for GPU: 0.906592 (ms) 
Calculation time in CPU: 0.040736 (ms)
0.240181028842926 +- 0.001823251717724
