Using device 1
The block size is 128
The grid size is 16
Enter the number of sampling: 
65536
Input time for GPU: 0.176480 (ms) 
Processing time for GPU: 0.517312 (ms) 
Calculation time in CPU: 0.040256 (ms)
0.238255284364123 +- 0.000227388159636
