Using device 1
The block size is 16
The grid size is 4
Enter the number of sampling: 
8192
Input time for GPU: 0.177536 (ms) 
Processing time for GPU: 0.363744 (ms) 
Calculation time in CPU: 0.041248 (ms)
0.237839326262474 +- 0.000648934568744
