Using device 1
The block size is 2
The grid size is 512
Enter the number of sampling: 
32768
Input time for GPU: 0.178752 (ms) 
Processing time for GPU: 2.725568 (ms) 
Calculation time in CPU: 0.041600 (ms)
0.238224442320407 +- 0.000321551496836
