Using device 1
The block size is 512
The grid size is 16
Enter the number of sampling: 
16384
Input time for GPU: 0.362656 (ms) 
Processing time for GPU: 0.310208 (ms) 
Calculation time in CPU: 0.040864 (ms)
0.240236866589962 +- 0.000449406473581
