Using device 1
The block size is 8
The grid size is 8
Enter the number of sampling: 
256
Input time for GPU: 0.365824 (ms) 
Processing time for GPU: 0.297024 (ms) 
Calculation time in CPU: 0.042816 (ms)
0.237772241234779 +- 0.003551923669875
