Using device 1
The block size is 16
The grid size is 2
Enter the number of sampling: 
4096
Input time for GPU: 0.327200 (ms) 
Processing time for GPU: 0.567904 (ms) 
Calculation time in CPU: 0.041664 (ms)
0.237967237830162 +- 0.000910922244657
