Using device 1
The block size is 1024
The grid size is 256
Enter the number of sampling: 
65536
Input time for GPU: 0.190848 (ms) 
Processing time for GPU: 0.495168 (ms) 
Calculation time in CPU: 0.043840 (ms)
0.242524549365044 +- 0.000227458818699
