Using device 1
The block size is 8
The grid size is 512
Enter the number of sampling: 
8192
Input time for GPU: 0.167232 (ms) 
Processing time for GPU: 0.147488 (ms) 
Calculation time in CPU: 0.042496 (ms)
0.241137042641640 +- 0.000644035986625
