Using device 1
The block size is 16
The grid size is 128
Enter the number of sampling: 
2048
Input time for GPU: 0.323904 (ms) 
Processing time for GPU: 0.137952 (ms) 
Calculation time in CPU: 0.041216 (ms)
0.242138549685478 +- 0.001236860873178
