Using device 1
The block size is 512
The grid size is 1024
Enter the number of sampling: 
512
Input time for GPU: 0.375456 (ms) 
Processing time for GPU: 0.667520 (ms) 
Calculation time in CPU: 0.042880 (ms)
0.241234928369522 +- 0.002451483858749
