Using device 1
The block size is 256
The grid size is 128
Enter the number of sampling: 
65536
Input time for GPU: 0.172960 (ms) 
Processing time for GPU: 0.527712 (ms) 
Calculation time in CPU: 0.042080 (ms)
0.240631570967572 +- 0.000226852474902
