Using device 1
The block size is 4
The grid size is 4
Enter the number of sampling: 
2048
Input time for GPU: 0.185568 (ms) 
Processing time for GPU: 0.402400 (ms) 
Calculation time in CPU: 0.040608 (ms)
0.239603370428085 +- 0.001269279280677
