Using device 1
The block size is 32
The grid size is 8
Enter the number of sampling: 
16384
Input time for GPU: 0.183232 (ms) 
Processing time for GPU: 0.209920 (ms) 
Calculation time in CPU: 0.042336 (ms)
0.237499803304672 +- 0.000456065259641
