Using device 1
The block size is 8
The grid size is 1
Enter the number of sampling: 
64
Input time for GPU: 0.218336 (ms) 
Processing time for GPU: 0.131808 (ms) 
Calculation time in CPU: 0.039296 (ms)
0.249652847647667 +- 0.007750052958727
