Using device 1
The block size is 128
The grid size is 64
Enter the number of sampling: 
1024
Input time for GPU: 0.166592 (ms) 
Processing time for GPU: 0.060160 (ms) 
Calculation time in CPU: 0.042208 (ms)
0.241743370890617 +- 0.001777592697181
