Using device 1
The block size is 512
The grid size is 1024
Enter the number of sampling: 
8192
Input time for GPU: 0.216512 (ms) 
Processing time for GPU: 0.416672 (ms) 
Calculation time in CPU: 0.041888 (ms)
0.242033988237381 +- 0.000632609997410
