Using device 1
The block size is 512
The grid size is 256
Enter the number of sampling: 
128
Input time for GPU: 0.335104 (ms) 
Processing time for GPU: 0.404992 (ms) 
Calculation time in CPU: 0.046976 (ms)
0.239315778017044 +- 0.004902409855276
