Using device 1
The block size is 8
The grid size is 128
Enter the number of sampling: 
8192
Input time for GPU: 0.228224 (ms) 
Processing time for GPU: 0.140640 (ms) 
Calculation time in CPU: 0.041600 (ms)
0.238736271858215 +- 0.000643907813355
