Using device 1
The block size is 8
The grid size is 64
Enter the number of sampling: 
512
Input time for GPU: 0.325408 (ms) 
Processing time for GPU: 0.348160 (ms) 
Calculation time in CPU: 0.063360 (ms)
0.241234913468361 +- 0.002451485488564
