Using device 1
The block size is 32
The grid size is 256
Enter the number of sampling: 
512
Input time for GPU: 0.411456 (ms) 
Processing time for GPU: 0.349696 (ms) 
Calculation time in CPU: 0.062912 (ms)
0.241234928369522 +- 0.002451485488564
