Using device 1
The block size is 32
The grid size is 64
Enter the number of sampling: 
32768
Input time for GPU: 0.170272 (ms) 
Processing time for GPU: 0.233536 (ms) 
Calculation time in CPU: 0.042240 (ms)
0.238512886028791 +- 0.000321064864038
