Using device 1
The block size is 2
The grid size is 128
Enter the number of sampling: 
65536
Input time for GPU: 0.187488 (ms) 
Processing time for GPU: 5.360416 (ms) 
Calculation time in CPU: 0.040960 (ms)
0.237671819338992 +- 0.000227435879325
