Using device 1
The block size is 1024
The grid size is 64
Enter the number of sampling: 
16384
Input time for GPU: 0.231360 (ms) 
Processing time for GPU: 0.171808 (ms) 
Calculation time in CPU: 0.044448 (ms)
0.241758048534393 +- 0.000450414285297
