Using device 1
The block size is 4
The grid size is 2
Enter the number of sampling: 
4096
Input time for GPU: 0.182880 (ms) 
Processing time for GPU: 1.227712 (ms) 
Calculation time in CPU: 0.042336 (ms)
0.238836139440536 +- 0.000896243844181
