Using device 1
The block size is 2
The grid size is 1
Enter the number of sampling: 
64
Input time for GPU: 0.327296 (ms) 
Processing time for GPU: 0.411872 (ms) 
Calculation time in CPU: 0.046976 (ms)
0.235854923725128 +- 0.006243236828595
