Using device 1
The block size is 16
The grid size is 4
Enter the number of sampling: 
512
Input time for GPU: 0.175168 (ms) 
Processing time for GPU: 0.131520 (ms) 
Calculation time in CPU: 0.039456 (ms)
0.238451853394508 +- 0.002795988228172
