Using device 1
The block size is 1
The grid size is 1024
Enter the number of sampling: 
1024
Input time for GPU: 0.186848 (ms) 
Processing time for GPU: 0.469760 (ms) 
Calculation time in CPU: 0.044416 (ms)
0.241743341088295 +- 0.001777598750778
