Using device 1
The block size is 16
The grid size is 64
Enter the number of sampling: 
256
Input time for GPU: 0.251936 (ms) 
Processing time for GPU: 0.287488 (ms) 
Calculation time in CPU: 0.044896 (ms)
0.243761956691742 +- 0.003627157304436
