Using device 1
The block size is 32
The grid size is 16
Enter the number of sampling: 
1024
Input time for GPU: 0.227936 (ms) 
Processing time for GPU: 0.100224 (ms) 
Calculation time in CPU: 0.046848 (ms)
0.241538628935814 +- 0.001832402194850
