Using device 1
The block size is 8
The grid size is 512
Enter the number of sampling: 
2048
Input time for GPU: 0.214976 (ms) 
Processing time for GPU: 0.119232 (ms) 
Calculation time in CPU: 0.040416 (ms)
0.242138594388962 +- 0.001236857147887
