Using device 1
The block size is 8
The grid size is 1
Enter the number of sampling: 
65536
Input time for GPU: 0.165728 (ms) 
Processing time for GPU: 63.201279 (ms) 
Calculation time in CPU: 0.041728 (ms)
0.238241964164908 +- 0.000226605270349
