Using device 1
The block size is 32
The grid size is 1
Enter the number of sampling: 
65536
Input time for GPU: 0.212288 (ms) 
Processing time for GPU: 15.901248 (ms) 
Calculation time in CPU: 0.040672 (ms)
0.237709876385602 +- 0.000226200544186
