Using device 1
The block size is 4
The grid size is 1
Enter the number of sampling: 
1024
Input time for GPU: 0.180352 (ms) 
Processing time for GPU: 0.645280 (ms) 
Calculation time in CPU: 0.041600 (ms)
0.240181028842926 +- 0.001823251717724
