Using device 1
The block size is 64
The grid size is 16
Enter the number of sampling: 
4096
Input time for GPU: 0.172608 (ms) 
Processing time for GPU: 0.069312 (ms) 
Calculation time in CPU: 0.040512 (ms)
0.239321976900101 +- 0.000890248687938
