Using device 1
The block size is 2
The grid size is 1024
Enter the number of sampling: 
128
Input time for GPU: 0.216704 (ms) 
Processing time for GPU: 0.133024 (ms) 
Calculation time in CPU: 0.041024 (ms)
0.239315792918205 +- 0.004902409855276
