Using device 1
The block size is 4
The grid size is 4
Enter the number of sampling: 
64
Input time for GPU: 0.346400 (ms) 
Processing time for GPU: 0.300064 (ms) 
Calculation time in CPU: 0.042816 (ms)
0.246268853545189 +- 0.007520977407694
