Using device 1
The block size is 8
The grid size is 2
Enter the number of sampling: 
32768
Input time for GPU: 0.186432 (ms) 
Processing time for GPU: 15.938784 (ms) 
Calculation time in CPU: 0.040608 (ms)
0.237535406387042 +- 0.000318685772792
