Using device 1
The block size is 4
The grid size is 16
Enter the number of sampling: 
8192
Input time for GPU: 0.177184 (ms) 
Processing time for GPU: 0.365536 (ms) 
Calculation time in CPU: 0.041408 (ms)
0.237839326262474 +- 0.000648934568744
