Using device 1
The block size is 8
The grid size is 512
Enter the number of sampling: 
256
Input time for GPU: 0.218016 (ms) 
Processing time for GPU: 0.115904 (ms) 
Calculation time in CPU: 0.040608 (ms)
0.243761956691742 +- 0.003627157304436
