Using device 1
The block size is 512
The grid size is 64
Enter the number of sampling: 
512
Input time for GPU: 0.219456 (ms) 
Processing time for GPU: 0.129120 (ms) 
Calculation time in CPU: 0.041856 (ms)
0.241234928369522 +- 0.002451483858749
