Using device 1
The block size is 256
The grid size is 512
Enter the number of sampling: 
256
Input time for GPU: 0.343872 (ms) 
Processing time for GPU: 0.410048 (ms) 
Calculation time in CPU: 0.051872 (ms)
0.243761956691742 +- 0.003627157304436
