Using device 1
The block size is 32
The grid size is 1024
Enter the number of sampling: 
64
Input time for GPU: 0.321280 (ms) 
Processing time for GPU: 0.195328 (ms) 
Calculation time in CPU: 0.055680 (ms)
0.230888038873672 +- 0.006376444362104
