Using device 1
The block size is 2
The grid size is 512
Enter the number of sampling: 
8192
Input time for GPU: 0.171968 (ms) 
Processing time for GPU: 0.151776 (ms) 
Calculation time in CPU: 0.042400 (ms)
0.238736435770988 +- 0.000643895124085
