Using device 1
The block size is 8
The grid size is 128
Enter the number of sampling: 
2048
Input time for GPU: 0.171008 (ms) 
Processing time for GPU: 0.062304 (ms) 
Calculation time in CPU: 0.039680 (ms)
0.241309791803360 +- 0.001284569967538
