Using device 1
The block size is 4
The grid size is 16
Enter the number of sampling: 
32768
Input time for GPU: 0.328000 (ms) 
Processing time for GPU: 4.617664 (ms) 
Calculation time in CPU: 0.042912 (ms)
0.237906106581323 +- 0.000320451881448
