Using device 1
The block size is 4
The grid size is 8
Enter the number of sampling: 
128
Input time for GPU: 0.182432 (ms) 
Processing time for GPU: 0.068032 (ms) 
Calculation time in CPU: 0.039776 (ms)
0.233993604779243 +- 0.004712588619441
