Using device 1
The block size is 1
The grid size is 128
Enter the number of sampling: 
64
Input time for GPU: 0.165088 (ms) 
Processing time for GPU: 0.058208 (ms) 
Calculation time in CPU: 0.040672 (ms)
0.230888083577156 +- 0.006376421544701
