Using device 1
The block size is 16
The grid size is 8
Enter the number of sampling: 
32768
Input time for GPU: 0.217504 (ms) 
Processing time for GPU: 2.080160 (ms) 
Calculation time in CPU: 0.042080 (ms)
0.237522777918806 +- 0.000319625949442
