Using device 1
The block size is 512
The grid size is 1
Enter the number of sampling: 
256
Input time for GPU: 0.255520 (ms) 
Processing time for GPU: 0.216832 (ms) 
Calculation time in CPU: 0.042080 (ms)
0.243761956691742 +- 0.003627157304436
