Using device 1
The block size is 256
The grid size is 64
Enter the number of sampling: 
4096
Input time for GPU: 0.174848 (ms) 
Processing time for GPU: 0.074048 (ms) 
Calculation time in CPU: 0.042784 (ms)
0.242465540766716 +- 0.000893928634468
