Using device 1
The block size is 256
The grid size is 128
Enter the number of sampling: 
32768
Input time for GPU: 0.184576 (ms) 
Processing time for GPU: 0.420992 (ms) 
Calculation time in CPU: 0.041600 (ms)
0.242288013566681 +- 0.000322055070576
