Using device 1
The block size is 64
The grid size is 256
Enter the number of sampling: 
2048
Input time for GPU: 0.188352 (ms) 
Processing time for GPU: 0.119072 (ms) 
Calculation time in CPU: 0.041536 (ms)
0.242138549685478 +- 0.001236861571670
