Using device 1
The block size is 1024
The grid size is 1
Enter the number of sampling: 
32768
Input time for GPU: 0.178624 (ms) 
Processing time for GPU: 0.311200 (ms) 
Calculation time in CPU: 0.044576 (ms)
0.238224446773529 +- 0.000321551458910
