Using device 1
The block size is 64
The grid size is 512
Enter the number of sampling: 
65536
Input time for GPU: 0.169440 (ms) 
Processing time for GPU: 0.525600 (ms) 
Calculation time in CPU: 0.043200 (ms)
0.240631570967571 +- 0.000226852474902
