Using device 1
The block size is 256
The grid size is 8
Enter the number of sampling: 
64
Input time for GPU: 0.171552 (ms) 
Processing time for GPU: 0.060736 (ms) 
Calculation time in CPU: 0.039072 (ms)
0.230888038873672 +- 0.006376444362104
