Using device 1
The block size is 32
The grid size is 512
Enter the number of sampling: 
256
Input time for GPU: 0.174752 (ms) 
Processing time for GPU: 0.421504 (ms) 
Calculation time in CPU: 0.045216 (ms)
0.243761956691742 +- 0.003627161262557
