Using device 1
The block size is 4
The grid size is 32
Enter the number of sampling: 
65536
Input time for GPU: 0.221856 (ms) 
Processing time for GPU: 4.531552 (ms) 
Calculation time in CPU: 0.042048 (ms)
0.237733519585478 +- 0.000226929896986
