Using device 1
The block size is 1024
The grid size is 32
Enter the number of sampling: 
2048
Input time for GPU: 0.182464 (ms) 
Processing time for GPU: 0.079456 (ms) 
Calculation time in CPU: 0.041856 (ms)
0.242138534784317 +- 0.001236863667145
