Using device 1
The block size is 64
The grid size is 256
Enter the number of sampling: 
4096
Input time for GPU: 0.185152 (ms) 
Processing time for GPU: 0.125088 (ms) 
Calculation time in CPU: 0.040352 (ms)
0.242465525865555 +- 0.000893930147868
