Using device 1
The block size is 512
The grid size is 16
Enter the number of sampling: 
2048
Input time for GPU: 0.327072 (ms) 
Processing time for GPU: 0.338464 (ms) 
Calculation time in CPU: 0.058016 (ms)
0.242138549685478 +- 0.001236862270162
