Using device 1
The block size is 4
The grid size is 8
Enter the number of sampling: 
2048
Input time for GPU: 0.188032 (ms) 
Processing time for GPU: 0.333088 (ms) 
Calculation time in CPU: 0.042912 (ms)
0.239133641123772 +- 0.001290378160775
