Using device 1
The block size is 256
The grid size is 32
Enter the number of sampling: 
65536
Input time for GPU: 0.221472 (ms) 
Processing time for GPU: 0.483136 (ms) 
Calculation time in CPU: 0.042368 (ms)
0.238438058238255 +- 0.000226383073658
