Using device 1
The block size is 512
The grid size is 128
Enter the number of sampling: 
4096
Input time for GPU: 0.325600 (ms) 
Processing time for GPU: 0.169696 (ms) 
Calculation time in CPU: 0.041888 (ms)
0.242465510964394 +- 0.000893931195606
