Using device 1
The block size is 8
The grid size is 512
Enter the number of sampling: 
1024
Input time for GPU: 0.167776 (ms) 
Processing time for GPU: 0.063168 (ms) 
Calculation time in CPU: 0.041792 (ms)
0.241743355989456 +- 0.001777594676241
