Using device 1
The block size is 1024
The grid size is 4
Enter the number of sampling: 
65536
Input time for GPU: 0.373632 (ms) 
Processing time for GPU: 0.427360 (ms) 
Calculation time in CPU: 0.041504 (ms)
0.238441720604897 +- 0.000226956835832
