Using device 1
The block size is 16
The grid size is 128
Enter the number of sampling: 
16384
Input time for GPU: 0.217376 (ms) 
Processing time for GPU: 0.137856 (ms) 
Calculation time in CPU: 0.039968 (ms)
0.238660976290703 +- 0.000453279295471
