Using device 1
The block size is 16
The grid size is 256
Enter the number of sampling: 
32768
Input time for GPU: 0.171904 (ms) 
Processing time for GPU: 0.358144 (ms) 
Calculation time in CPU: 0.041024 (ms)
0.238678306707512 +- 0.000320496390148
