Using device 1
The block size is 256
The grid size is 8
Enter the number of sampling: 
16384
Input time for GPU: 0.222496 (ms) 
Processing time for GPU: 0.231648 (ms) 
Calculation time in CPU: 0.041088 (ms)
0.238661073351784 +- 0.000453275549479
