Using device 1
The block size is 8
The grid size is 512
Enter the number of sampling: 
16384
Input time for GPU: 0.172128 (ms) 
Processing time for GPU: 0.116768 (ms) 
Calculation time in CPU: 0.040832 (ms)
0.239346042275429 +- 0.000452246284112
