Using device 1
The block size is 256
The grid size is 4
Enter the number of sampling: 
512
Input time for GPU: 0.171168 (ms) 
Processing time for GPU: 0.117344 (ms) 
Calculation time in CPU: 0.039456 (ms)
0.241234928369522 +- 0.002451482461765
