Using device 1
The block size is 8
The grid size is 64
Enter the number of sampling: 
2048
Input time for GPU: 0.171584 (ms) 
Processing time for GPU: 0.068320 (ms) 
Calculation time in CPU: 0.041568 (ms)
0.239475980401039 +- 0.001262769219466
