Using device 1
The block size is 1
The grid size is 32
Enter the number of sampling: 
64
Input time for GPU: 0.338080 (ms) 
Processing time for GPU: 0.336352 (ms) 
Calculation time in CPU: 0.060736 (ms)
0.227923497557640 +- 0.005478478968143
