Using device 1
The block size is 512
The grid size is 1024
Enter the number of sampling: 
4096
Input time for GPU: 0.367168 (ms) 
Processing time for GPU: 0.644288 (ms) 
Calculation time in CPU: 0.042400 (ms)
0.242465510964394 +- 0.000893931195606
