Using device 1
The block size is 4
The grid size is 32
Enter the number of sampling: 
8192
Input time for GPU: 0.172256 (ms) 
Processing time for GPU: 0.265888 (ms) 
Calculation time in CPU: 0.041888 (ms)
0.238174408674240 +- 0.000655085430481
