Using device 1
The block size is 2
The grid size is 1024
Enter the number of sampling: 
32768
Input time for GPU: 0.174528 (ms) 
Processing time for GPU: 2.790304 (ms) 
Calculation time in CPU: 0.043616 (ms)
0.238512886028791 +- 0.000321064864038
