Using device 1
The block size is 2
The grid size is 1
Enter the number of sampling: 
2048
Input time for GPU: 0.180608 (ms) 
Processing time for GPU: 2.332992 (ms) 
Calculation time in CPU: 0.041536 (ms)
0.238068461418152 +- 0.001255806186236
