Using device 1
The block size is 256
The grid size is 32
Enter the number of sampling: 
128
Input time for GPU: 0.338560 (ms) 
Processing time for GPU: 0.356064 (ms) 
Calculation time in CPU: 0.066080 (ms)
0.239315778017044 +- 0.004902409855276
