Using device 1
The block size is 64
The grid size is 1
Enter the number of sampling: 
4096
Input time for GPU: 0.182176 (ms) 
Processing time for GPU: 0.206752 (ms) 
Calculation time in CPU: 0.042304 (ms)
0.238231390714645 +- 0.000916764314752
