Using device 1
The block size is 4
The grid size is 16
Enter the number of sampling: 
128
Input time for GPU: 0.172032 (ms) 
Processing time for GPU: 0.062432 (ms) 
Calculation time in CPU: 0.040704 (ms)
0.238820478320122 +- 0.005340832285583
