Using device 1
The block size is 1
The grid size is 64
Enter the number of sampling: 
4096
Input time for GPU: 0.220448 (ms) 
Processing time for GPU: 0.257376 (ms) 
Calculation time in CPU: 0.041536 (ms)
0.238231360912323 +- 0.000916765769944
