Using device 1
The block size is 1
The grid size is 32
Enter the number of sampling: 
8192
Input time for GPU: 0.223520 (ms) 
Processing time for GPU: 0.670688 (ms) 
Calculation time in CPU: 0.042912 (ms)
0.237565308809280 +- 0.000639290490653
