Using device 1
The block size is 2
The grid size is 16
Enter the number of sampling: 
1024
Input time for GPU: 0.167008 (ms) 
Processing time for GPU: 0.129376 (ms) 
Calculation time in CPU: 0.041152 (ms)
0.238267153501511 +- 0.001875959569588
