Using device 1
The block size is 2
The grid size is 16
Enter the number of sampling: 
512
Input time for GPU: 0.320480 (ms) 
Processing time for GPU: 0.380160 (ms) 
Calculation time in CPU: 0.054592 (ms)
0.238541528582573 +- 0.002740149153396
