Using device 1
The block size is 1
The grid size is 4
Enter the number of sampling: 
65536
Input time for GPU: 0.283424 (ms) 
Processing time for GPU: 123.250916 (ms) 
Calculation time in CPU: 0.042816 (ms)
0.238066909876813 +- 0.000227407888195
