Using device 1
The block size is 4
The grid size is 128
Enter the number of sampling: 
1024
Input time for GPU: 0.261824 (ms) 
Processing time for GPU: 0.326432 (ms) 
Calculation time in CPU: 0.045472 (ms)
0.241538554430008 +- 0.001832413137890
