Using device 1
The block size is 64
The grid size is 2
Enter the number of sampling: 
1024
Input time for GPU: 0.171328 (ms) 
Processing time for GPU: 0.136736 (ms) 
Calculation time in CPU: 0.040128 (ms)
0.239092677831650 +- 0.001911260420457
