Using device 1
The block size is 128
The grid size is 2
Enter the number of sampling: 
4096
Input time for GPU: 0.222880 (ms) 
Processing time for GPU: 0.144864 (ms) 
Calculation time in CPU: 0.039968 (ms)
0.237820059061050 +- 0.000916075543500
