Using device 1
The block size is 256
The grid size is 256
Enter the number of sampling: 
65536
Input time for GPU: 0.350400 (ms) 
Processing time for GPU: 0.877728 (ms) 
Calculation time in CPU: 0.041952 (ms)
0.242524547403954 +- 0.000227459124061
