Using device 1
The block size is 1024
The grid size is 4
Enter the number of sampling: 
32768
Input time for GPU: 0.182016 (ms) 
Processing time for GPU: 0.126976 (ms) 
Calculation time in CPU: 0.040352 (ms)
0.238678306341171 +- 0.000320496474160
