Using device 1
The block size is 512
The grid size is 1
Enter the number of sampling: 
64
Input time for GPU: 0.188864 (ms) 
Processing time for GPU: 0.121216 (ms) 
Calculation time in CPU: 0.039648 (ms)
0.230888038873672 +- 0.006376444362104
