Using device 1
The block size is 1
The grid size is 8
Enter the number of sampling: 
32768
Input time for GPU: 0.335520 (ms) 
Processing time for GPU: 31.119616 (ms) 
Calculation time in CPU: 0.041664 (ms)
0.238115831509189 +- 0.000322178619484
