Using device 1
The block size is 1
The grid size is 256
Enter the number of sampling: 
1024
Input time for GPU: 0.258848 (ms) 
Processing time for GPU: 0.186144 (ms) 
Calculation time in CPU: 0.043456 (ms)
0.238753512501717 +- 0.001794093288481
