Using device 1
The block size is 256
The grid size is 2
Enter the number of sampling: 
256
Input time for GPU: 0.170944 (ms) 
Processing time for GPU: 0.065728 (ms) 
Calculation time in CPU: 0.041056 (ms)
0.243761956691742 +- 0.003627157304436
