Using device 1
The block size is 1024
The grid size is 1
Enter the number of sampling: 
8192
Input time for GPU: 0.215808 (ms) 
Processing time for GPU: 0.181024 (ms) 
Calculation time in CPU: 0.039744 (ms)
0.238736316561699 +- 0.000643904611934
