Using device 1
The block size is 1
The grid size is 128
Enter the number of sampling: 
1024
Input time for GPU: 0.182592 (ms) 
Processing time for GPU: 0.085504 (ms) 
Calculation time in CPU: 0.045120 (ms)
0.239092618227005 +- 0.001911269966513
