Using device 1
The block size is 128
The grid size is 4
Enter the number of sampling: 
4096
Input time for GPU: 0.335392 (ms) 
Processing time for GPU: 0.350496 (ms) 
Calculation time in CPU: 0.059904 (ms)
0.238727480173111 +- 0.000924797146581
