Using device 1
The block size is 1
The grid size is 1
Enter the number of sampling: 
8192
Input time for GPU: 0.165888 (ms) 
Processing time for GPU: 17.393791 (ms) 
Calculation time in CPU: 0.042272 (ms)
0.238028079271317 +- 0.000636662065517
