Using device 1
The block size is 64
The grid size is 32
Enter the number of sampling: 
8192
Input time for GPU: 0.171584 (ms) 
Processing time for GPU: 0.070784 (ms) 
Calculation time in CPU: 0.041536 (ms)
0.239179790019989 +- 0.000633714254946
