Using device 1
The block size is 32
The grid size is 1
Enter the number of sampling: 
256
Input time for GPU: 0.321088 (ms) 
Processing time for GPU: 0.334144 (ms) 
Calculation time in CPU: 0.055968 (ms)
0.240485474467278 +- 0.004061501007527
