Using device 1
The block size is 16
The grid size is 32
Enter the number of sampling: 
8192
Input time for GPU: 0.219936 (ms) 
Processing time for GPU: 0.146528 (ms) 
Calculation time in CPU: 0.046848 (ms)
0.238649815320969 +- 0.000649938650895
