Using device 1
The block size is 16
The grid size is 8
Enter the number of sampling: 
16384
Input time for GPU: 0.170656 (ms) 
Processing time for GPU: 0.352832 (ms) 
Calculation time in CPU: 0.041248 (ms)
0.237654358148575 +- 0.000458403490484
