Using device 1
The block size is 1
The grid size is 8
Enter the number of sampling: 
4096
Input time for GPU: 0.254912 (ms) 
Processing time for GPU: 1.247520 (ms) 
Calculation time in CPU: 0.040768 (ms)
0.238836154341698 +- 0.000896242796443
