Using device 1
The block size is 1
The grid size is 4
Enter the number of sampling: 
4096
Input time for GPU: 0.330592 (ms) 
Processing time for GPU: 2.355168 (ms) 
Calculation time in CPU: 0.041056 (ms)
0.238453254103661 +- 0.000894433644135
