Using device 1
The block size is 128
The grid size is 1024
Enter the number of sampling: 
256
Input time for GPU: 0.165888 (ms) 
Processing time for GPU: 0.170304 (ms) 
Calculation time in CPU: 0.043584 (ms)
0.243761956691742 +- 0.003627157304436
