Using device 1
The block size is 16
The grid size is 1
Enter the number of sampling: 
65536
Input time for GPU: 0.317696 (ms) 
Processing time for GPU: 31.808640 (ms) 
Calculation time in CPU: 0.042528 (ms)
0.238005225482815 +- 0.000226991459964
