Using device 1
The block size is 8
The grid size is 128
Enter the number of sampling: 
4096
Input time for GPU: 0.215840 (ms) 
Processing time for GPU: 0.125472 (ms) 
Calculation time in CPU: 0.041536 (ms)
0.239322006702423 +- 0.000890244613402
