Using device 1
The block size is 256
The grid size is 1
Enter the number of sampling: 
8192
Input time for GPU: 0.169984 (ms) 
Processing time for GPU: 0.142720 (ms) 
Calculation time in CPU: 0.041760 (ms)
0.237437844276428 +- 0.000642308325041
