Using device 1
The block size is 16
The grid size is 2
Enter the number of sampling: 
128
Input time for GPU: 0.172736 (ms) 
Processing time for GPU: 0.121920 (ms) 
Calculation time in CPU: 0.039648 (ms)
0.233993619680405 +- 0.004712579306215
