Using device 1
The block size is 1
The grid size is 1024
Enter the number of sampling: 
2048
Input time for GPU: 0.212992 (ms) 
Processing time for GPU: 0.159200 (ms) 
Calculation time in CPU: 0.042112 (ms)
0.241309717297554 +- 0.001284579746425
