Using device 1
The block size is 1
The grid size is 4
Enter the number of sampling: 
32768
Input time for GPU: 0.168864 (ms) 
Processing time for GPU: 61.582687 (ms) 
Calculation time in CPU: 0.040416 (ms)
0.238519482241948 +- 0.000321129250207
