Using device 1
The block size is 16
The grid size is 16
Enter the number of sampling: 
1024
Input time for GPU: 0.172672 (ms) 
Processing time for GPU: 0.076288 (ms) 
Calculation time in CPU: 0.040224 (ms)
0.238753497600555 +- 0.001794095383957
