Using device 1
The block size is 32
The grid size is 16
Enter the number of sampling: 
16384
Input time for GPU: 0.345248 (ms) 
Processing time for GPU: 0.415808 (ms) 
Calculation time in CPU: 0.040928 (ms)
0.238682299852371 +- 0.000456797541119
