Using device 1
The block size is 1
The grid size is 32
Enter the number of sampling: 
512
Input time for GPU: 0.186784 (ms) 
Processing time for GPU: 0.201248 (ms) 
Calculation time in CPU: 0.041120 (ms)
0.238541528582573 +- 0.002740149153396
