Using device 1
The block size is 1
The grid size is 1024
Enter the number of sampling: 
128
Input time for GPU: 0.180480 (ms) 
Processing time for GPU: 0.068640 (ms) 
Calculation time in CPU: 0.042848 (ms)
0.239315763115883 +- 0.004902415908873
