Using device 1
The block size is 1
The grid size is 256
Enter the number of sampling: 
8192
Input time for GPU: 0.173088 (ms) 
Processing time for GPU: 0.617248 (ms) 
Calculation time in CPU: 0.043008 (ms)
0.237437859177589 +- 0.000642305123620
