Using device 1
The block size is 256
The grid size is 2
Enter the number of sampling: 
4096
Input time for GPU: 0.325216 (ms) 
Processing time for GPU: 0.371232 (ms) 
Calculation time in CPU: 0.057760 (ms)
0.238727480173111 +- 0.000924797146581
