Using device 1
The block size is 256
The grid size is 8
Enter the number of sampling: 
1024
Input time for GPU: 0.340864 (ms) 
Processing time for GPU: 0.289824 (ms) 
Calculation time in CPU: 0.044000 (ms)
0.241743355989456 +- 0.001777593628503
