Using device 1
The block size is 2
The grid size is 2
Enter the number of sampling: 
256
Input time for GPU: 0.326240 (ms) 
Processing time for GPU: 0.474048 (ms) 
Calculation time in CPU: 0.042048 (ms)
0.244233250617981 +- 0.003338862676173
