Using device 1
The block size is 32
The grid size is 64
Enter the number of sampling: 
4096
Input time for GPU: 0.217216 (ms) 
Processing time for GPU: 0.093152 (ms) 
Calculation time in CPU: 0.041632 (ms)
0.241137534379959 +- 0.000903425097931
