Using device 1
The block size is 32
The grid size is 4
Enter the number of sampling: 
4096
Input time for GPU: 0.181472 (ms) 
Processing time for GPU: 0.133920 (ms) 
Calculation time in CPU: 0.041952 (ms)
0.237387776374817 +- 0.000919750542380
