Using device 1
The block size is 128
The grid size is 2
Enter the number of sampling: 
16384
Input time for GPU: 0.169824 (ms) 
Processing time for GPU: 0.674976 (ms) 
Calculation time in CPU: 0.040384 (ms)
0.237499799415289 +- 0.000456065308303
