Using device 1
The block size is 32
The grid size is 4
Enter the number of sampling: 
65536
Input time for GPU: 0.171808 (ms) 
Processing time for GPU: 4.088992 (ms) 
Calculation time in CPU: 0.041024 (ms)
0.237733519585478 +- 0.000226929896986
