Using device 1
The block size is 1024
The grid size is 16
Enter the number of sampling: 
32768
Input time for GPU: 0.188320 (ms) 
Processing time for GPU: 0.351488 (ms) 
Calculation time in CPU: 0.040640 (ms)
0.240463346242905 +- 0.000319849525113
