Using device 1
The block size is 8
The grid size is 64
Enter the number of sampling: 
4096
Input time for GPU: 0.188864 (ms) 
Processing time for GPU: 0.195776 (ms) 
Calculation time in CPU: 0.041856 (ms)
0.238727465271950 +- 0.000924797612242
