Using device 1
The block size is 2
The grid size is 8
Enter the number of sampling: 
8192
Input time for GPU: 0.224736 (ms) 
Processing time for GPU: 1.262656 (ms) 
Calculation time in CPU: 0.040192 (ms)
0.238226994872093 +- 0.000635027128737
