Using device 1
The block size is 8
The grid size is 16
Enter the number of sampling: 
8192
Input time for GPU: 0.215584 (ms) 
Processing time for GPU: 0.257536 (ms) 
Calculation time in CPU: 0.041152 (ms)
0.238174423575401 +- 0.000655084033497
