Using device 1
The block size is 64
The grid size is 16
Enter the number of sampling: 
32768
Input time for GPU: 0.169632 (ms) 
Processing time for GPU: 0.399648 (ms) 
Calculation time in CPU: 0.041472 (ms)
0.238224442320407 +- 0.000321551496836
