Using device 1
The block size is 32
The grid size is 1
Enter the number of sampling: 
16384
Input time for GPU: 0.175680 (ms) 
Processing time for GPU: 1.244224 (ms) 
Calculation time in CPU: 0.041696 (ms)
0.237866476178169 +- 0.000454177323263
