Using device 1
The block size is 2
The grid size is 128
Enter the number of sampling: 
16384
Input time for GPU: 0.176416 (ms) 
Processing time for GPU: 0.262848 (ms) 
Calculation time in CPU: 0.042080 (ms)
0.237499758601189 +- 0.000456065521576
