Using device 1
The block size is 512
The grid size is 32
Enter the number of sampling: 
256
Input time for GPU: 0.173088 (ms) 
Processing time for GPU: 0.068512 (ms) 
Calculation time in CPU: 0.040032 (ms)
0.243761956691742 +- 0.003627157304436
