Using device 1
The block size is 256
The grid size is 32
Enter the number of sampling: 
8192
Input time for GPU: 0.183584 (ms) 
Processing time for GPU: 0.065664 (ms) 
Calculation time in CPU: 0.041376 (ms)
0.242034003138542 +- 0.000632609240711
