Using device 1
The block size is 64
The grid size is 128
Enter the number of sampling: 
8192
Input time for GPU: 0.176992 (ms) 
Processing time for GPU: 0.073920 (ms) 
Calculation time in CPU: 0.041408 (ms)
0.242034047842026 +- 0.000632607843727
