Using device 1
The block size is 4
The grid size is 4
Enter the number of sampling: 
16384
Input time for GPU: 0.173280 (ms) 
Processing time for GPU: 2.411904 (ms) 
Calculation time in CPU: 0.039488 (ms)
0.238091856241226 +- 0.000450928899227
