Using device 1
The block size is 8
The grid size is 256
Enter the number of sampling: 
32768
Input time for GPU: 0.168640 (ms) 
Processing time for GPU: 0.686496 (ms) 
Calculation time in CPU: 0.041664 (ms)
0.238512886028791 +- 0.000321064864038
