Using device 1
The block size is 128
The grid size is 4
Enter the number of sampling: 
16384
Input time for GPU: 0.217504 (ms) 
Processing time for GPU: 0.397728 (ms) 
Calculation time in CPU: 0.041216 (ms)
0.238682313463395 +- 0.000456797231376
