Using device 1
The block size is 4
The grid size is 128
Enter the number of sampling: 
8192
Input time for GPU: 0.180704 (ms) 
Processing time for GPU: 0.112672 (ms) 
Calculation time in CPU: 0.039680 (ms)
0.238649800419807 +- 0.000649937603157
