Using device 1
The block size is 128
The grid size is 8
Enter the number of sampling: 
65536
Input time for GPU: 0.341088 (ms) 
Processing time for GPU: 0.892736 (ms) 
Calculation time in CPU: 0.041440 (ms)
0.237769447919691 +- 0.000227014576752
