Using device 1
The block size is 1
The grid size is 1
Enter the number of sampling: 
256
Input time for GPU: 0.164448 (ms) 
Processing time for GPU: 0.597408 (ms) 
Calculation time in CPU: 0.039488 (ms)
0.245577976107597 +- 0.003436432452872
