Using device 1
The block size is 4
The grid size is 512
Enter the number of sampling: 
4096
Input time for GPU: 0.330240 (ms) 
Processing time for GPU: 0.370176 (ms) 
Calculation time in CPU: 0.054464 (ms)
0.241137534379959 +- 0.000903425097931
