Using device 1
The block size is 1024
The grid size is 4
Enter the number of sampling: 
512
Input time for GPU: 0.172992 (ms) 
Processing time for GPU: 0.065856 (ms) 
Calculation time in CPU: 0.040544 (ms)
0.241234928369522 +- 0.002451483858749
