Using device 1
The block size is 256
The grid size is 1
Enter the number of sampling: 
256
Input time for GPU: 0.261504 (ms) 
Processing time for GPU: 0.153920 (ms) 
Calculation time in CPU: 0.041472 (ms)
0.243761956691742 +- 0.003627157304436
