Using device 1
The block size is 1
The grid size is 1
Enter the number of sampling: 
1024
Input time for GPU: 0.325440 (ms) 
Processing time for GPU: 2.301152 (ms) 
Calculation time in CPU: 0.041152 (ms)
0.240547060966492 +- 0.001768304500729
