Using device 1
The block size is 1
The grid size is 16
Enter the number of sampling: 
512
Input time for GPU: 0.172672 (ms) 
Processing time for GPU: 0.132832 (ms) 
Calculation time in CPU: 0.041120 (ms)
0.242319419980049 +- 0.002642050385475
