Using device 1
The block size is 256
The grid size is 16
Enter the number of sampling: 
64
Input time for GPU: 0.175968 (ms) 
Processing time for GPU: 0.073024 (ms) 
Calculation time in CPU: 0.041024 (ms)
0.230888038873672 +- 0.006376444362104
