Using device 1
The block size is 8
The grid size is 1
Enter the number of sampling: 
32768
Input time for GPU: 0.181888 (ms) 
Processing time for GPU: 31.629536 (ms) 
Calculation time in CPU: 0.042400 (ms)
0.238115831509189 +- 0.000322178619484
