Using device 1
The block size is 1024
The grid size is 32
Enter the number of sampling: 
8192
Input time for GPU: 0.172032 (ms) 
Processing time for GPU: 0.082560 (ms) 
Calculation time in CPU: 0.040864 (ms)
0.242034003138542 +- 0.000632609648164
