Using device 1
The block size is 8
The grid size is 8
Enter the number of sampling: 
16384
Input time for GPU: 0.334432 (ms) 
Processing time for GPU: 0.990528 (ms) 
Calculation time in CPU: 0.042592 (ms)
0.237633556127548 +- 0.000450605555670
