Using device 1
The block size is 4
The grid size is 2
Enter the number of sampling: 
128
Input time for GPU: 0.183008 (ms) 
Processing time for GPU: 0.158944 (ms) 
Calculation time in CPU: 0.044608 (ms)
0.242658913135529 +- 0.005323814228177
