Using device 1
The block size is 32
The grid size is 16
Enter the number of sampling: 
8192
Input time for GPU: 0.168864 (ms) 
Processing time for GPU: 0.096800 (ms) 
Calculation time in CPU: 0.040416 (ms)
0.238649800419807 +- 0.000649938650895
