Using device 1
The block size is 8
The grid size is 2
Enter the number of sampling: 
8192
Input time for GPU: 0.222784 (ms) 
Processing time for GPU: 1.282720 (ms) 
Calculation time in CPU: 0.040768 (ms)
0.238226994872093 +- 0.000635026837699
