Using device 1
The block size is 64
The grid size is 64
Enter the number of sampling: 
16384
Input time for GPU: 0.183968 (ms) 
Processing time for GPU: 0.071456 (ms) 
Calculation time in CPU: 0.040800 (ms)
0.239346012473106 +- 0.000452247302746
