Using device 1
The block size is 1
The grid size is 4
Enter the number of sampling: 
64
Input time for GPU: 0.171680 (ms) 
Processing time for GPU: 0.091392 (ms) 
Calculation time in CPU: 0.039904 (ms)
0.241067826747894 +- 0.007360736839473
