Using device 1
The block size is 16
The grid size is 1024
Enter the number of sampling: 
256
Input time for GPU: 0.211232 (ms) 
Processing time for GPU: 0.145920 (ms) 
Calculation time in CPU: 0.041248 (ms)
0.243761956691742 +- 0.003627157304436
