Using device 1
The block size is 64
The grid size is 512
Enter the number of sampling: 
32768
Input time for GPU: 0.176800 (ms) 
Processing time for GPU: 0.362944 (ms) 
Calculation time in CPU: 0.041344 (ms)
0.242288013566680 +- 0.000322055070576
