Using device 1
The block size is 2
The grid size is 4
Enter the number of sampling: 
8192
Input time for GPU: 0.176576 (ms) 
Processing time for GPU: 2.375680 (ms) 
Calculation time in CPU: 0.042208 (ms)
0.237849861383438 +- 0.000635609438177
