Using device 1
The block size is 2
The grid size is 2
Enter the number of sampling: 
4096
Input time for GPU: 0.345888 (ms) 
Processing time for GPU: 2.427552 (ms) 
Calculation time in CPU: 0.042240 (ms)
0.238453239202499 +- 0.000894434691872
