Using device 1
The block size is 1
The grid size is 32
Enter the number of sampling: 
2048
Input time for GPU: 0.171520 (ms) 
Processing time for GPU: 0.195296 (ms) 
Calculation time in CPU: 0.041568 (ms)
0.239133611321449 +- 0.001290380139835
