Using device 1
The block size is 16
The grid size is 1024
Enter the number of sampling: 
2048
Input time for GPU: 0.318592 (ms) 
Processing time for GPU: 0.456800 (ms) 
Calculation time in CPU: 0.061728 (ms)
0.242138549685478 +- 0.001236860873178
