Using device 1
The block size is 1024
The grid size is 4
Enter the number of sampling: 
16384
Input time for GPU: 0.182688 (ms) 
Processing time for GPU: 0.097056 (ms) 
Calculation time in CPU: 0.040672 (ms)
0.239345997571945 +- 0.000452247797512
