Using device 1
The block size is 64
The grid size is 32
Enter the number of sampling: 
128
Input time for GPU: 0.181472 (ms) 
Processing time for GPU: 0.064320 (ms) 
Calculation time in CPU: 0.039968 (ms)
0.239315778017044 +- 0.004902409855276
