Using device 1
The block size is 32
The grid size is 1
Enter the number of sampling: 
512
Input time for GPU: 0.187712 (ms) 
Processing time for GPU: 0.151072 (ms) 
Calculation time in CPU: 0.040320 (ms)
0.238541513681412 +- 0.002740151947364
