Using device 1
The block size is 128
The grid size is 64
Enter the number of sampling: 
65536
Input time for GPU: 0.186592 (ms) 
Processing time for GPU: 0.476672 (ms) 
Calculation time in CPU: 0.042432 (ms)
0.238438058238255 +- 0.000226383073658
