Using device 1
The block size is 4
The grid size is 1
Enter the number of sampling: 
128
Input time for GPU: 0.357472 (ms) 
Processing time for GPU: 0.350432 (ms) 
Calculation time in CPU: 0.041824 (ms)
0.237919479608536 +- 0.004761998075992
