Using device 1
The block size is 2
The grid size is 256
Enter the number of sampling: 
128
Input time for GPU: 0.171328 (ms) 
Processing time for GPU: 0.060672 (ms) 
Calculation time in CPU: 0.040320 (ms)
0.239315792918205 +- 0.004902409855276
