Using device 1
The block size is 512
The grid size is 16
Enter the number of sampling: 
65536
Input time for GPU: 0.179040 (ms) 
Processing time for GPU: 0.548576 (ms) 
Calculation time in CPU: 0.041984 (ms)
0.238438058238255 +- 0.000226383073658
