Using device 1
The block size is 64
The grid size is 1024
Enter the number of sampling: 
65536
Input time for GPU: 0.172288 (ms) 
Processing time for GPU: 0.665984 (ms) 
Calculation time in CPU: 0.043104 (ms)
0.242524547403954 +- 0.000227459124061
