Using device 1
The block size is 4
The grid size is 64
Enter the number of sampling: 
2048
Input time for GPU: 0.180864 (ms) 
Processing time for GPU: 0.077344 (ms) 
Calculation time in CPU: 0.041088 (ms)
0.238495305180550 +- 0.001313440501690
