Using device 1
The block size is 4
The grid size is 2
Enter the number of sampling: 
512
Input time for GPU: 0.190144 (ms) 
Processing time for GPU: 0.605152 (ms) 
Calculation time in CPU: 0.041536 (ms)
0.240766882896423 +- 0.002290072152391
