Using device 1
The block size is 4
The grid size is 512
Enter the number of sampling: 
16384
Input time for GPU: 0.218912 (ms) 
Processing time for GPU: 0.216320 (ms) 
Calculation time in CPU: 0.041984 (ms)
0.238661170005798 +- 0.000453273532912
