Using device 1
The block size is 32
The grid size is 128
Enter the number of sampling: 
256
Input time for GPU: 0.256512 (ms) 
Processing time for GPU: 0.178176 (ms) 
Calculation time in CPU: 0.042432 (ms)
0.243761956691742 +- 0.003627161262557
