Using device 1
The block size is 1024
The grid size is 64
Enter the number of sampling: 
32768
Input time for GPU: 0.172960 (ms) 
Processing time for GPU: 0.119712 (ms) 
Calculation time in CPU: 0.040704 (ms)
0.242287993431091 +- 0.000322055420838
