Using device 1
The block size is 1
The grid size is 128
Enter the number of sampling: 
65536
Input time for GPU: 0.176992 (ms) 
Processing time for GPU: 10.451360 (ms) 
Calculation time in CPU: 0.042240 (ms)
0.237733519585478 +- 0.000226929896986
