Using device 1
The block size is 1
The grid size is 16
Enter the number of sampling: 
2048
Input time for GPU: 0.220288 (ms) 
Processing time for GPU: 0.385728 (ms) 
Calculation time in CPU: 0.040864 (ms)
0.239603415131569 +- 0.001269274274819
