Using device 1
The block size is 8
The grid size is 8
Enter the number of sampling: 
128
Input time for GPU: 0.170560 (ms) 
Processing time for GPU: 0.115872 (ms) 
Calculation time in CPU: 0.039744 (ms)
0.238820448517799 +- 0.005340842995793
