Using device 1
The block size is 256
The grid size is 1024
Enter the number of sampling: 
4096
Input time for GPU: 0.180672 (ms) 
Processing time for GPU: 0.193024 (ms) 
Calculation time in CPU: 0.042400 (ms)
0.242465540766716 +- 0.000893928634468
