Using device 1
The block size is 2
The grid size is 16
Enter the number of sampling: 
128
Input time for GPU: 0.173408 (ms) 
Processing time for GPU: 0.070592 (ms) 
Calculation time in CPU: 0.039360 (ms)
0.233993604779243 +- 0.004712588619441
