Using device 1
The block size is 8
The grid size is 1
Enter the number of sampling: 
4096
Input time for GPU: 0.177344 (ms) 
Processing time for GPU: 1.243968 (ms) 
Calculation time in CPU: 0.041600 (ms)
0.238836139440536 +- 0.000896243844181
