Using device 1
The block size is 8
The grid size is 4
Enter the number of sampling: 
65536
Input time for GPU: 0.171040 (ms) 
Processing time for GPU: 15.966368 (ms) 
Calculation time in CPU: 0.039776 (ms)
0.237709876385602 +- 0.000226200544186
