Using device 1
The block size is 2
The grid size is 512
Enter the number of sampling: 
256
Input time for GPU: 0.322624 (ms) 
Processing time for GPU: 0.282560 (ms) 
Calculation time in CPU: 0.046336 (ms)
0.243761941790581 +- 0.003627169411629
