Using device 1
The block size is 8
The grid size is 1024
Enter the number of sampling: 
16384
Input time for GPU: 0.180128 (ms) 
Processing time for GPU: 0.116352 (ms) 
Calculation time in CPU: 0.041472 (ms)
0.240236848592758 +- 0.000449408078566
