Using device 1
The block size is 8
The grid size is 64
Enter the number of sampling: 
1024
Input time for GPU: 0.181344 (ms) 
Processing time for GPU: 0.139744 (ms) 
Calculation time in CPU: 0.047296 (ms)
0.241538628935814 +- 0.001832401263528
