Using device 1
The block size is 16
The grid size is 512
Enter the number of sampling: 
65536
Input time for GPU: 0.171712 (ms) 
Processing time for GPU: 0.783296 (ms) 
Calculation time in CPU: 0.042368 (ms)
0.238438058238255 +- 0.000226383073658
