Using device 1
The block size is 2
The grid size is 512
Enter the number of sampling: 
4096
Input time for GPU: 0.325152 (ms) 
Processing time for GPU: 0.357120 (ms) 
Calculation time in CPU: 0.042784 (ms)
0.239322021603584 +- 0.000890243100002
