Using device 1
The block size is 2
The grid size is 64
Enter the number of sampling: 
65536
Input time for GPU: 0.213152 (ms) 
Processing time for GPU: 5.518592 (ms) 
Calculation time in CPU: 0.041344 (ms)
0.237733519585479 +- 0.000226929896986
