Using device 1
The block size is 8
The grid size is 4
Enter the number of sampling: 
512
Input time for GPU: 0.182656 (ms) 
Processing time for GPU: 0.097792 (ms) 
Calculation time in CPU: 0.041888 (ms)
0.238541513681412 +- 0.002740153111517
