Using device 1
The block size is 128
The grid size is 1024
Enter the number of sampling: 
128
Input time for GPU: 0.173856 (ms) 
Processing time for GPU: 0.126080 (ms) 
Calculation time in CPU: 0.043424 (ms)
0.239315778017044 +- 0.004902409855276
