Using device 1
The block size is 16
The grid size is 1024
Enter the number of sampling: 
4096
Input time for GPU: 0.165632 (ms) 
Processing time for GPU: 0.073952 (ms) 
Calculation time in CPU: 0.042464 (ms)
0.242465540766716 +- 0.000893929158337
