Using device 1
The block size is 32
The grid size is 32
Enter the number of sampling: 
2048
Input time for GPU: 0.188128 (ms) 
Processing time for GPU: 0.122144 (ms) 
Calculation time in CPU: 0.039776 (ms)
0.241309836506844 +- 0.001284567755647
