Using device 1
The block size is 64
The grid size is 8
Enter the number of sampling: 
4096
Input time for GPU: 0.223136 (ms) 
Processing time for GPU: 0.134880 (ms) 
Calculation time in CPU: 0.041152 (ms)
0.238727509975433 +- 0.000924795167521
