Using device 1
The block size is 32
The grid size is 32
Enter the number of sampling: 
1024
Input time for GPU: 0.171360 (ms) 
Processing time for GPU: 0.060512 (ms) 
Calculation time in CPU: 0.041888 (ms)
0.241743341088295 +- 0.001777595723979
