Using device 1
The block size is 1
The grid size is 1
Enter the number of sampling: 
2048
Input time for GPU: 0.256800 (ms) 
Processing time for GPU: 4.509440 (ms) 
Calculation time in CPU: 0.042976 (ms)
0.238006591796875 +- 0.001258943346329
