Using device 1
The block size is 8
The grid size is 8
Enter the number of sampling: 
4096
Input time for GPU: 0.170432 (ms) 
Processing time for GPU: 0.259936 (ms) 
Calculation time in CPU: 0.041856 (ms)
0.238231390714645 +- 0.000916764314752
