Using device 1
The block size is 8
The grid size is 512
Enter the number of sampling: 
32768
Input time for GPU: 0.182080 (ms) 
Processing time for GPU: 0.837952 (ms) 
Calculation time in CPU: 0.040896 (ms)
0.238678306707512 +- 0.000320496390148
