Using device 1
The block size is 64
The grid size is 16
Enter the number of sampling: 
8192
Input time for GPU: 0.381184 (ms) 
Processing time for GPU: 0.372224 (ms) 
Calculation time in CPU: 0.058752 (ms)
0.238736331462860 +- 0.000643903913442
