Using device 1
The block size is 256
The grid size is 16
Enter the number of sampling: 
512
Input time for GPU: 0.171552 (ms) 
Processing time for GPU: 0.066624 (ms) 
Calculation time in CPU: 0.041312 (ms)
0.241234928369522 +- 0.002451482461765
