Using device 1
The block size is 8
The grid size is 1
Enter the number of sampling: 
512
Input time for GPU: 0.182592 (ms) 
Processing time for GPU: 0.206336 (ms) 
Calculation time in CPU: 0.040960 (ms)
0.240766882896423 +- 0.002290070522577
