Using device 1
The block size is 4
The grid size is 1024
Enter the number of sampling: 
64
Input time for GPU: 0.182016 (ms) 
Processing time for GPU: 0.193760 (ms) 
Calculation time in CPU: 0.042944 (ms)
0.230888009071350 +- 0.006376462522894
