Using device 1
The block size is 16
The grid size is 1
Enter the number of sampling: 
128
Input time for GPU: 0.171840 (ms) 
Processing time for GPU: 0.075616 (ms) 
Calculation time in CPU: 0.041344 (ms)
0.254128932952881 +- 0.006282194051892
