Using device 1
The block size is 4
The grid size is 4
Enter the number of sampling: 
512
Input time for GPU: 0.224064 (ms) 
Processing time for GPU: 0.188256 (ms) 
Calculation time in CPU: 0.039968 (ms)
0.242319419980049 +- 0.002642050385475
