Using device 1
The block size is 32
The grid size is 16
Enter the number of sampling: 
65536
Input time for GPU: 0.171552 (ms) 
Processing time for GPU: 1.180992 (ms) 
Calculation time in CPU: 0.040416 (ms)
0.237811420531065 +- 0.000227846405112
