Using device 1
The block size is 128
The grid size is 1024
Enter the number of sampling: 
2048
Input time for GPU: 0.165248 (ms) 
Processing time for GPU: 0.171264 (ms) 
Calculation time in CPU: 0.040000 (ms)
0.242138564586639 +- 0.001236861571670
