Using device 1
The block size is 1
The grid size is 2
Enter the number of sampling: 
2048
Input time for GPU: 0.333472 (ms) 
Processing time for GPU: 2.466304 (ms) 
Calculation time in CPU: 0.042112 (ms)
0.238068461418152 +- 0.001255806186236
