Using device 1
The block size is 16
The grid size is 16
Enter the number of sampling: 
65536
Input time for GPU: 0.254048 (ms) 
Processing time for GPU: 2.400096 (ms) 
Calculation time in CPU: 0.043296 (ms)
0.237671819338992 +- 0.000227435879325
