Using device 1
The block size is 8
The grid size is 256
Enter the number of sampling: 
64
Input time for GPU: 0.169888 (ms) 
Processing time for GPU: 0.115488 (ms) 
Calculation time in CPU: 0.040320 (ms)
0.230888038873672 +- 0.006376444362104
