Using device 1
The block size is 32
The grid size is 16
Enter the number of sampling: 
512
Input time for GPU: 0.170464 (ms) 
Processing time for GPU: 0.120512 (ms) 
Calculation time in CPU: 0.041536 (ms)
0.241234928369522 +- 0.002451485488564
