Using device 1
The block size is 64
The grid size is 128
Enter the number of sampling: 
512
Input time for GPU: 0.171680 (ms) 
Processing time for GPU: 0.061216 (ms) 
Calculation time in CPU: 0.041920 (ms)
0.241234928369522 +- 0.002451482461765
