Using device 1
The block size is 64
The grid size is 128
Enter the number of sampling: 
16384
Input time for GPU: 0.167936 (ms) 
Processing time for GPU: 0.120512 (ms) 
Calculation time in CPU: 0.041248 (ms)
0.240236848592758 +- 0.000449406070402
