Using device 1
The block size is 4
The grid size is 256
Enter the number of sampling: 
4096
Input time for GPU: 0.172800 (ms) 
Processing time for GPU: 0.080800 (ms) 
Calculation time in CPU: 0.041312 (ms)
0.239322021603584 +- 0.000890247174539
