Using device 1
The block size is 32
The grid size is 64
Enter the number of sampling: 
16384
Input time for GPU: 0.170752 (ms) 
Processing time for GPU: 0.211008 (ms) 
Calculation time in CPU: 0.042144 (ms)
0.238661050796509 +- 0.000453276297776
