Using device 1
The block size is 4
The grid size is 64
Enter the number of sampling: 
4096
Input time for GPU: 0.334976 (ms) 
Processing time for GPU: 0.388288 (ms) 
Calculation time in CPU: 0.057056 (ms)
0.237820044159889 +- 0.000916076067369
