Using device 1
The block size is 32
The grid size is 2
Enter the number of sampling: 
128
Input time for GPU: 0.222624 (ms) 
Processing time for GPU: 0.119232 (ms) 
Calculation time in CPU: 0.041888 (ms)
0.238820463418961 +- 0.005340832285583
