Using device 1
The block size is 128
The grid size is 256
Enter the number of sampling: 
65536
Input time for GPU: 0.323008 (ms) 
Processing time for GPU: 0.605056 (ms) 
Calculation time in CPU: 0.040672 (ms)
0.240631570967572 +- 0.000226852474902
