Using device 1
The block size is 1024
The grid size is 8
Enter the number of sampling: 
32768
Input time for GPU: 0.191776 (ms) 
Processing time for GPU: 0.318272 (ms) 
Calculation time in CPU: 0.042176 (ms)
0.239011108875275 +- 0.000318419770338
