Using device 1
The block size is 512
The grid size is 1
Enter the number of sampling: 
2048
Input time for GPU: 0.170112 (ms) 
Processing time for GPU: 0.076416 (ms) 
Calculation time in CPU: 0.041024 (ms)
0.239476040005684 +- 0.001262765610591
