Using device 1
The block size is 1
The grid size is 16
Enter the number of sampling: 
128
Input time for GPU: 0.263808 (ms) 
Processing time for GPU: 0.334656 (ms) 
Calculation time in CPU: 0.041216 (ms)
0.254128932952881 +- 0.006282194051892
