Using device 1
The block size is 4
The grid size is 512
Enter the number of sampling: 
8192
Input time for GPU: 0.171168 (ms) 
Processing time for GPU: 0.114272 (ms) 
Calculation time in CPU: 0.043776 (ms)
0.239179849624634 +- 0.000633713207208
