Using device 1
The block size is 1
The grid size is 64
Enter the number of sampling: 
512
Input time for GPU: 0.317792 (ms) 
Processing time for GPU: 0.344832 (ms) 
Calculation time in CPU: 0.062144 (ms)
0.238451868295670 +- 0.002795985667035
