Using device 1
The block size is 256
The grid size is 32
Enter the number of sampling: 
16384
Input time for GPU: 0.190080 (ms) 
Processing time for GPU: 0.235264 (ms) 
Calculation time in CPU: 0.040224 (ms)
0.240236866589962 +- 0.000449406473581
