Using device 1
The block size is 512
The grid size is 1
Enter the number of sampling: 
65536
Input time for GPU: 0.325056 (ms) 
Processing time for GPU: 3.813408 (ms) 
Calculation time in CPU: 0.042592 (ms)
0.237811420531065 +- 0.000227846405112
