Using device 1
The block size is 128
The grid size is 32
Enter the number of sampling: 
256
Input time for GPU: 0.222432 (ms) 
Processing time for GPU: 0.122336 (ms) 
Calculation time in CPU: 0.041120 (ms)
0.243761956691742 +- 0.003627157304436
