Using device 1
The block size is 32
The grid size is 8
Enter the number of sampling: 
4096
Input time for GPU: 0.187072 (ms) 
Processing time for GPU: 0.219808 (ms) 
Calculation time in CPU: 0.041792 (ms)
0.237820059061050 +- 0.000916075543500
