Using device 1
The block size is 8
The grid size is 1024
Enter the number of sampling: 
256
Input time for GPU: 0.330304 (ms) 
Processing time for GPU: 0.296960 (ms) 
Calculation time in CPU: 0.043008 (ms)
0.243761956691742 +- 0.003627157304436
