Using device 1
The block size is 512
The grid size is 256
Enter the number of sampling: 
8192
Input time for GPU: 0.182080 (ms) 
Processing time for GPU: 0.137600 (ms) 
Calculation time in CPU: 0.040960 (ms)
0.242033988237381 +- 0.000632609997410
