Using device 1
The block size is 1
The grid size is 64
Enter the number of sampling: 
64
Input time for GPU: 0.170336 (ms) 
Processing time for GPU: 0.060032 (ms) 
Calculation time in CPU: 0.042208 (ms)
0.230888083577156 +- 0.006376421544701
