Using device 1
The block size is 64
The grid size is 128
Enter the number of sampling: 
2048
Input time for GPU: 0.172672 (ms) 
Processing time for GPU: 0.069984 (ms) 
Calculation time in CPU: 0.041728 (ms)
0.242138549685478 +- 0.001236861571670
