Using device 1
The block size is 16
The grid size is 128
Enter the number of sampling: 
128
Input time for GPU: 0.214816 (ms) 
Processing time for GPU: 0.109248 (ms) 
Calculation time in CPU: 0.040608 (ms)
0.239315778017044 +- 0.004902409855276
