Using device 1
The block size is 32
The grid size is 1
Enter the number of sampling: 
8192
Input time for GPU: 0.180608 (ms) 
Processing time for GPU: 0.650464 (ms) 
Calculation time in CPU: 0.039968 (ms)
0.237565279006958 +- 0.000639291945845
