Using device 1
The block size is 32
The grid size is 64
Enter the number of sampling: 
512
Input time for GPU: 0.327680 (ms) 
Processing time for GPU: 0.354592 (ms) 
Calculation time in CPU: 0.060960 (ms)
0.241234928369522 +- 0.002451485488564
