Using device 1
The block size is 16
The grid size is 64
Enter the number of sampling: 
4096
Input time for GPU: 0.181920 (ms) 
Processing time for GPU: 0.069664 (ms) 
Calculation time in CPU: 0.039808 (ms)
0.239321991801262 +- 0.000890246650670
