Using device 1
The block size is 128
The grid size is 128
Enter the number of sampling: 
65536
Input time for GPU: 0.219904 (ms) 
Processing time for GPU: 0.513440 (ms) 
Calculation time in CPU: 0.040480 (ms)
0.238901105294779 +- 0.000226095482711
