Using device 1
The block size is 8
The grid size is 4
Enter the number of sampling: 
128
Input time for GPU: 0.180448 (ms) 
Processing time for GPU: 0.083392 (ms) 
Calculation time in CPU: 0.041792 (ms)
0.233993619680405 +- 0.004712582565844
