Using device 1
The block size is 1
The grid size is 1
Enter the number of sampling: 
4096
Input time for GPU: 0.173760 (ms) 
Processing time for GPU: 8.728224 (ms) 
Calculation time in CPU: 0.041696 (ms)
0.238459512591362 +- 0.000902678293642
