Using device 1
The block size is 1024
The grid size is 16
Enter the number of sampling: 
8192
Input time for GPU: 0.212256 (ms) 
Processing time for GPU: 0.119488 (ms) 
Calculation time in CPU: 0.039936 (ms)
0.242034003138542 +- 0.000632609648164
