Using device 1
The block size is 2
The grid size is 4
Enter the number of sampling: 
4096
Input time for GPU: 0.258976 (ms) 
Processing time for GPU: 1.289664 (ms) 
Calculation time in CPU: 0.041792 (ms)
0.238836139440536 +- 0.000896244309843
