Using device 1
The block size is 4
The grid size is 2
Enter the number of sampling: 
2048
Input time for GPU: 0.187968 (ms) 
Processing time for GPU: 0.699904 (ms) 
Calculation time in CPU: 0.041824 (ms)
0.239028215408325 +- 0.001268498017453
