Using device 1
The block size is 16
The grid size is 32
Enter the number of sampling: 
2048
Input time for GPU: 0.174112 (ms) 
Processing time for GPU: 0.074720 (ms) 
Calculation time in CPU: 0.041792 (ms)
0.239476040005684 +- 0.001262765610591
