Using device 1
The block size is 256
The grid size is 2
Enter the number of sampling: 
16384
Input time for GPU: 0.171232 (ms) 
Processing time for GPU: 0.508576 (ms) 
Calculation time in CPU: 0.039968 (ms)
0.238682313463395 +- 0.000456797231376
