Using device 1
The block size is 128
The grid size is 16
Enter the number of sampling: 
256
Input time for GPU: 0.186752 (ms) 
Processing time for GPU: 0.179232 (ms) 
Calculation time in CPU: 0.042208 (ms)
0.243761956691742 +- 0.003627157304436
