Using device 1
The block size is 4
The grid size is 256
Enter the number of sampling: 
512
Input time for GPU: 0.217376 (ms) 
Processing time for GPU: 0.111264 (ms) 
Calculation time in CPU: 0.039936 (ms)
0.241234973073006 +- 0.002451476640999
