Using device 1
The block size is 2
The grid size is 1
Enter the number of sampling: 
32768
Input time for GPU: 0.217856 (ms) 
Processing time for GPU: 124.386429 (ms) 
Calculation time in CPU: 0.041024 (ms)
0.237646385361824 +- 0.000319989347692
