Using device 1
The block size is 1
The grid size is 128
Enter the number of sampling: 
128
Input time for GPU: 0.337632 (ms) 
Processing time for GPU: 0.345696 (ms) 
Calculation time in CPU: 0.058976 (ms)
0.239315763115883 +- 0.004902415908873
