Using device 1
The block size is 256
The grid size is 2
Enter the number of sampling: 
2048
Input time for GPU: 0.329184 (ms) 
Processing time for GPU: 0.126848 (ms) 
Calculation time in CPU: 0.041280 (ms)
0.239476025104523 +- 0.001262767822482
