Using device 1
The block size is 256
The grid size is 2
Enter the number of sampling: 
8192
Input time for GPU: 0.171680 (ms) 
Processing time for GPU: 0.103776 (ms) 
Calculation time in CPU: 0.041504 (ms)
0.238649800419807 +- 0.000649939349387
