Using device 1
The block size is 64
The grid size is 64
Enter the number of sampling: 
8192
Input time for GPU: 0.172992 (ms) 
Processing time for GPU: 0.064928 (ms) 
Calculation time in CPU: 0.041472 (ms)
0.241137117147446 +- 0.000644031737465
