Using device 1
The block size is 16
The grid size is 128
Enter the number of sampling: 
4096
Input time for GPU: 0.173376 (ms) 
Processing time for GPU: 0.063744 (ms) 
Calculation time in CPU: 0.040896 (ms)
0.241137474775314 +- 0.000903429114260
