Using device 1
The block size is 64
The grid size is 512
Enter the number of sampling: 
512
Input time for GPU: 0.171520 (ms) 
Processing time for GPU: 0.122528 (ms) 
Calculation time in CPU: 0.041600 (ms)
0.241234928369522 +- 0.002451482461765
