Using device 1
The block size is 4
The grid size is 64
Enter the number of sampling: 
256
Input time for GPU: 0.277440 (ms) 
Processing time for GPU: 0.105184 (ms) 
Calculation time in CPU: 0.039648 (ms)
0.243761971592903 +- 0.003627153346315
