Using device 1
The block size is 8
The grid size is 4
Enter the number of sampling: 
1024
Input time for GPU: 0.174432 (ms) 
Processing time for GPU: 0.132800 (ms) 
Calculation time in CPU: 0.040384 (ms)
0.238267168402672 +- 0.001875958638266
