Using device 1
The block size is 16
The grid size is 2
Enter the number of sampling: 
256
Input time for GPU: 0.199744 (ms) 
Processing time for GPU: 0.114880 (ms) 
Calculation time in CPU: 0.040224 (ms)
0.240485489368439 +- 0.004061497282237
