Using device 1
The block size is 32
The grid size is 1
Enter the number of sampling: 
2048
Input time for GPU: 0.170560 (ms) 
Processing time for GPU: 0.205696 (ms) 
Calculation time in CPU: 0.040416 (ms)
0.239133641123772 +- 0.001290378160775
