Using device 1
The block size is 2
The grid size is 32
Enter the number of sampling: 
256
Input time for GPU: 0.186816 (ms) 
Processing time for GPU: 0.123328 (ms) 
Calculation time in CPU: 0.040096 (ms)
0.237772256135941 +- 0.003551917383447
