Using device 1
The block size is 2
The grid size is 2
Enter the number of sampling: 
64
Input time for GPU: 0.171968 (ms) 
Processing time for GPU: 0.148288 (ms) 
Calculation time in CPU: 0.040448 (ms)
0.241067826747894 +- 0.007360736839473
