Using device 1
The block size is 128
The grid size is 2
Enter the number of sampling: 
32768
Input time for GPU: 0.169344 (ms) 
Processing time for GPU: 1.177632 (ms) 
Calculation time in CPU: 0.039488 (ms)
0.237466573298758 +- 0.000322072730541
