Using device 1
The block size is 1
The grid size is 8
Enter the number of sampling: 
65536
Input time for GPU: 0.374752 (ms) 
Processing time for GPU: 61.768162 (ms) 
Calculation time in CPU: 0.042848 (ms)
0.238241964164908 +- 0.000226605270349
