Using device 1
The block size is 4
The grid size is 16
Enter the number of sampling: 
2048
Input time for GPU: 0.187424 (ms) 
Processing time for GPU: 0.256512 (ms) 
Calculation time in CPU: 0.040992 (ms)
0.237319365143776 +- 0.001302976044826
