Using device 1
The block size is 128
The grid size is 16
Enter the number of sampling: 
32768
Input time for GPU: 0.324992 (ms) 
Processing time for GPU: 0.567872 (ms) 
Calculation time in CPU: 0.041632 (ms)
0.238512886028791 +- 0.000321064864038
