Using device 1
The block size is 1024
The grid size is 128
Enter the number of sampling: 
256
Input time for GPU: 0.167168 (ms) 
Processing time for GPU: 0.132608 (ms) 
Calculation time in CPU: 0.041536 (ms)
0.243761956691742 +- 0.003627157304436
