Using device 1
The block size is 16
The grid size is 256
Enter the number of sampling: 
8192
Input time for GPU: 0.222784 (ms) 
Processing time for GPU: 0.127776 (ms) 
Calculation time in CPU: 0.042560 (ms)
0.241137102246284 +- 0.000644032086711
