Using device 1
The block size is 1
The grid size is 128
Enter the number of sampling: 
8192
Input time for GPU: 0.169760 (ms) 
Processing time for GPU: 0.304672 (ms) 
Calculation time in CPU: 0.041856 (ms)
0.238174408674240 +- 0.000655083626043
