Using device 1
The block size is 8
The grid size is 128
Enter the number of sampling: 
65536
Input time for GPU: 0.183424 (ms) 
Processing time for GPU: 1.394400 (ms) 
Calculation time in CPU: 0.042240 (ms)
0.237769447919692 +- 0.000227014576752
