Using device 1
The block size is 4
The grid size is 2
Enter the number of sampling: 
64
Input time for GPU: 0.189312 (ms) 
Processing time for GPU: 0.344960 (ms) 
Calculation time in CPU: 0.042592 (ms)
0.249652832746506 +- 0.007750060409307
