Using device 1
The block size is 4
The grid size is 1024
Enter the number of sampling: 
2048
Input time for GPU: 0.189920 (ms) 
Processing time for GPU: 0.109216 (ms) 
Calculation time in CPU: 0.040512 (ms)
0.242138475179672 +- 0.001236866693944
