Using device 1
The block size is 1024
The grid size is 2
Enter the number of sampling: 
16384
Input time for GPU: 0.185024 (ms) 
Processing time for GPU: 0.127712 (ms) 
Calculation time in CPU: 0.039552 (ms)
0.238661080598831 +- 0.000453275541076
