Using device 1
The block size is 8
The grid size is 1
Enter the number of sampling: 
8192
Input time for GPU: 0.220416 (ms) 
Processing time for GPU: 2.460512 (ms) 
Calculation time in CPU: 0.041248 (ms)
0.237849861383438 +- 0.000635609438177
