Using device 1
The block size is 128
The grid size is 4
Enter the number of sampling: 
8192
Input time for GPU: 0.396896 (ms) 
Processing time for GPU: 0.226784 (ms) 
Calculation time in CPU: 0.042464 (ms)
0.238649800419807 +- 0.000649939349387
