Using device 1
The block size is 512
The grid size is 4
Enter the number of sampling: 
4096
Input time for GPU: 0.171232 (ms) 
Processing time for GPU: 0.067712 (ms) 
Calculation time in CPU: 0.041152 (ms)
0.241137534379959 +- 0.000903426087461
