Using device 1
The block size is 4
The grid size is 64
Enter the number of sampling: 
16384
Input time for GPU: 0.182720 (ms) 
Processing time for GPU: 0.217984 (ms) 
Calculation time in CPU: 0.041504 (ms)
0.237499773502350 +- 0.000456066249171
