Using device 1
The block size is 64
The grid size is 4
Enter the number of sampling: 
8192
Input time for GPU: 0.252128 (ms) 
Processing time for GPU: 0.244992 (ms) 
Calculation time in CPU: 0.040320 (ms)
0.237437859177589 +- 0.000642307277303
