Using device 1
The block size is 8
The grid size is 64
Enter the number of sampling: 
128
Input time for GPU: 0.180096 (ms) 
Processing time for GPU: 0.060064 (ms) 
Calculation time in CPU: 0.041376 (ms)
0.239315763115883 +- 0.004902409855276
