Using device 1
The block size is 16
The grid size is 8
Enter the number of sampling: 
4096
Input time for GPU: 0.386752 (ms) 
Processing time for GPU: 0.407232 (ms) 
Calculation time in CPU: 0.041248 (ms)
0.237387761473656 +- 0.000919751997571
