Using device 1
The block size is 256
The grid size is 4
Enter the number of sampling: 
2048
Input time for GPU: 0.199968 (ms) 
Processing time for GPU: 0.095648 (ms) 
Calculation time in CPU: 0.040064 (ms)
0.241309806704521 +- 0.001284571364522
