Using device 1
The block size is 128
The grid size is 16
Enter the number of sampling: 
2048
Input time for GPU: 0.169280 (ms) 
Processing time for GPU: 0.113184 (ms) 
Calculation time in CPU: 0.040768 (ms)
0.242138564586639 +- 0.001236861571670
