Using device 1
The block size is 4
The grid size is 64
Enter the number of sampling: 
512
Input time for GPU: 0.353568 (ms) 
Processing time for GPU: 0.436960 (ms) 
Calculation time in CPU: 0.044384 (ms)
0.241899698972702 +- 0.002613838994876
