Using device 1
The block size is 1
The grid size is 64
Enter the number of sampling: 
65536
Input time for GPU: 0.332160 (ms) 
Processing time for GPU: 11.008160 (ms) 
Calculation time in CPU: 0.041856 (ms)
0.238197239472571 +- 0.000227488531608
