Using device 1
The block size is 256
The grid size is 1024
Enter the number of sampling: 
32768
Input time for GPU: 0.308320 (ms) 
Processing time for GPU: 1.525984 (ms) 
Calculation time in CPU: 0.044224 (ms)
0.242288013566681 +- 0.000322055070576
