Using device 1
The block size is 128
The grid size is 256
Enter the number of sampling: 
1024
Input time for GPU: 0.321856 (ms) 
Processing time for GPU: 0.354336 (ms) 
Calculation time in CPU: 0.062848 (ms)
0.241743370890617 +- 0.001777592697181
