Using device 1
The block size is 1
The grid size is 64
Enter the number of sampling: 
32768
Input time for GPU: 0.171008 (ms) 
Processing time for GPU: 5.394624 (ms) 
Calculation time in CPU: 0.041536 (ms)
0.237906106581323 +- 0.000320451881448
