Using device 1
The block size is 2
The grid size is 8
Enter the number of sampling: 
4096
Input time for GPU: 0.185408 (ms) 
Processing time for GPU: 0.632768 (ms) 
Calculation time in CPU: 0.044864 (ms)
0.238162443041801 +- 0.000890530121978
