Using device 1
The block size is 4
The grid size is 1
Enter the number of sampling: 
16384
Input time for GPU: 0.220896 (ms) 
Processing time for GPU: 9.454592 (ms) 
Calculation time in CPU: 0.040448 (ms)
0.238682910799980 +- 0.000457655376522
