Using device 1
The block size is 1
The grid size is 4
Enter the number of sampling: 
16384
Input time for GPU: 0.223392 (ms) 
Processing time for GPU: 9.162944 (ms) 
Calculation time in CPU: 0.042688 (ms)
0.238682910799980 +- 0.000457655376522
