Using device 1
The block size is 8
The grid size is 1
Enter the number of sampling: 
2048
Input time for GPU: 0.315456 (ms) 
Processing time for GPU: 0.920608 (ms) 
Calculation time in CPU: 0.041280 (ms)
0.239028215408325 +- 0.001268498715945
