Using device 1
The block size is 16
The grid size is 8
Enter the number of sampling: 
256
Input time for GPU: 0.186944 (ms) 
Processing time for GPU: 0.340832 (ms) 
Calculation time in CPU: 0.044960 (ms)
0.238588482141495 +- 0.003601918695495
