Using device 1
The block size is 4
The grid size is 2
Enter the number of sampling: 
1024
Input time for GPU: 0.188640 (ms) 
Processing time for GPU: 0.479136 (ms) 
Calculation time in CPU: 0.041248 (ms)
0.238955751061440 +- 0.001748240785673
