Using device 1
The block size is 4
The grid size is 256
Enter the number of sampling: 
128
Input time for GPU: 0.260160 (ms) 
Processing time for GPU: 0.296608 (ms) 
Calculation time in CPU: 0.045600 (ms)
0.239315763115883 +- 0.004902418702841
