Using device 1
The block size is 1024
The grid size is 1024
Enter the number of sampling: 
4096
Input time for GPU: 0.169408 (ms) 
Processing time for GPU: 0.703104 (ms) 
Calculation time in CPU: 0.040928 (ms)
0.242465510964394 +- 0.000893931195606
