Using device 1
The block size is 2
The grid size is 1024
Enter the number of sampling: 
1024
Input time for GPU: 0.215648 (ms) 
Processing time for GPU: 0.131072 (ms) 
Calculation time in CPU: 0.040672 (ms)
0.241743415594101 +- 0.001777588506229
