Using device 1
The block size is 2
The grid size is 128
Enter the number of sampling: 
1024
Input time for GPU: 0.260384 (ms) 
Processing time for GPU: 0.276608 (ms) 
Calculation time in CPU: 0.040608 (ms)
0.238753482699394 +- 0.001794096315280
