Using device 1
The block size is 8
The grid size is 2
Enter the number of sampling: 
1024
Input time for GPU: 0.260352 (ms) 
Processing time for GPU: 0.449888 (ms) 
Calculation time in CPU: 0.040736 (ms)
0.242577850818634 +- 0.001765620778315
