Using device 1
The block size is 512
The grid size is 1
Enter the number of sampling: 
1024
Input time for GPU: 0.170944 (ms) 
Processing time for GPU: 0.067136 (ms) 
Calculation time in CPU: 0.040256 (ms)
0.241538614034653 +- 0.001832404290326
