Using device 1
The block size is 256
The grid size is 1
Enter the number of sampling: 
4096
Input time for GPU: 0.225632 (ms) 
Processing time for GPU: 0.158144 (ms) 
Calculation time in CPU: 0.045696 (ms)
0.237820059061050 +- 0.000916075543500
