Using device 1
The block size is 64
The grid size is 2
Enter the number of sampling: 
8192
Input time for GPU: 0.170368 (ms) 
Processing time for GPU: 0.235488 (ms) 
Calculation time in CPU: 0.040000 (ms)
0.238174423575401 +- 0.000655084033497
