Using device 1
The block size is 4
The grid size is 1024
Enter the number of sampling: 
4096
Input time for GPU: 0.319584 (ms) 
Processing time for GPU: 0.353152 (ms) 
Calculation time in CPU: 0.054848 (ms)
0.242465510964394 +- 0.000893932709005
