Using device 1
The block size is 2
The grid size is 32
Enter the number of sampling: 
1024
Input time for GPU: 0.221248 (ms) 
Processing time for GPU: 0.151968 (ms) 
Calculation time in CPU: 0.041728 (ms)
0.237888842821121 +- 0.001900628674775
