Using device 1
The block size is 64
The grid size is 256
Enter the number of sampling: 
128
Input time for GPU: 0.169792 (ms) 
Processing time for GPU: 0.065984 (ms) 
Calculation time in CPU: 0.041600 (ms)
0.239315778017044 +- 0.004902409855276
