Using device 1
The block size is 64
The grid size is 32
Enter the number of sampling: 
16384
Input time for GPU: 0.223136 (ms) 
Processing time for GPU: 0.139264 (ms) 
Calculation time in CPU: 0.041536 (ms)
0.238661110401154 +- 0.000453274551546
