Using device 1
The block size is 128
The grid size is 128
Enter the number of sampling: 
128
Input time for GPU: 0.171904 (ms) 
Processing time for GPU: 0.070656 (ms) 
Calculation time in CPU: 0.040960 (ms)
0.239315778017044 +- 0.004902409855276
