Using device 1
The block size is 1024
The grid size is 1
Enter the number of sampling: 
4096
Input time for GPU: 0.250432 (ms) 
Processing time for GPU: 0.343104 (ms) 
Calculation time in CPU: 0.042816 (ms)
0.239321976900101 +- 0.000890248222277
