Using device 1
The block size is 16
The grid size is 4
Enter the number of sampling: 
65536
Input time for GPU: 0.330048 (ms) 
Processing time for GPU: 8.293472 (ms) 
Calculation time in CPU: 0.043232 (ms)
0.238197239472571 +- 0.000227488531608
