Using device 1
The block size is 512
The grid size is 2
Enter the number of sampling: 
2048
Input time for GPU: 0.324800 (ms) 
Processing time for GPU: 0.333408 (ms) 
Calculation time in CPU: 0.062528 (ms)
0.241309806704521 +- 0.001284571364522
