Using device 1
The block size is 256
The grid size is 512
Enter the number of sampling: 
512
Input time for GPU: 0.224832 (ms) 
Processing time for GPU: 0.182368 (ms) 
Calculation time in CPU: 0.040992 (ms)
0.241234928369522 +- 0.002451482461765
