Using device 1
The block size is 8
The grid size is 1
Enter the number of sampling: 
1024
Input time for GPU: 0.170880 (ms) 
Processing time for GPU: 0.413664 (ms) 
Calculation time in CPU: 0.041792 (ms)
0.238955751061440 +- 0.001748240785673
