Using device 1
The block size is 2
The grid size is 2
Enter the number of sampling: 
32768
Input time for GPU: 0.336736 (ms) 
Processing time for GPU: 62.437439 (ms) 
Calculation time in CPU: 0.040832 (ms)
0.238519482241948 +- 0.000321129250207
