Using device 1
The block size is 32
The grid size is 8
Enter the number of sampling: 
65536
Input time for GPU: 0.222400 (ms) 
Processing time for GPU: 2.109824 (ms) 
Calculation time in CPU: 0.041024 (ms)
0.237671819338992 +- 0.000227435879325
