Using device 1
The block size is 2
The grid size is 128
Enter the number of sampling: 
256
Input time for GPU: 0.173664 (ms) 
Processing time for GPU: 0.058400 (ms) 
Calculation time in CPU: 0.040256 (ms)
0.243761941790581 +- 0.003627169411629
