Using device 1
The block size is 1024
The grid size is 256
Enter the number of sampling: 
2048
Input time for GPU: 0.259616 (ms) 
Processing time for GPU: 0.473472 (ms) 
Calculation time in CPU: 0.043776 (ms)
0.242138534784317 +- 0.001236863667145
