Using device 1
The block size is 256
The grid size is 256
Enter the number of sampling: 
64
Input time for GPU: 0.182560 (ms) 
Processing time for GPU: 0.085536 (ms) 
Calculation time in CPU: 0.042400 (ms)
0.230888038873672 +- 0.006376444362104
