Using device 1
The block size is 1024
The grid size is 8
Enter the number of sampling: 
8192
Input time for GPU: 0.251968 (ms) 
Processing time for GPU: 0.275104 (ms) 
Calculation time in CPU: 0.042304 (ms)
0.242034003138542 +- 0.000632609648164
