Using device 1
The block size is 64
The grid size is 4
Enter the number of sampling: 
32768
Input time for GPU: 0.203136 (ms) 
Processing time for GPU: 1.210944 (ms) 
Calculation time in CPU: 0.041312 (ms)
0.237466573298758 +- 0.000322072730541
