Using device 1
The block size is 4
The grid size is 32
Enter the number of sampling: 
16384
Input time for GPU: 0.172160 (ms) 
Processing time for GPU: 0.362976 (ms) 
Calculation time in CPU: 0.039808 (ms)
0.237654343247414 +- 0.000458403723314
