Using device 1
The block size is 4
The grid size is 128
Enter the number of sampling: 
32768
Input time for GPU: 0.170560 (ms) 
Processing time for GPU: 1.440320 (ms) 
Calculation time in CPU: 0.039904 (ms)
0.238032406494360 +- 0.000323610503687
