Using device 1
The block size is 128
The grid size is 1
Enter the number of sampling: 
2048
Input time for GPU: 0.342784 (ms) 
Processing time for GPU: 0.298080 (ms) 
Calculation time in CPU: 0.042016 (ms)
0.237250626087189 +- 0.001319764647633
