Using device 1
The block size is 16
The grid size is 256
Enter the number of sampling: 
64
Input time for GPU: 0.329344 (ms) 
Processing time for GPU: 0.355360 (ms) 
Calculation time in CPU: 0.061632 (ms)
0.230888023972511 +- 0.006376453209668
