Using device 1
The block size is 32
The grid size is 2
Enter the number of sampling: 
256
Input time for GPU: 0.169440 (ms) 
Processing time for GPU: 0.126464 (ms) 
Calculation time in CPU: 0.041696 (ms)
0.237772256135941 +- 0.003551915520802
