Using device 1
The block size is 8
The grid size is 8
Enter the number of sampling: 
1024
Input time for GPU: 0.168672 (ms) 
Processing time for GPU: 0.152064 (ms) 
Calculation time in CPU: 0.041216 (ms)
0.237888857722282 +- 0.001900628674775
