Using device 1
The block size is 4
The grid size is 4
Enter the number of sampling: 
8192
Input time for GPU: 0.169856 (ms) 
Processing time for GPU: 1.286624 (ms) 
Calculation time in CPU: 0.040896 (ms)
0.238226994872093 +- 0.000635026837699
