Using device 1
The block size is 32
The grid size is 32
Enter the number of sampling: 
8192
Input time for GPU: 0.182336 (ms) 
Processing time for GPU: 0.076960 (ms) 
Calculation time in CPU: 0.041248 (ms)
0.238736301660538 +- 0.000643904262688
