Using device 1
The block size is 1
The grid size is 32
Enter the number of sampling: 
128
Input time for GPU: 0.186848 (ms) 
Processing time for GPU: 0.118880 (ms) 
Calculation time in CPU: 0.042112 (ms)
0.233993634581566 +- 0.004712576512247
