Using device 1
The block size is 16
The grid size is 32
Enter the number of sampling: 
1024
Input time for GPU: 0.226176 (ms) 
Processing time for GPU: 0.121088 (ms) 
Calculation time in CPU: 0.042528 (ms)
0.241538599133492 +- 0.001832410227507
