Using device 1
The block size is 32
The grid size is 32
Enter the number of sampling: 
16384
Input time for GPU: 0.183136 (ms) 
Processing time for GPU: 0.095360 (ms) 
Calculation time in CPU: 0.041536 (ms)
0.238232389092445 +- 0.000453047745395
