Using device 1
The block size is 8
The grid size is 256
Enter the number of sampling: 
128
Input time for GPU: 0.234048 (ms) 
Processing time for GPU: 0.379744 (ms) 
Calculation time in CPU: 0.046272 (ms)
0.239315763115883 +- 0.004902409855276
