Using device 1
The block size is 4
The grid size is 16
Enter the number of sampling: 
64
Input time for GPU: 0.170816 (ms) 
Processing time for GPU: 0.059616 (ms) 
Calculation time in CPU: 0.039136 (ms)
0.230888009071350 +- 0.006376462522894
