Using device 1
The block size is 1
The grid size is 16
Enter the number of sampling: 
256
Input time for GPU: 0.172928 (ms) 
Processing time for GPU: 0.098048 (ms) 
Calculation time in CPU: 0.041568 (ms)
0.245808646082878 +- 0.004086173139513
