Using device 1
The block size is 1
The grid size is 512
Enter the number of sampling: 
256
Input time for GPU: 0.173184 (ms) 
Processing time for GPU: 0.065120 (ms) 
Calculation time in CPU: 0.042208 (ms)
0.243762001395226 +- 0.003627141239122
