Using device 1
The block size is 2
The grid size is 64
Enter the number of sampling: 
16384
Input time for GPU: 0.166688 (ms) 
Processing time for GPU: 0.424096 (ms) 
Calculation time in CPU: 0.039488 (ms)
0.237654402852058 +- 0.000458402471850
