Using device 1
The block size is 64
The grid size is 512
Enter the number of sampling: 
64
Input time for GPU: 0.171360 (ms) 
Processing time for GPU: 0.067104 (ms) 
Calculation time in CPU: 0.042240 (ms)
0.230888038873672 +- 0.006376444362104
