Using device 1
The block size is 32
The grid size is 32
Enter the number of sampling: 
4096
Input time for GPU: 0.172640 (ms) 
Processing time for GPU: 0.074336 (ms) 
Calculation time in CPU: 0.046368 (ms)
0.239321976900101 +- 0.000890248687938
