Using device 1
The block size is 8
The grid size is 1024
Enter the number of sampling: 
64
Input time for GPU: 0.356992 (ms) 
Processing time for GPU: 0.335008 (ms) 
Calculation time in CPU: 0.045376 (ms)
0.230888038873672 +- 0.006376444362104
