Using device 1
The block size is 64
The grid size is 16
Enter the number of sampling: 
128
Input time for GPU: 0.172000 (ms) 
Processing time for GPU: 0.061280 (ms) 
Calculation time in CPU: 0.041536 (ms)
0.239315778017044 +- 0.004902409855276
