Using device 1
The block size is 64
The grid size is 128
Enter the number of sampling: 
128
Input time for GPU: 0.181216 (ms) 
Processing time for GPU: 0.066464 (ms) 
Calculation time in CPU: 0.041984 (ms)
0.239315778017044 +- 0.004902409855276
