Using device 1
The block size is 1024
The grid size is 64
Enter the number of sampling: 
256
Input time for GPU: 0.183456 (ms) 
Processing time for GPU: 0.095360 (ms) 
Calculation time in CPU: 0.040960 (ms)
0.243761956691742 +- 0.003627157304436
