Using device 1
The block size is 8
The grid size is 4
Enter the number of sampling: 
16384
Input time for GPU: 0.188672 (ms) 
Processing time for GPU: 1.468064 (ms) 
Calculation time in CPU: 0.041888 (ms)
0.237866461277008 +- 0.000454177556094
