Using device 1
The block size is 64
The grid size is 4
Enter the number of sampling: 
1024
Input time for GPU: 0.178016 (ms) 
Processing time for GPU: 0.077568 (ms) 
Calculation time in CPU: 0.041760 (ms)
0.238753497600555 +- 0.001794094336219
