Using device 1
The block size is 256
The grid size is 64
Enter the number of sampling: 
32768
Input time for GPU: 0.179808 (ms) 
Processing time for GPU: 0.292704 (ms) 
Calculation time in CPU: 0.040864 (ms)
0.240463359436758 +- 0.000319849135304
