Using device 1
The block size is 256
The grid size is 8
Enter the number of sampling: 
65536
Input time for GPU: 0.340192 (ms) 
Processing time for GPU: 0.784416 (ms) 
Calculation time in CPU: 0.042304 (ms)
0.238255284364123 +- 0.000227388159636
