Using device 1
The block size is 128
The grid size is 1
Enter the number of sampling: 
32768
Input time for GPU: 0.203584 (ms) 
Processing time for GPU: 2.315904 (ms) 
Calculation time in CPU: 0.040832 (ms)
0.237522777918806 +- 0.000319625949442
