Using device 1
The block size is 2
The grid size is 256
Enter the number of sampling: 
512
Input time for GPU: 0.197984 (ms) 
Processing time for GPU: 0.091424 (ms) 
Calculation time in CPU: 0.041152 (ms)
0.241234987974167 +- 0.002451469190419
