Using device 1
The block size is 8
The grid size is 4
Enter the number of sampling: 
8192
Input time for GPU: 0.171968 (ms) 
Processing time for GPU: 0.649728 (ms) 
Calculation time in CPU: 0.041984 (ms)
0.237565293908119 +- 0.000639290839899
