Using device 1
The block size is 2
The grid size is 32
Enter the number of sampling: 
32768
Input time for GPU: 0.186048 (ms) 
Processing time for GPU: 4.431776 (ms) 
Calculation time in CPU: 0.040192 (ms)
0.237906106581323 +- 0.000320451881448
