Using device 1
The block size is 128
The grid size is 16
Enter the number of sampling: 
512
Input time for GPU: 0.167936 (ms) 
Processing time for GPU: 0.060608 (ms) 
Calculation time in CPU: 0.040896 (ms)
0.241234928369522 +- 0.002451482461765
