Using device 1
The block size is 64
The grid size is 32
Enter the number of sampling: 
65536
Input time for GPU: 0.333280 (ms) 
Processing time for GPU: 0.792960 (ms) 
Calculation time in CPU: 0.041440 (ms)
0.238255284364123 +- 0.000227388159636
