Using device 1
The block size is 2
The grid size is 1
Enter the number of sampling: 
256
Input time for GPU: 0.263648 (ms) 
Processing time for GPU: 0.601440 (ms) 
Calculation time in CPU: 0.043232 (ms)
0.239640429615974 +- 0.003265581326559
