Using device 1
The block size is 4
The grid size is 16
Enter the number of sampling: 
65536
Input time for GPU: 0.190752 (ms) 
Processing time for GPU: 8.988736 (ms) 
Calculation time in CPU: 0.041600 (ms)
0.238197239472571 +- 0.000227488531608
