Using device 1
The block size is 8
The grid size is 32
Enter the number of sampling: 
1024
Input time for GPU: 0.172256 (ms) 
Processing time for GPU: 0.125344 (ms) 
Calculation time in CPU: 0.040896 (ms)
0.238753497600555 +- 0.001794095383957
