Using device 1
The block size is 32
The grid size is 512
Enter the number of sampling: 
128
Input time for GPU: 0.345984 (ms) 
Processing time for GPU: 0.271584 (ms) 
Calculation time in CPU: 0.044864 (ms)
0.239315778017044 +- 0.004902409855276
