Using device 1
The block size is 8
The grid size is 32
Enter the number of sampling: 
128
Input time for GPU: 0.181536 (ms) 
Processing time for GPU: 0.059456 (ms) 
Calculation time in CPU: 0.040320 (ms)
0.239315763115883 +- 0.004902409855276
