Using device 1
The block size is 32
The grid size is 2
Enter the number of sampling: 
64
Input time for GPU: 0.176704 (ms) 
Processing time for GPU: 0.068992 (ms) 
Calculation time in CPU: 0.041568 (ms)
0.230888038873672 +- 0.006376444362104
