Using device 1
The block size is 2
The grid size is 16
Enter the number of sampling: 
8192
Input time for GPU: 0.221056 (ms) 
Processing time for GPU: 0.688160 (ms) 
Calculation time in CPU: 0.041824 (ms)
0.237565293908119 +- 0.000639291247353
