Using device 1
The block size is 32
The grid size is 2
Enter the number of sampling: 
4096
Input time for GPU: 0.184864 (ms) 
Processing time for GPU: 0.212320 (ms) 
Calculation time in CPU: 0.042272 (ms)
0.238231390714645 +- 0.000916764314752
