Using device 1
The block size is 32
The grid size is 512
Enter the number of sampling: 
16384
Input time for GPU: 0.335744 (ms) 
Processing time for GPU: 0.408896 (ms) 
Calculation time in CPU: 0.058976 (ms)
0.241758063435555 +- 0.000450413033832
