Using device 1
The block size is 1
The grid size is 32
Enter the number of sampling: 
4096
Input time for GPU: 0.175808 (ms) 
Processing time for GPU: 0.342336 (ms) 
Calculation time in CPU: 0.040704 (ms)
0.237967267632484 +- 0.000910920207389
