Using device 1
The block size is 2
The grid size is 1024
Enter the number of sampling: 
65536
Input time for GPU: 0.221088 (ms) 
Processing time for GPU: 5.428384 (ms) 
Calculation time in CPU: 0.044256 (ms)
0.238255284364123 +- 0.000227388159636
