Using device 1
The block size is 32
The grid size is 256
Enter the number of sampling: 
4096
Input time for GPU: 0.219040 (ms) 
Processing time for GPU: 0.116224 (ms) 
Calculation time in CPU: 0.041024 (ms)
0.242465510964394 +- 0.000893931719474
