Using device 1
The block size is 4
The grid size is 8
Enter the number of sampling: 
1024
Input time for GPU: 0.180512 (ms) 
Processing time for GPU: 0.146272 (ms) 
Calculation time in CPU: 0.042240 (ms)
0.238267168402672 +- 0.001875957590528
