Using device 1
The block size is 128
The grid size is 32
Enter the number of sampling: 
16384
Input time for GPU: 0.329760 (ms) 
Processing time for GPU: 0.401312 (ms) 
Calculation time in CPU: 0.041632 (ms)
0.239346005853007 +- 0.000452247721303
