Using device 1
The block size is 512
The grid size is 2
Enter the number of sampling: 
16384
Input time for GPU: 0.206400 (ms) 
Processing time for GPU: 0.544736 (ms) 
Calculation time in CPU: 0.041856 (ms)
0.238232407613681 +- 0.000453047135084
