Using device 1
The block size is 1
The grid size is 16
Enter the number of sampling: 
16384
Input time for GPU: 0.213472 (ms) 
Processing time for GPU: 2.316448 (ms) 
Calculation time in CPU: 0.041440 (ms)
0.238091856241226 +- 0.000450929132057
