Using device 1
The block size is 64
The grid size is 4
Enter the number of sampling: 
4096
Input time for GPU: 0.188192 (ms) 
Processing time for GPU: 0.220032 (ms) 
Calculation time in CPU: 0.042016 (ms)
0.237820059061050 +- 0.000916076067369
