Using device 1
The block size is 32
The grid size is 1024
Enter the number of sampling: 
8192
Input time for GPU: 0.211104 (ms) 
Processing time for GPU: 0.133216 (ms) 
Calculation time in CPU: 0.042848 (ms)
0.242034003138542 +- 0.000632609648164
