Using device 1
The block size is 128
The grid size is 1024
Enter the number of sampling: 
512
Input time for GPU: 0.215488 (ms) 
Processing time for GPU: 0.174368 (ms) 
Calculation time in CPU: 0.042560 (ms)
0.241234928369522 +- 0.002451482461765
