Using device 1
The block size is 16
The grid size is 8
Enter the number of sampling: 
512
Input time for GPU: 0.299648 (ms) 
Processing time for GPU: 0.131200 (ms) 
Calculation time in CPU: 0.039936 (ms)
0.237259492278099 +- 0.002488828962669
