Using device 1
The block size is 128
The grid size is 512
Enter the number of sampling: 
65536
Input time for GPU: 0.210688 (ms) 
Processing time for GPU: 0.851232 (ms) 
Calculation time in CPU: 0.042656 (ms)
0.242524547403954 +- 0.000227459124061
