Using device 1
The block size is 64
The grid size is 1
Enter the number of sampling: 
256
Input time for GPU: 0.177024 (ms) 
Processing time for GPU: 0.075968 (ms) 
Calculation time in CPU: 0.042048 (ms)
0.237772256135941 +- 0.003551915520802
