Using device 1
The block size is 512
The grid size is 1024
Enter the number of sampling: 
1024
Input time for GPU: 0.185696 (ms) 
Processing time for GPU: 0.469312 (ms) 
Calculation time in CPU: 0.041856 (ms)
0.241743355989456 +- 0.001777594676241
