Using device 1
The block size is 16
The grid size is 64
Enter the number of sampling: 
2048
Input time for GPU: 0.188032 (ms) 
Processing time for GPU: 0.339072 (ms) 
Calculation time in CPU: 0.042304 (ms)
0.241309791803360 +- 0.001284574158490
