Using device 1
The block size is 64
The grid size is 1
Enter the number of sampling: 
512
Input time for GPU: 0.172000 (ms) 
Processing time for GPU: 0.075552 (ms) 
Calculation time in CPU: 0.039872 (ms)
0.238451853394508 +- 0.002795988228172
