Using device 1
The block size is 32
The grid size is 8
Enter the number of sampling: 
32768
Input time for GPU: 0.327552 (ms) 
Processing time for GPU: 1.332768 (ms) 
Calculation time in CPU: 0.041024 (ms)
0.237466573298758 +- 0.000322072730541
