Using device 1
The block size is 1024
The grid size is 1
Enter the number of sampling: 
2048
Input time for GPU: 0.335520 (ms) 
Processing time for GPU: 0.366848 (ms) 
Calculation time in CPU: 0.059136 (ms)
0.241309821605682 +- 0.001284569967538
