Using device 1
The block size is 1
The grid size is 1024
Enter the number of sampling: 
65536
Input time for GPU: 0.251520 (ms) 
Processing time for GPU: 10.608096 (ms) 
Calculation time in CPU: 0.044864 (ms)
0.237769447919692 +- 0.000227014576752
