Using device 1
The block size is 4
The grid size is 64
Enter the number of sampling: 
65536
Input time for GPU: 0.168448 (ms) 
Processing time for GPU: 2.852256 (ms) 
Calculation time in CPU: 0.041472 (ms)
0.237671819338992 +- 0.000227435879325
