Using device 1
The block size is 2
The grid size is 8
Enter the number of sampling: 
32768
Input time for GPU: 0.172544 (ms) 
Processing time for GPU: 15.731040 (ms) 
Calculation time in CPU: 0.042496 (ms)
0.237535406387042 +- 0.000318685772792
