Using device 1
The block size is 256
The grid size is 256
Enter the number of sampling: 
4096
Input time for GPU: 0.170624 (ms) 
Processing time for GPU: 0.093792 (ms) 
Calculation time in CPU: 0.041184 (ms)
0.242465540766716 +- 0.000893928634468
