Using device 1
The block size is 16
The grid size is 1
Enter the number of sampling: 
64
Input time for GPU: 0.181696 (ms) 
Processing time for GPU: 0.068128 (ms) 
Calculation time in CPU: 0.041952 (ms)
0.246268868446350 +- 0.007520969491452
