Using device 1
The block size is 16
The grid size is 2
Enter the number of sampling: 
1024
Input time for GPU: 0.187072 (ms) 
Processing time for GPU: 0.256928 (ms) 
Calculation time in CPU: 0.041728 (ms)
0.238267168402672 +- 0.001875957590528
