Using device 1
The block size is 128
The grid size is 1
Enter the number of sampling: 
512
Input time for GPU: 0.184000 (ms) 
Processing time for GPU: 0.070208 (ms) 
Calculation time in CPU: 0.042048 (ms)
0.237259507179260 +- 0.002488826168701
