Using device 1
The block size is 32
The grid size is 2
Enter the number of sampling: 
2048
Input time for GPU: 0.172544 (ms) 
Processing time for GPU: 0.186880 (ms) 
Calculation time in CPU: 0.039840 (ms)
0.237319380044937 +- 0.001302974647842
