Using device 1
The block size is 4
The grid size is 1
Enter the number of sampling: 
256
Input time for GPU: 0.170176 (ms) 
Processing time for GPU: 0.322016 (ms) 
Calculation time in CPU: 0.041248 (ms)
0.244233250617981 +- 0.003338867099956
