Using device 1
The block size is 64
The grid size is 1
Enter the number of sampling: 
65536
Input time for GPU: 0.222144 (ms) 
Processing time for GPU: 8.985792 (ms) 
Calculation time in CPU: 0.041120 (ms)
0.238197239472571 +- 0.000227488531608
