Using device 1
The block size is 4
The grid size is 32
Enter the number of sampling: 
32768
Input time for GPU: 0.181824 (ms) 
Processing time for GPU: 2.272992 (ms) 
Calculation time in CPU: 0.041856 (ms)
0.237522777918806 +- 0.000319625949442
