Using device 1
The block size is 1
The grid size is 128
Enter the number of sampling: 
32768
Input time for GPU: 0.290336 (ms) 
Processing time for GPU: 5.312864 (ms) 
Calculation time in CPU: 0.042688 (ms)
0.237522777918806 +- 0.000319625949442
