Using device 1
The block size is 32
The grid size is 4
Enter the number of sampling: 
32768
Input time for GPU: 0.171968 (ms) 
Processing time for GPU: 2.050464 (ms) 
Calculation time in CPU: 0.040064 (ms)
0.237522777918806 +- 0.000319625949442
