Using device 1
The block size is 256
The grid size is 1
Enter the number of sampling: 
32768
Input time for GPU: 0.173984 (ms) 
Processing time for GPU: 1.824608 (ms) 
Calculation time in CPU: 0.042144 (ms)
0.237466573298758 +- 0.000322072730541
