Using device 1
The block size is 2
The grid size is 8
Enter the number of sampling: 
512
Input time for GPU: 0.329056 (ms) 
Processing time for GPU: 0.420416 (ms) 
Calculation time in CPU: 0.043168 (ms)
0.242319419980049 +- 0.002642051782459
