Using device 1
The block size is 16
The grid size is 8
Enter the number of sampling: 
1024
Input time for GPU: 0.171104 (ms) 
Processing time for GPU: 0.136480 (ms) 
Calculation time in CPU: 0.040896 (ms)
0.239092677831650 +- 0.001911259489134
