Using device 1
The block size is 8
The grid size is 128
Enter the number of sampling: 
256
Input time for GPU: 0.354336 (ms) 
Processing time for GPU: 0.263680 (ms) 
Calculation time in CPU: 0.040928 (ms)
0.243761956691742 +- 0.003627157304436
