Using device 1
The block size is 32
The grid size is 8
Enter the number of sampling: 
2048
Input time for GPU: 0.172480 (ms) 
Processing time for GPU: 0.083520 (ms) 
Calculation time in CPU: 0.040480 (ms)
0.238495320081711 +- 0.001313437707722
