Using device 1
The block size is 8
The grid size is 1
Enter the number of sampling: 
128
Input time for GPU: 0.316288 (ms) 
Processing time for GPU: 0.377888 (ms) 
Calculation time in CPU: 0.057792 (ms)
0.242658913135529 +- 0.005323814228177
