Using device 1
The block size is 16
The grid size is 32
Enter the number of sampling: 
128
Input time for GPU: 0.183616 (ms) 
Processing time for GPU: 0.060768 (ms) 
Calculation time in CPU: 0.042240 (ms)
0.239315778017044 +- 0.004902409855276
