Using device 1
The block size is 1
The grid size is 64
Enter the number of sampling: 
2048
Input time for GPU: 0.328128 (ms) 
Processing time for GPU: 0.386528 (ms) 
Calculation time in CPU: 0.042112 (ms)
0.237319380044937 +- 0.001302973250858
