Using device 1
The block size is 128
The grid size is 8
Enter the number of sampling: 
16384
Input time for GPU: 0.330112 (ms) 
Processing time for GPU: 0.492640 (ms) 
Calculation time in CPU: 0.043424 (ms)
0.238232407613681 +- 0.000453047135084
