Using device 1
The block size is 8
The grid size is 32
Enter the number of sampling: 
512
Input time for GPU: 0.315744 (ms) 
Processing time for GPU: 0.343040 (ms) 
Calculation time in CPU: 0.058688 (ms)
0.241899698972702 +- 0.002613838994876
