Using device 1
The block size is 2
The grid size is 2
Enter the number of sampling: 
1024
Input time for GPU: 0.398720 (ms) 
Processing time for GPU: 0.905408 (ms) 
Calculation time in CPU: 0.043776 (ms)
0.240181028842926 +- 0.001823251717724
