Using device 1
The block size is 64
The grid size is 32
Enter the number of sampling: 
32768
Input time for GPU: 0.224032 (ms) 
Processing time for GPU: 0.346400 (ms) 
Calculation time in CPU: 0.040992 (ms)
0.238512886028791 +- 0.000321064864038
