Using device 1
The block size is 128
The grid size is 64
Enter the number of sampling: 
2048
Input time for GPU: 0.276448 (ms) 
Processing time for GPU: 0.222144 (ms) 
Calculation time in CPU: 0.060768 (ms)
0.242138564586639 +- 0.001236861571670
