Using device 1
The block size is 128
The grid size is 8
Enter the number of sampling: 
8192
Input time for GPU: 0.186464 (ms) 
Processing time for GPU: 0.351488 (ms) 
Calculation time in CPU: 0.040576 (ms)
0.238736301660538 +- 0.000643904961180
