Using device 1
The block size is 8
The grid size is 8
Enter the number of sampling: 
8192
Input time for GPU: 0.263072 (ms) 
Processing time for GPU: 0.574560 (ms) 
Calculation time in CPU: 0.042656 (ms)
0.237839326262474 +- 0.000648934568744
