Using device 1
The block size is 512
The grid size is 1024
Enter the number of sampling: 
2048
Input time for GPU: 0.185856 (ms) 
Processing time for GPU: 0.417536 (ms) 
Calculation time in CPU: 0.043456 (ms)
0.242138549685478 +- 0.001236862270162
