Using device 1
The block size is 128
The grid size is 256
Enter the number of sampling: 
16384
Input time for GPU: 0.171744 (ms) 
Processing time for GPU: 0.308064 (ms) 
Calculation time in CPU: 0.042432 (ms)
0.241758068520461 +- 0.000450413701911
