Using device 1
The block size is 128
The grid size is 2
Enter the number of sampling: 
512
Input time for GPU: 0.223712 (ms) 
Processing time for GPU: 0.119616 (ms) 
Calculation time in CPU: 0.039296 (ms)
0.241899684071541 +- 0.002613840159029
