Using device 1
The block size is 4
The grid size is 512
Enter the number of sampling: 
64
Input time for GPU: 0.188288 (ms) 
Processing time for GPU: 0.193120 (ms) 
Calculation time in CPU: 0.041088 (ms)
0.230888009071350 +- 0.006376462522894
