Using device 1
The block size is 1024
The grid size is 512
Enter the number of sampling: 
65536
Input time for GPU: 0.171648 (ms) 
Processing time for GPU: 0.429312 (ms) 
Calculation time in CPU: 0.041632 (ms)
0.242524549365044 +- 0.000227458818699
