Using device 1
The block size is 512
The grid size is 64
Enter the number of sampling: 
1024
Input time for GPU: 0.215168 (ms) 
Processing time for GPU: 0.125888 (ms) 
Calculation time in CPU: 0.040384 (ms)
0.241743355989456 +- 0.001777594676241
