Using device 1
The block size is 64
The grid size is 2
Enter the number of sampling: 
4096
Input time for GPU: 0.172928 (ms) 
Processing time for GPU: 0.140928 (ms) 
Calculation time in CPU: 0.041280 (ms)
0.237387776374817 +- 0.000919751008041
