Using device 1
The block size is 256
The grid size is 1024
Enter the number of sampling: 
8192
Input time for GPU: 0.175040 (ms) 
Processing time for GPU: 0.202400 (ms) 
Calculation time in CPU: 0.042368 (ms)
0.242034003138542 +- 0.000632609240711
