Using device 1
The block size is 64
The grid size is 128
Enter the number of sampling: 
1024
Input time for GPU: 0.216000 (ms) 
Processing time for GPU: 0.173376 (ms) 
Calculation time in CPU: 0.059936 (ms)
0.241743355989456 +- 0.001777593628503
