Using device 1
The block size is 32
The grid size is 16
Enter the number of sampling: 
4096
Input time for GPU: 0.170848 (ms) 
Processing time for GPU: 0.076800 (ms) 
Calculation time in CPU: 0.046880 (ms)
0.238727480173111 +- 0.000924796622712
