Using device 1
The block size is 32
The grid size is 128
Enter the number of sampling: 
65536
Input time for GPU: 0.187360 (ms) 
Processing time for GPU: 0.528256 (ms) 
Calculation time in CPU: 0.041536 (ms)
0.238441723339934 +- 0.000226956766245
