Using device 1
The block size is 128
The grid size is 512
Enter the number of sampling: 
32768
Input time for GPU: 0.169856 (ms) 
Processing time for GPU: 0.446240 (ms) 
Calculation time in CPU: 0.041056 (ms)
0.242288013566681 +- 0.000322055070576
