Using device 1
The block size is 1024
The grid size is 1
Enter the number of sampling: 
16384
Input time for GPU: 0.374240 (ms) 
Processing time for GPU: 0.469568 (ms) 
Calculation time in CPU: 0.041440 (ms)
0.238232403993607 +- 0.000453046988696
