Using device 1
The block size is 2
The grid size is 512
Enter the number of sampling: 
65536
Input time for GPU: 0.167936 (ms) 
Processing time for GPU: 5.382240 (ms) 
Calculation time in CPU: 0.043232 (ms)
0.237769447919691 +- 0.000227014576752
