Using device 1
The block size is 1
The grid size is 512
Enter the number of sampling: 
4096
Input time for GPU: 0.173280 (ms) 
Processing time for GPU: 0.155680 (ms) 
Calculation time in CPU: 0.041056 (ms)
0.238727331161499 +- 0.000924808438867
