Using device 1
The block size is 1
The grid size is 2
Enter the number of sampling: 
8192
Input time for GPU: 0.397952 (ms) 
Processing time for GPU: 9.177984 (ms) 
Calculation time in CPU: 0.041792 (ms)
0.238257616758347 +- 0.000645729422104
