Using device 1
The block size is 4
The grid size is 64
Enter the number of sampling: 
1024
Input time for GPU: 0.188256 (ms) 
Processing time for GPU: 0.123360 (ms) 
Calculation time in CPU: 0.041696 (ms)
0.238753512501717 +- 0.001794096315280
