Using device 1
The block size is 128
The grid size is 64
Enter the number of sampling: 
32768
Input time for GPU: 0.181568 (ms) 
Processing time for GPU: 0.221696 (ms) 
Calculation time in CPU: 0.040832 (ms)
0.239011128950612 +- 0.000318419054071
