Using device 1
The block size is 32
The grid size is 2
Enter the number of sampling: 
8192
Input time for GPU: 0.320960 (ms) 
Processing time for GPU: 0.576192 (ms) 
Calculation time in CPU: 0.042240 (ms)
0.237839311361313 +- 0.000648935267236
