Using device 1
The block size is 1024
The grid size is 1024
Enter the number of sampling: 
256
Input time for GPU: 0.331616 (ms) 
Processing time for GPU: 0.970944 (ms) 
Calculation time in CPU: 0.044864 (ms)
0.243761956691742 +- 0.003627157304436
