Using device 1
The block size is 8
The grid size is 32
Enter the number of sampling: 
8192
Input time for GPU: 0.176512 (ms) 
Processing time for GPU: 0.133888 (ms) 
Calculation time in CPU: 0.042624 (ms)
0.237437859177589 +- 0.000642307626549
