Using device 1
The block size is 4
The grid size is 4
Enter the number of sampling: 
4096
Input time for GPU: 0.170336 (ms) 
Processing time for GPU: 0.643616 (ms) 
Calculation time in CPU: 0.040960 (ms)
0.238162443041801 +- 0.000890530121978
