Using device 1
The block size is 1
The grid size is 8
Enter the number of sampling: 
1024
Input time for GPU: 0.171840 (ms) 
Processing time for GPU: 0.390336 (ms) 
Calculation time in CPU: 0.040192 (ms)
0.238955765962601 +- 0.001748239854351
