Using device 1
The block size is 64
The grid size is 16
Enter the number of sampling: 
64
Input time for GPU: 0.169984 (ms) 
Processing time for GPU: 0.112160 (ms) 
Calculation time in CPU: 0.041568 (ms)
0.230888038873672 +- 0.006376444362104
