Using device 1
The block size is 256
The grid size is 4
Enter the number of sampling: 
16384
Input time for GPU: 0.325184 (ms) 
Processing time for GPU: 0.580992 (ms) 
Calculation time in CPU: 0.042080 (ms)
0.238232407613681 +- 0.000453047135084
