Using device 1
The block size is 32
The grid size is 32
Enter the number of sampling: 
256
Input time for GPU: 0.324928 (ms) 
Processing time for GPU: 0.302720 (ms) 
Calculation time in CPU: 0.056736 (ms)
0.243761956691742 +- 0.003627161262557
