Using device 1
The block size is 512
The grid size is 512
Enter the number of sampling: 
1024
Input time for GPU: 0.170784 (ms) 
Processing time for GPU: 0.202912 (ms) 
Calculation time in CPU: 0.040672 (ms)
0.241743355989456 +- 0.001777594676241
