Using device 1
The block size is 32
The grid size is 8
Enter the number of sampling: 
128
Input time for GPU: 0.172320 (ms) 
Processing time for GPU: 0.059296 (ms) 
Calculation time in CPU: 0.041792 (ms)
0.239315778017044 +- 0.004902409855276
