Using device 1
The block size is 1
The grid size is 256
Enter the number of sampling: 
128
Input time for GPU: 0.340032 (ms) 
Processing time for GPU: 0.320128 (ms) 
Calculation time in CPU: 0.053344 (ms)
0.239315763115883 +- 0.004902415908873
