Using device 1
The block size is 4
The grid size is 8
Enter the number of sampling: 
8192
Input time for GPU: 0.171328 (ms) 
Processing time for GPU: 0.704896 (ms) 
Calculation time in CPU: 0.040160 (ms)
0.237565293908119 +- 0.000639290839899
