Using device 1
The block size is 1
The grid size is 256
Enter the number of sampling: 
256
Input time for GPU: 0.182432 (ms) 
Processing time for GPU: 0.064288 (ms) 
Calculation time in CPU: 0.040640 (ms)
0.243762001395226 +- 0.003627141239122
