Using device 1
The block size is 2
The grid size is 128
Enter the number of sampling: 
32768
Input time for GPU: 0.174080 (ms) 
Processing time for GPU: 2.699680 (ms) 
Calculation time in CPU: 0.040672 (ms)
0.237466573298758 +- 0.000322072730541
