Using device 1
The block size is 4
The grid size is 2
Enter the number of sampling: 
8192
Input time for GPU: 0.175232 (ms) 
Processing time for GPU: 2.397696 (ms) 
Calculation time in CPU: 0.040160 (ms)
0.237849861383438 +- 0.000635609438177
