Using device 1
The block size is 1024
The grid size is 1024
Enter the number of sampling: 
32768
Input time for GPU: 0.166528 (ms) 
Processing time for GPU: 0.723616 (ms) 
Calculation time in CPU: 0.041152 (ms)
0.242287993431091 +- 0.000322055420838
