Using device 1
The block size is 512
The grid size is 1
Enter the number of sampling: 
8192
Input time for GPU: 0.169856 (ms) 
Processing time for GPU: 0.180032 (ms) 
Calculation time in CPU: 0.041504 (ms)
0.238649800419807 +- 0.000649939349387
