Using device 1
The block size is 256
The grid size is 1
Enter the number of sampling: 
512
Input time for GPU: 0.323840 (ms) 
Processing time for GPU: 0.241056 (ms) 
Calculation time in CPU: 0.056448 (ms)
0.241899698972702 +- 0.002613840159029
