Using device 1
The block size is 64
The grid size is 256
Enter the number of sampling: 
32768
Input time for GPU: 0.186144 (ms) 
Processing time for GPU: 0.333152 (ms) 
Calculation time in CPU: 0.040960 (ms)
0.240463359436758 +- 0.000319849135304
