Using device 1
The block size is 128
The grid size is 1
Enter the number of sampling: 
4096
Input time for GPU: 0.170464 (ms) 
Processing time for GPU: 0.134336 (ms) 
Calculation time in CPU: 0.041856 (ms)
0.237387776374817 +- 0.000919751008041
