Using device 1
The block size is 1024
The grid size is 2
Enter the number of sampling: 
256
Input time for GPU: 0.187584 (ms) 
Processing time for GPU: 0.326048 (ms) 
Calculation time in CPU: 0.044160 (ms)
0.243761956691742 +- 0.003627157304436
