Using device 1
The block size is 2
The grid size is 4
Enter the number of sampling: 
2048
Input time for GPU: 0.174144 (ms) 
Processing time for GPU: 0.636640 (ms) 
Calculation time in CPU: 0.042336 (ms)
0.239028200507164 +- 0.001268499414437
