Using device 1
The block size is 1024
The grid size is 2
Enter the number of sampling: 
32768
Input time for GPU: 0.181664 (ms) 
Processing time for GPU: 0.186688 (ms) 
Calculation time in CPU: 0.047232 (ms)
0.238512888550758 +- 0.000321064784657
