Using device 1
The block size is 4
The grid size is 2
Enter the number of sampling: 
65536
Input time for GPU: 0.218720 (ms) 
Processing time for GPU: 63.062496 (ms) 
Calculation time in CPU: 0.042432 (ms)
0.238241964164908 +- 0.000226605270349
