Using device 1
The block size is 32
The grid size is 4
Enter the number of sampling: 
2048
Input time for GPU: 0.328608 (ms) 
Processing time for GPU: 0.367072 (ms) 
Calculation time in CPU: 0.053952 (ms)
0.237250626087189 +- 0.001319764647633
