Using device 1
The block size is 4
The grid size is 8
Enter the number of sampling: 
512
Input time for GPU: 0.326048 (ms) 
Processing time for GPU: 0.390848 (ms) 
Calculation time in CPU: 0.055808 (ms)
0.238541528582573 +- 0.002740150550380
