Using device 1
The block size is 8
The grid size is 16
Enter the number of sampling: 
64
Input time for GPU: 0.169888 (ms) 
Processing time for GPU: 0.110656 (ms) 
Calculation time in CPU: 0.040992 (ms)
0.230888038873672 +- 0.006376444362104
