Using device 1
The block size is 32
The grid size is 64
Enter the number of sampling: 
2048
Input time for GPU: 0.165856 (ms) 
Processing time for GPU: 0.056864 (ms) 
Calculation time in CPU: 0.039552 (ms)
0.242138519883156 +- 0.001236865995452
