Using device 1
The block size is 1024
The grid size is 2
Enter the number of sampling: 
65536
Input time for GPU: 0.260864 (ms) 
Processing time for GPU: 0.587872 (ms) 
Calculation time in CPU: 0.041760 (ms)
0.238255292177200 +- 0.000227388081839
