Using device 1
The block size is 4
The grid size is 8
Enter the number of sampling: 
65536
Input time for GPU: 0.174432 (ms) 
Processing time for GPU: 15.985440 (ms) 
Calculation time in CPU: 0.041792 (ms)
0.237709876385602 +- 0.000226200544186
