Using device 1
The block size is 128
The grid size is 64
Enter the number of sampling: 
8192
Input time for GPU: 0.325376 (ms) 
Processing time for GPU: 0.355264 (ms) 
Calculation time in CPU: 0.058400 (ms)
0.242034047842026 +- 0.000632607087027
