Using device 1
The block size is 1
The grid size is 1024
Enter the number of sampling: 
512
Input time for GPU: 0.354080 (ms) 
Processing time for GPU: 0.234144 (ms) 
Calculation time in CPU: 0.041984 (ms)
0.241234973073006 +- 0.002451460342854
