Using device 1
The block size is 16
The grid size is 4
Enter the number of sampling: 
2048
Input time for GPU: 0.315072 (ms) 
Processing time for GPU: 0.350880 (ms) 
Calculation time in CPU: 0.043744 (ms)
0.237319380044937 +- 0.001302974647842
