Using device 1
The block size is 16
The grid size is 512
Enter the number of sampling: 
64
Input time for GPU: 0.172544 (ms) 
Processing time for GPU: 0.070400 (ms) 
Calculation time in CPU: 0.040640 (ms)
0.230888023972511 +- 0.006376453209668
