Using device 1
The block size is 16
The grid size is 1
Enter the number of sampling: 
512
Input time for GPU: 0.181952 (ms) 
Processing time for GPU: 0.133248 (ms) 
Calculation time in CPU: 0.041440 (ms)
0.242319419980049 +- 0.002642051782459
