Using device 1
The block size is 1
The grid size is 8
Enter the number of sampling: 
128
Input time for GPU: 0.173376 (ms) 
Processing time for GPU: 0.092832 (ms) 
Calculation time in CPU: 0.039648 (ms)
0.242658913135529 +- 0.005323814228177
