Using device 1
The block size is 128
The grid size is 4
Enter the number of sampling: 
1024
Input time for GPU: 0.180032 (ms) 
Processing time for GPU: 0.062336 (ms) 
Calculation time in CPU: 0.041952 (ms)
0.241538614034653 +- 0.001832404290326
