Using device 1
The block size is 256
The grid size is 64
Enter the number of sampling: 
128
Input time for GPU: 0.244352 (ms) 
Processing time for GPU: 0.118304 (ms) 
Calculation time in CPU: 0.039744 (ms)
0.239315778017044 +- 0.004902409855276
