Using device 1
The block size is 64
The grid size is 1024
Enter the number of sampling: 
256
Input time for GPU: 0.170080 (ms) 
Processing time for GPU: 0.353184 (ms) 
Calculation time in CPU: 0.043136 (ms)
0.243761956691742 +- 0.003627157304436
