Using device 1
The block size is 16
The grid size is 8
Enter the number of sampling: 
8192
Input time for GPU: 0.319840 (ms) 
Processing time for GPU: 0.426400 (ms) 
Calculation time in CPU: 0.043360 (ms)
0.238174423575401 +- 0.000655084324535
