Using device 1
The block size is 4
The grid size is 1024
Enter the number of sampling: 
1024
Input time for GPU: 0.171264 (ms) 
Processing time for GPU: 0.129952 (ms) 
Calculation time in CPU: 0.041120 (ms)
0.241743400692940 +- 0.001777586527169
