Using device 1
The block size is 2
The grid size is 1024
Enter the number of sampling: 
256
Input time for GPU: 0.319584 (ms) 
Processing time for GPU: 0.266496 (ms) 
Calculation time in CPU: 0.042144 (ms)
0.243761941790581 +- 0.003627169411629
