Using device 1
The block size is 8
The grid size is 64
Enter the number of sampling: 
16384
Input time for GPU: 0.172448 (ms) 
Processing time for GPU: 0.136864 (ms) 
Calculation time in CPU: 0.041792 (ms)
0.238682359457016 +- 0.000456795823993
