Using device 1
The block size is 2
The grid size is 16
Enter the number of sampling: 
16384
Input time for GPU: 0.176352 (ms) 
Processing time for GPU: 1.220896 (ms) 
Calculation time in CPU: 0.039776 (ms)
0.237866476178169 +- 0.000454177556094
