Using device 1
The block size is 4
The grid size is 512
Enter the number of sampling: 
32768
Input time for GPU: 0.174080 (ms) 
Processing time for GPU: 1.443488 (ms) 
Calculation time in CPU: 0.041568 (ms)
0.238512886028790 +- 0.000321064864038
