Using device 1
The block size is 8
The grid size is 64
Enter the number of sampling: 
65536
Input time for GPU: 0.170528 (ms) 
Processing time for GPU: 1.436224 (ms) 
Calculation time in CPU: 0.040928 (ms)
0.237811420531065 +- 0.000227846405112
