Using device 1
The block size is 8
The grid size is 256
Enter the number of sampling: 
16384
Input time for GPU: 0.363488 (ms) 
Processing time for GPU: 0.359680 (ms) 
Calculation time in CPU: 0.041440 (ms)
0.238661035895348 +- 0.000453276559711
