Using device 1
The block size is 128
The grid size is 8
Enter the number of sampling: 
4096
Input time for GPU: 0.186208 (ms) 
Processing time for GPU: 0.119104 (ms) 
Calculation time in CPU: 0.042208 (ms)
0.239321976900101 +- 0.000890248222277
