Using device 1
The block size is 2
The grid size is 4
Enter the number of sampling: 
32768
Input time for GPU: 0.345376 (ms) 
Processing time for GPU: 31.620640 (ms) 
Calculation time in CPU: 0.045408 (ms)
0.238115831509189 +- 0.000322178619484
