Using device 1
The block size is 16
The grid size is 64
Enter the number of sampling: 
16384
Input time for GPU: 0.170656 (ms) 
Processing time for GPU: 0.100000 (ms) 
Calculation time in CPU: 0.041600 (ms)
0.238232433795929 +- 0.000453046988696
