Using device 1
The block size is 2
The grid size is 1
Enter the number of sampling: 
8192
Input time for GPU: 0.170720 (ms) 
Processing time for GPU: 9.128224 (ms) 
Calculation time in CPU: 0.040192 (ms)
0.238257616758347 +- 0.000645729422104
