Using device 1
The block size is 32
The grid size is 1
Enter the number of sampling: 
128
Input time for GPU: 0.173376 (ms) 
Processing time for GPU: 0.067264 (ms) 
Calculation time in CPU: 0.041440 (ms)
0.233993619680405 +- 0.004712582565844
