Using device 1
The block size is 128
The grid size is 32
Enter the number of sampling: 
65536
Input time for GPU: 0.221792 (ms) 
Processing time for GPU: 0.458656 (ms) 
Calculation time in CPU: 0.040736 (ms)
0.238441723339934 +- 0.000226956766245
