Using device 1
The block size is 64
The grid size is 2
Enter the number of sampling: 
65536
Input time for GPU: 0.165664 (ms) 
Processing time for GPU: 4.489536 (ms) 
Calculation time in CPU: 0.040416 (ms)
0.237733519585478 +- 0.000226929896986
