Using device 1
The block size is 16
The grid size is 4
Enter the number of sampling: 
256
Input time for GPU: 0.343744 (ms) 
Processing time for GPU: 0.350016 (ms) 
Calculation time in CPU: 0.060800 (ms)
0.237772241234779 +- 0.003551919478923
