Using device 1
The block size is 128
The grid size is 1024
Enter the number of sampling: 
65536
Input time for GPU: 0.356480 (ms) 
Processing time for GPU: 1.058688 (ms) 
Calculation time in CPU: 0.044736 (ms)
0.242524547403954 +- 0.000227459124061
