Using device 1
The block size is 4
The grid size is 1
Enter the number of sampling: 
2048
Input time for GPU: 0.173536 (ms) 
Processing time for GPU: 1.225984 (ms) 
Calculation time in CPU: 0.039520 (ms)
0.239147350192070 +- 0.001255568000488
