Using device 1
The block size is 1
The grid size is 1
Enter the number of sampling: 
32768
Input time for GPU: 0.170624 (ms) 
Processing time for GPU: 240.195770 (ms) 
Calculation time in CPU: 0.042016 (ms)
0.237629805056539 +- 0.000318606443066
