Using device 1
The block size is 1
The grid size is 128
Enter the number of sampling: 
16384
Input time for GPU: 0.173184 (ms) 
Processing time for GPU: 0.437088 (ms) 
Calculation time in CPU: 0.040416 (ms)
0.237654343247414 +- 0.000458403723314
