Using device 1
The block size is 2
The grid size is 1
Enter the number of sampling: 
16384
Input time for GPU: 0.173312 (ms) 
Processing time for GPU: 18.208704 (ms) 
Calculation time in CPU: 0.040832 (ms)
0.237944900989532 +- 0.000453180982731
