Using device 1
The block size is 128
The grid size is 4
Enter the number of sampling: 
65536
Input time for GPU: 0.271360 (ms) 
Processing time for GPU: 1.427072 (ms) 
Calculation time in CPU: 0.045248 (ms)
0.237811420531065 +- 0.000227846405112
