Using device 1
The block size is 16
The grid size is 4
Enter the number of sampling: 
4096
Input time for GPU: 0.323360 (ms) 
Processing time for GPU: 0.285824 (ms) 
Calculation time in CPU: 0.042400 (ms)
0.238231390714645 +- 0.000916764780413
