Using device 1
The block size is 128
The grid size is 1
Enter the number of sampling: 
128
Input time for GPU: 0.221024 (ms) 
Processing time for GPU: 0.116832 (ms) 
Calculation time in CPU: 0.041920 (ms)
0.239315778017044 +- 0.004902409855276
