Using device 1
The block size is 4
The grid size is 32
Enter the number of sampling: 
256
Input time for GPU: 0.174912 (ms) 
Processing time for GPU: 0.070816 (ms) 
Calculation time in CPU: 0.041312 (ms)
0.238588467240334 +- 0.003601920790970
