Using device 1
The block size is 2
The grid size is 64
Enter the number of sampling: 
64
Input time for GPU: 0.171264 (ms) 
Processing time for GPU: 0.058624 (ms) 
Calculation time in CPU: 0.041216 (ms)
0.230888053774834 +- 0.006376439705491
