Using device 1
The block size is 64
The grid size is 64
Enter the number of sampling: 
2048
Input time for GPU: 0.340832 (ms) 
Processing time for GPU: 0.153312 (ms) 
Calculation time in CPU: 0.044384 (ms)
0.242138549685478 +- 0.001236861571670
