Using device 1
The block size is 16
The grid size is 128
Enter the number of sampling: 
1024
Input time for GPU: 0.173152 (ms) 
Processing time for GPU: 0.067648 (ms) 
Calculation time in CPU: 0.041952 (ms)
0.241743370890617 +- 0.001777589553967
