Using device 1
The block size is 32
The grid size is 32
Enter the number of sampling: 
65536
Input time for GPU: 0.167328 (ms) 
Processing time for GPU: 0.622208 (ms) 
Calculation time in CPU: 0.042112 (ms)
0.237769447919691 +- 0.000227014576752
