Using device 1
The block size is 1024
The grid size is 1
Enter the number of sampling: 
65536
Input time for GPU: 0.260448 (ms) 
Processing time for GPU: 0.775776 (ms) 
Calculation time in CPU: 0.040640 (ms)
0.237769454717636 +- 0.000227014548727
