Using device 1
The block size is 8
The grid size is 1
Enter the number of sampling: 
256
Input time for GPU: 0.182592 (ms) 
Processing time for GPU: 0.133376 (ms) 
Calculation time in CPU: 0.039360 (ms)
0.239089429378510 +- 0.003374047344550
