Using device 1
The block size is 4
The grid size is 16
Enter the number of sampling: 
1024
Input time for GPU: 0.249600 (ms) 
Processing time for GPU: 0.310496 (ms) 
Calculation time in CPU: 0.039904 (ms)
0.237888842821121 +- 0.001900628674775
