Using device 1
The block size is 4
The grid size is 1
Enter the number of sampling: 
8192
Input time for GPU: 0.172736 (ms) 
Processing time for GPU: 4.725664 (ms) 
Calculation time in CPU: 0.039680 (ms)
0.238103032112122 +- 0.000638685596641
