Using device 1
The block size is 2
The grid size is 512
Enter the number of sampling: 
2048
Input time for GPU: 0.171904 (ms) 
Processing time for GPU: 0.086080 (ms) 
Calculation time in CPU: 0.040800 (ms)
0.241309702396393 +- 0.001284580561332
