Using device 1
The block size is 1024
The grid size is 256
Enter the number of sampling: 
512
Input time for GPU: 0.335424 (ms) 
Processing time for GPU: 0.441056 (ms) 
Calculation time in CPU: 0.040672 (ms)
0.241234928369522 +- 0.002451483858749
