Using device 1
The block size is 4
The grid size is 32
Enter the number of sampling: 
512
Input time for GPU: 0.323552 (ms) 
Processing time for GPU: 0.356960 (ms) 
Calculation time in CPU: 0.062880 (ms)
0.237259507179260 +- 0.002488830592483
