Using device 1
The block size is 2
The grid size is 128
Enter the number of sampling: 
512
Input time for GPU: 0.221216 (ms) 
Processing time for GPU: 0.135616 (ms) 
Calculation time in CPU: 0.041088 (ms)
0.241899654269218 +- 0.002613845746964
