Using device 1
The block size is 16
The grid size is 32
Enter the number of sampling: 
32768
Input time for GPU: 0.174752 (ms) 
Processing time for GPU: 0.622720 (ms) 
Calculation time in CPU: 0.040288 (ms)
0.238032406494360 +- 0.000323610503687
