Using device 1
The block size is 2
The grid size is 256
Enter the number of sampling: 
16384
Input time for GPU: 0.336544 (ms) 
Processing time for GPU: 0.465440 (ms) 
Calculation time in CPU: 0.042848 (ms)
0.238682359457016 +- 0.000456795300124
