Using device 1
The block size is 1024
The grid size is 16
Enter the number of sampling: 
16384
Input time for GPU: 0.181856 (ms) 
Processing time for GPU: 0.088512 (ms) 
Calculation time in CPU: 0.040640 (ms)
0.241758048534393 +- 0.000450414285297
