Using device 1
The block size is 32
The grid size is 8
Enter the number of sampling: 
256
Input time for GPU: 0.336384 (ms) 
Processing time for GPU: 0.325088 (ms) 
Calculation time in CPU: 0.061760 (ms)
0.243761956691742 +- 0.003627161262557
