Using device 1
The block size is 64
The grid size is 64
Enter the number of sampling: 
512
Input time for GPU: 0.188928 (ms) 
Processing time for GPU: 0.201472 (ms) 
Calculation time in CPU: 0.042592 (ms)
0.241234928369522 +- 0.002451482461765
