Using device 1
The block size is 1
The grid size is 4
Enter the number of sampling: 
256
Input time for GPU: 0.215584 (ms) 
Processing time for GPU: 0.246368 (ms) 
Calculation time in CPU: 0.041728 (ms)
0.244233250617981 +- 0.003338867099956
