Using device 1
The block size is 2
The grid size is 8
Enter the number of sampling: 
128
Input time for GPU: 0.343232 (ms) 
Processing time for GPU: 0.292832 (ms) 
Calculation time in CPU: 0.042496 (ms)
0.254128932952881 +- 0.006282194051892
