Using device 1
The block size is 4
The grid size is 32
Enter the number of sampling: 
1024
Input time for GPU: 0.323520 (ms) 
Processing time for GPU: 0.370592 (ms) 
Calculation time in CPU: 0.062240 (ms)
0.239092677831650 +- 0.001911258557811
