Using device 1
The block size is 2
The grid size is 1024
Enter the number of sampling: 
512
Input time for GPU: 0.319456 (ms) 
Processing time for GPU: 0.238464 (ms) 
Calculation time in CPU: 0.050144 (ms)
0.241234987974167 +- 0.002451469190419
