Using device 1
The block size is 32
The grid size is 256
Enter the number of sampling: 
65536
Input time for GPU: 0.182560 (ms) 
Processing time for GPU: 0.363008 (ms) 
Calculation time in CPU: 0.040384 (ms)
0.238438058238255 +- 0.000226383073658
