Using device 1
The block size is 512
The grid size is 512
Enter the number of sampling: 
16384
Input time for GPU: 0.215008 (ms) 
Processing time for GPU: 1.279008 (ms) 
Calculation time in CPU: 0.042624 (ms)
0.241758068520461 +- 0.000450413701911
