Using device 1
The block size is 64
The grid size is 2
Enter the number of sampling: 
32768
Input time for GPU: 0.167136 (ms) 
Processing time for GPU: 2.290176 (ms) 
Calculation time in CPU: 0.041024 (ms)
0.237522777918806 +- 0.000319625949442
