Using device 1
The block size is 16
The grid size is 16
Enter the number of sampling: 
4096
Input time for GPU: 0.174048 (ms) 
Processing time for GPU: 0.104320 (ms) 
Calculation time in CPU: 0.040576 (ms)
0.237820044159889 +- 0.000916076533031
