Using device 1
The block size is 256
The grid size is 8
Enter the number of sampling: 
8192
Input time for GPU: 0.179648 (ms) 
Processing time for GPU: 0.072832 (ms) 
Calculation time in CPU: 0.040448 (ms)
0.239179790019989 +- 0.000633714953437
