Using device 1
The block size is 32
The grid size is 4
Enter the number of sampling: 
1024
Input time for GPU: 0.167872 (ms) 
Processing time for GPU: 0.135744 (ms) 
Calculation time in CPU: 0.040384 (ms)
0.239092662930489 +- 0.001911261351779
