Using device 1
The block size is 4
The grid size is 512
Enter the number of sampling: 
1024
Input time for GPU: 0.170144 (ms) 
Processing time for GPU: 0.119584 (ms) 
Calculation time in CPU: 0.040800 (ms)
0.241743400692940 +- 0.001777586527169
