Using device 1
The block size is 128
The grid size is 512
Enter the number of sampling: 
64
Input time for GPU: 0.317056 (ms) 
Processing time for GPU: 0.166464 (ms) 
Calculation time in CPU: 0.041760 (ms)
0.230888038873672 +- 0.006376444362104
