Using device 1
The block size is 32
The grid size is 256
Enter the number of sampling: 
32768
Input time for GPU: 0.324992 (ms) 
Processing time for GPU: 0.455808 (ms) 
Calculation time in CPU: 0.041952 (ms)
0.239011128950612 +- 0.000318419054071
