Using device 1
The block size is 256
The grid size is 4
Enter the number of sampling: 
4096
Input time for GPU: 0.334400 (ms) 
Processing time for GPU: 0.329920 (ms) 
Calculation time in CPU: 0.061184 (ms)
0.239321976900101 +- 0.000890248222277
