Using device 1
The block size is 1
The grid size is 512
Enter the number of sampling: 
2048
Input time for GPU: 0.228448 (ms) 
Processing time for GPU: 0.221728 (ms) 
Calculation time in CPU: 0.041440 (ms)
0.239476054906845 +- 0.001262765610591
