Using device 1
The block size is 64
The grid size is 4
Enter the number of sampling: 
512
Input time for GPU: 0.221696 (ms) 
Processing time for GPU: 0.120736 (ms) 
Calculation time in CPU: 0.041600 (ms)
0.241899698972702 +- 0.002613840159029
