Using device 1
The block size is 16
The grid size is 2
Enter the number of sampling: 
65536
Input time for GPU: 0.180352 (ms) 
Processing time for GPU: 15.856576 (ms) 
Calculation time in CPU: 0.041792 (ms)
0.237709876385602 +- 0.000226200544186
