Using device 1
The block size is 8
The grid size is 1024
Enter the number of sampling: 
8192
Input time for GPU: 0.167904 (ms) 
Processing time for GPU: 0.151808 (ms) 
Calculation time in CPU: 0.042240 (ms)
0.242033943533897 +- 0.000632607494481
