Using device 1
The block size is 64
The grid size is 2
Enter the number of sampling: 
2048
Input time for GPU: 0.169984 (ms) 
Processing time for GPU: 0.154560 (ms) 
Calculation time in CPU: 0.044064 (ms)
0.237250626087189 +- 0.001319764647633
