Using device 1
The block size is 256
The grid size is 512
Enter the number of sampling: 
128
Input time for GPU: 0.172736 (ms) 
Processing time for GPU: 0.124832 (ms) 
Calculation time in CPU: 0.041696 (ms)
0.239315778017044 +- 0.004902409855276
