Using device 1
The block size is 256
The grid size is 128
Enter the number of sampling: 
16384
Input time for GPU: 0.168032 (ms) 
Processing time for GPU: 0.249024 (ms) 
Calculation time in CPU: 0.041184 (ms)
0.241758068520461 +- 0.000450413701911
