Using device 1
The block size is 1024
The grid size is 2
Enter the number of sampling: 
8192
Input time for GPU: 0.174016 (ms) 
Processing time for GPU: 0.100288 (ms) 
Calculation time in CPU: 0.042016 (ms)
0.239179790019989 +- 0.000633714953437
