Using device 1
The block size is 32
The grid size is 1
Enter the number of sampling: 
64
Input time for GPU: 0.178208 (ms) 
Processing time for GPU: 0.072896 (ms) 
Calculation time in CPU: 0.040224 (ms)
0.227923512458801 +- 0.005478463135660
