Using device 1
The block size is 256
The grid size is 1024
Enter the number of sampling: 
512
Input time for GPU: 0.212768 (ms) 
Processing time for GPU: 0.234720 (ms) 
Calculation time in CPU: 0.041120 (ms)
0.241234928369522 +- 0.002451482461765
