Using device 1
The block size is 4
The grid size is 32
Enter the number of sampling: 
2048
Input time for GPU: 0.170112 (ms) 
Processing time for GPU: 0.093376 (ms) 
Calculation time in CPU: 0.040864 (ms)
0.237250611186028 +- 0.001319764647633
