Using device 1
The block size is 1
The grid size is 2
Enter the number of sampling: 
64
Input time for GPU: 0.399584 (ms) 
Processing time for GPU: 0.411104 (ms) 
Calculation time in CPU: 0.046912 (ms)
0.235854923725128 +- 0.006243236828595
