Using device 1
The block size is 32
The grid size is 64
Enter the number of sampling: 
64
Input time for GPU: 0.183136 (ms) 
Processing time for GPU: 0.074688 (ms) 
Calculation time in CPU: 0.041920 (ms)
0.230888038873672 +- 0.006376444362104
