Using device 1
The block size is 64
The grid size is 256
Enter the number of sampling: 
16384
Input time for GPU: 0.184256 (ms) 
Processing time for GPU: 0.073408 (ms) 
Calculation time in CPU: 0.041280 (ms)
0.241757988929749 +- 0.000450415536761
