Using device 1
The block size is 1
The grid size is 16
Enter the number of sampling: 
8192
Input time for GPU: 0.177600 (ms) 
Processing time for GPU: 1.172832 (ms) 
Calculation time in CPU: 0.041920 (ms)
0.238227009773254 +- 0.000635026430245
