Using device 1
The block size is 1
The grid size is 4
Enter the number of sampling: 
8192
Input time for GPU: 0.174112 (ms) 
Processing time for GPU: 4.420832 (ms) 
Calculation time in CPU: 0.041952 (ms)
0.238103032112122 +- 0.000638685945887
