Using device 1
The block size is 2
The grid size is 2
Enter the number of sampling: 
16384
Input time for GPU: 0.171776 (ms) 
Processing time for GPU: 9.181024 (ms) 
Calculation time in CPU: 0.041696 (ms)
0.238682910799980 +- 0.000457655376522
