Using device 1
The block size is 16
The grid size is 32
Enter the number of sampling: 
65536
Input time for GPU: 0.217792 (ms) 
Processing time for GPU: 1.234816 (ms) 
Calculation time in CPU: 0.042176 (ms)
0.237811420531065 +- 0.000227846405112
