Using device 1
The block size is 16
The grid size is 4
Enter the number of sampling: 
128
Input time for GPU: 0.190368 (ms) 
Processing time for GPU: 0.276832 (ms) 
Calculation time in CPU: 0.042496 (ms)
0.238820463418961 +- 0.005340835079551
