Using device 1
The block size is 32
The grid size is 1024
Enter the number of sampling: 
128
Input time for GPU: 0.171872 (ms) 
Processing time for GPU: 0.070304 (ms) 
Calculation time in CPU: 0.042016 (ms)
0.239315778017044 +- 0.004902409855276
