Using device 1
The block size is 32
The grid size is 4
Enter the number of sampling: 
8192
Input time for GPU: 0.176960 (ms) 
Processing time for GPU: 0.217120 (ms) 
Calculation time in CPU: 0.041216 (ms)
0.238174423575401 +- 0.000655084324535
