Using device 1
The block size is 32
The grid size is 128
Enter the number of sampling: 
4096
Input time for GPU: 0.170112 (ms) 
Processing time for GPU: 0.060064 (ms) 
Calculation time in CPU: 0.040032 (ms)
0.242465510964394 +- 0.000893931719474
