Using device 1
The block size is 4
The grid size is 128
Enter the number of sampling: 
16384
Input time for GPU: 0.188800 (ms) 
Processing time for GPU: 0.286592 (ms) 
Calculation time in CPU: 0.042336 (ms)
0.238682299852371 +- 0.000456797541119
