Using device 1
The block size is 8
The grid size is 8
Enter the number of sampling: 
512
Input time for GPU: 0.262048 (ms) 
Processing time for GPU: 0.334016 (ms) 
Calculation time in CPU: 0.041312 (ms)
0.238451838493347 +- 0.002795989625156
