Using device 1
The block size is 4
The grid size is 64
Enter the number of sampling: 
8192
Input time for GPU: 0.169984 (ms) 
Processing time for GPU: 0.188160 (ms) 
Calculation time in CPU: 0.039584 (ms)
0.237437859177589 +- 0.000642306171358
