Using device 1
The block size is 1
The grid size is 8
Enter the number of sampling: 
512
Input time for GPU: 0.181696 (ms) 
Processing time for GPU: 0.196576 (ms) 
Calculation time in CPU: 0.041760 (ms)
0.240766897797585 +- 0.002290068892762
