Using device 1
The block size is 1024
The grid size is 512
Enter the number of sampling: 
256
Input time for GPU: 0.325920 (ms) 
Processing time for GPU: 0.632064 (ms) 
Calculation time in CPU: 0.042432 (ms)
0.243761956691742 +- 0.003627157304436
