Using device 1
The block size is 8
The grid size is 2
Enter the number of sampling: 
512
Input time for GPU: 0.170400 (ms) 
Processing time for GPU: 0.135968 (ms) 
Calculation time in CPU: 0.039584 (ms)
0.242319405078888 +- 0.002642055973411
