Using device 1
The block size is 4
The grid size is 512
Enter the number of sampling: 
128
Input time for GPU: 0.172128 (ms) 
Processing time for GPU: 0.060992 (ms) 
Calculation time in CPU: 0.040736 (ms)
0.239315763115883 +- 0.004902418702841
