Using device 1
The block size is 16
The grid size is 128
Enter the number of sampling: 
65536
Input time for GPU: 0.316000 (ms) 
Processing time for GPU: 0.938560 (ms) 
Calculation time in CPU: 0.042528 (ms)
0.238255284364124 +- 0.000227388159636
