Using device 1
The block size is 2
The grid size is 8
Enter the number of sampling: 
2048
Input time for GPU: 0.185568 (ms) 
Processing time for GPU: 0.715232 (ms) 
Calculation time in CPU: 0.042080 (ms)
0.239603385329247 +- 0.001269277767278
