Using device 1
The block size is 16
The grid size is 1024
Enter the number of sampling: 
512
Input time for GPU: 0.167808 (ms) 
Processing time for GPU: 0.121280 (ms) 
Calculation time in CPU: 0.043328 (ms)
0.241234943270683 +- 0.002451481064782
