Using device 1
The block size is 2
The grid size is 64
Enter the number of sampling: 
1024
Input time for GPU: 0.184608 (ms) 
Processing time for GPU: 0.352736 (ms) 
Calculation time in CPU: 0.040992 (ms)
0.239092648029327 +- 0.001911264262162
