Using device 1
The block size is 1
The grid size is 1024
Enter the number of sampling: 
64
Input time for GPU: 0.170560 (ms) 
Processing time for GPU: 0.065696 (ms) 
Calculation time in CPU: 0.041056 (ms)
0.230888083577156 +- 0.006376421544701
