Using device 1
The block size is 8
The grid size is 64
Enter the number of sampling: 
32768
Input time for GPU: 0.279072 (ms) 
Processing time for GPU: 0.871392 (ms) 
Calculation time in CPU: 0.039616 (ms)
0.238032406494360 +- 0.000323610503687
