Using device 1
The block size is 1
The grid size is 16
Enter the number of sampling: 
1024
Input time for GPU: 0.171680 (ms) 
Processing time for GPU: 0.193216 (ms) 
Calculation time in CPU: 0.040160 (ms)
0.242577865719795 +- 0.001765617751516
