Using device 1
The block size is 4
The grid size is 4
Enter the number of sampling: 
32768
Input time for GPU: 0.254464 (ms) 
Processing time for GPU: 16.127584 (ms) 
Calculation time in CPU: 0.041952 (ms)
0.237535406387042 +- 0.000318685772792
