Using device 1
The block size is 16
The grid size is 8
Enter the number of sampling: 
64
Input time for GPU: 0.203200 (ms) 
Processing time for GPU: 0.092192 (ms) 
Calculation time in CPU: 0.040160 (ms)
0.230888023972511 +- 0.006376453209668
