Using device 1
The block size is 512
The grid size is 128
Enter the number of sampling: 
64
Input time for GPU: 0.176864 (ms) 
Processing time for GPU: 0.097600 (ms) 
Calculation time in CPU: 0.040128 (ms)
0.230888038873672 +- 0.006376444362104
