Using device 1
The block size is 16
The grid size is 512
Enter the number of sampling: 
16384
Input time for GPU: 0.170496 (ms) 
Processing time for GPU: 0.147744 (ms) 
Calculation time in CPU: 0.041536 (ms)
0.240236818790436 +- 0.000449408573331
