Using device 1
The block size is 128
The grid size is 1024
Enter the number of sampling: 
1024
Input time for GPU: 0.169280 (ms) 
Processing time for GPU: 0.122912 (ms) 
Calculation time in CPU: 0.041088 (ms)
0.241743370890617 +- 0.001777592697181
