Using device 1
The block size is 32
The grid size is 4
Enter the number of sampling: 
512
Input time for GPU: 0.189408 (ms) 
Processing time for GPU: 0.123680 (ms) 
Calculation time in CPU: 0.040960 (ms)
0.237259507179260 +- 0.002488827565685
