Using device 1
The block size is 2
The grid size is 8
Enter the number of sampling: 
1024
Input time for GPU: 0.200608 (ms) 
Processing time for GPU: 0.237920 (ms) 
Calculation time in CPU: 0.041120 (ms)
0.242577865719795 +- 0.001765618682839
