Using device 1
The block size is 2
The grid size is 32
Enter the number of sampling: 
512
Input time for GPU: 0.184800 (ms) 
Processing time for GPU: 0.199584 (ms) 
Calculation time in CPU: 0.041248 (ms)
0.238451853394508 +- 0.002795988228172
