Using device 1
The block size is 1
The grid size is 64
Enter the number of sampling: 
1024
Input time for GPU: 0.172832 (ms) 
Processing time for GPU: 0.101600 (ms) 
Calculation time in CPU: 0.041056 (ms)
0.237888872623444 +- 0.001900624833070
