Using device 1
The block size is 1024
The grid size is 4
Enter the number of sampling: 
128
Input time for GPU: 0.380512 (ms) 
Processing time for GPU: 0.335744 (ms) 
Calculation time in CPU: 0.060704 (ms)
0.239315778017044 +- 0.004902409855276
