Using device 1
The block size is 128
The grid size is 128
Enter the number of sampling: 
2048
Input time for GPU: 0.342848 (ms) 
Processing time for GPU: 0.411776 (ms) 
Calculation time in CPU: 0.041728 (ms)
0.242138564586639 +- 0.001236861571670
