Using device 1
The block size is 16
The grid size is 1024
Enter the number of sampling: 
8192
Input time for GPU: 0.165952 (ms) 
Processing time for GPU: 0.132992 (ms) 
Calculation time in CPU: 0.041568 (ms)
0.242034062743187 +- 0.000632607843727
