Using device 1
The block size is 2
The grid size is 2
Enter the number of sampling: 
128
Input time for GPU: 0.183104 (ms) 
Processing time for GPU: 0.131488 (ms) 
Calculation time in CPU: 0.041472 (ms)
0.237919479608536 +- 0.004761998075992
