Using device 1
The block size is 32
The grid size is 512
Enter the number of sampling: 
64
Input time for GPU: 0.189792 (ms) 
Processing time for GPU: 0.117856 (ms) 
Calculation time in CPU: 0.042688 (ms)
0.230888038873672 +- 0.006376444362104
