Using device 1
The block size is 256
The grid size is 1
Enter the number of sampling: 
2048
Input time for GPU: 0.220640 (ms) 
Processing time for GPU: 0.143488 (ms) 
Calculation time in CPU: 0.040768 (ms)
0.238495320081711 +- 0.001313438406214
