Using device 1
The block size is 8
The grid size is 4
Enter the number of sampling: 
64
Input time for GPU: 0.326176 (ms) 
Processing time for GPU: 0.267968 (ms) 
Calculation time in CPU: 0.052736 (ms)
0.227923512458801 +- 0.005478468257934
