Using device 1
The block size is 32
The grid size is 64
Enter the number of sampling: 
8192
Input time for GPU: 0.188960 (ms) 
Processing time for GPU: 0.229216 (ms) 
Calculation time in CPU: 0.041952 (ms)
0.239179790019989 +- 0.000633714953437
