Using device 1
The block size is 64
The grid size is 4
Enter the number of sampling: 
256
Input time for GPU: 0.395968 (ms) 
Processing time for GPU: 0.391520 (ms) 
Calculation time in CPU: 0.054272 (ms)
0.243761956691742 +- 0.003627157304436
