Using device 1
The block size is 1024
The grid size is 512
Enter the number of sampling: 
32768
Input time for GPU: 0.183168 (ms) 
Processing time for GPU: 0.405952 (ms) 
Calculation time in CPU: 0.041760 (ms)
0.242287993431091 +- 0.000322055420838
