Using device 1
The block size is 32
The grid size is 512
Enter the number of sampling: 
65536
Input time for GPU: 0.187776 (ms) 
Processing time for GPU: 0.737344 (ms) 
Calculation time in CPU: 0.042048 (ms)
0.238901105294779 +- 0.000226095482711
