Using device 1
The block size is 2
The grid size is 8
Enter the number of sampling: 
64
Input time for GPU: 0.215296 (ms) 
Processing time for GPU: 0.118208 (ms) 
Calculation time in CPU: 0.040864 (ms)
0.246268853545189 +- 0.007520977407694
