Using device 1
The block size is 2
The grid size is 1024
Enter the number of sampling: 
2048
Input time for GPU: 0.165600 (ms) 
Processing time for GPU: 0.089664 (ms) 
Calculation time in CPU: 0.040736 (ms)
0.242138668894768 +- 0.001236846088432
