Using device 1
The block size is 8
The grid size is 32
Enter the number of sampling: 
65536
Input time for GPU: 0.216800 (ms) 
Processing time for GPU: 2.347328 (ms) 
Calculation time in CPU: 0.039872 (ms)
0.237671819338992 +- 0.000227435879325
