Using device 1
The block size is 1
The grid size is 1
Enter the number of sampling: 
128
Input time for GPU: 0.321952 (ms) 
Processing time for GPU: 0.616416 (ms) 
Calculation time in CPU: 0.042592 (ms)
0.242917224764824 +- 0.004482059739530
