Using device 1
The block size is 8
The grid size is 256
Enter the number of sampling: 
2048
Input time for GPU: 0.170656 (ms) 
Processing time for GPU: 0.069280 (ms) 
Calculation time in CPU: 0.041344 (ms)
0.242138594388962 +- 0.001236857147887
