Using device 1
The block size is 16
The grid size is 16
Enter the number of sampling: 
64
Input time for GPU: 0.223040 (ms) 
Processing time for GPU: 0.115552 (ms) 
Calculation time in CPU: 0.040288 (ms)
0.230888023972511 +- 0.006376453209668
