Using device 1
The block size is 512
The grid size is 128
Enter the number of sampling: 
16384
Input time for GPU: 0.166496 (ms) 
Processing time for GPU: 0.407456 (ms) 
Calculation time in CPU: 0.040320 (ms)
0.241758068520461 +- 0.000450413701911
