Using device 1
The block size is 1
The grid size is 512
Enter the number of sampling: 
16384
Input time for GPU: 0.220576 (ms) 
Processing time for GPU: 0.472704 (ms) 
Calculation time in CPU: 0.042784 (ms)
0.238682329654694 +- 0.000456795300124
