Using device 1
The block size is 4
The grid size is 32
Enter the number of sampling: 
4096
Input time for GPU: 0.173312 (ms) 
Processing time for GPU: 0.192448 (ms) 
Calculation time in CPU: 0.040128 (ms)
0.237387761473656 +- 0.000919751997571
