Using device 1
The block size is 256
The grid size is 256
Enter the number of sampling: 
32768
Input time for GPU: 0.178592 (ms) 
Processing time for GPU: 0.449440 (ms) 
Calculation time in CPU: 0.041536 (ms)
0.242288013566681 +- 0.000322055070576
