Using device 1
The block size is 64
The grid size is 8
Enter the number of sampling: 
32768
Input time for GPU: 0.187584 (ms) 
Processing time for GPU: 0.681856 (ms) 
Calculation time in CPU: 0.041152 (ms)
0.238032406494360 +- 0.000323610503687
