Using device 1
The block size is 1
The grid size is 32
Enter the number of sampling: 
32768
Input time for GPU: 0.171168 (ms) 
Processing time for GPU: 8.698976 (ms) 
Calculation time in CPU: 0.042528 (ms)
0.237966643961867 +- 0.000320565949539
