Using device 1
The block size is 128
The grid size is 8
Enter the number of sampling: 
32768
Input time for GPU: 0.321504 (ms) 
Processing time for GPU: 0.507456 (ms) 
Calculation time in CPU: 0.040928 (ms)
0.238224442320407 +- 0.000321551496836
