Using device 1
The block size is 1
The grid size is 2
Enter the number of sampling: 
4096
Input time for GPU: 0.185664 (ms) 
Processing time for GPU: 4.660128 (ms) 
Calculation time in CPU: 0.042464 (ms)
0.237673878669739 +- 0.000899772392586
