Using device 1
The block size is 128
The grid size is 64
Enter the number of sampling: 
256
Input time for GPU: 0.181440 (ms) 
Processing time for GPU: 0.062304 (ms) 
Calculation time in CPU: 0.040064 (ms)
0.243761956691742 +- 0.003627157304436
