Using device 1
The block size is 128
The grid size is 4
Enter the number of sampling: 
32768
Input time for GPU: 0.181760 (ms) 
Processing time for GPU: 0.623232 (ms) 
Calculation time in CPU: 0.041376 (ms)
0.238032406494360 +- 0.000323610503687
