Using device 1
The block size is 16
The grid size is 2
Enter the number of sampling: 
512
Input time for GPU: 0.180800 (ms) 
Processing time for GPU: 0.096736 (ms) 
Calculation time in CPU: 0.040992 (ms)
0.238541513681412 +- 0.002740151947364
