Using device 1
The block size is 16
The grid size is 1
Enter the number of sampling: 
16384
Input time for GPU: 0.170720 (ms) 
Processing time for GPU: 2.412064 (ms) 
Calculation time in CPU: 0.040384 (ms)
0.238091856241226 +- 0.000450928899227
