Using device 1
The block size is 4
The grid size is 2
Enter the number of sampling: 
256
Input time for GPU: 0.171168 (ms) 
Processing time for GPU: 0.129408 (ms) 
Calculation time in CPU: 0.039584 (ms)
0.239089444279671 +- 0.003374041058123
