Using device 1
The block size is 256
The grid size is 16
Enter the number of sampling: 
16384
Input time for GPU: 0.173120 (ms) 
Processing time for GPU: 0.193664 (ms) 
Calculation time in CPU: 0.039872 (ms)
0.239346005853007 +- 0.000452247721303
