Using device 1
The block size is 128
The grid size is 32
Enter the number of sampling: 
8192
Input time for GPU: 0.176704 (ms) 
Processing time for GPU: 0.065376 (ms) 
Calculation time in CPU: 0.040672 (ms)
0.241137102246284 +- 0.000644032086711
