Using device 1
The block size is 16
The grid size is 1
Enter the number of sampling: 
1024
Input time for GPU: 0.181216 (ms) 
Processing time for GPU: 0.206784 (ms) 
Calculation time in CPU: 0.041056 (ms)
0.242577850818634 +- 0.001765621826053
