Using device 1
The block size is 256
The grid size is 1
Enter the number of sampling: 
16384
Input time for GPU: 0.311936 (ms) 
Processing time for GPU: 1.114368 (ms) 
Calculation time in CPU: 0.042944 (ms)
0.237499799415289 +- 0.000456065308303
