Using device 1
The block size is 8
The grid size is 1024
Enter the number of sampling: 
128
Input time for GPU: 0.164896 (ms) 
Processing time for GPU: 0.065696 (ms) 
Calculation time in CPU: 0.045952 (ms)
0.239315763115883 +- 0.004902409855276
