Using device 1
The block size is 1024
The grid size is 128
Enter the number of sampling: 
65536
Input time for GPU: 0.219680 (ms) 
Processing time for GPU: 0.242176 (ms) 
Calculation time in CPU: 0.040672 (ms)
0.242524549365044 +- 0.000227458818699
