Using device 1
The block size is 1
The grid size is 2
Enter the number of sampling: 
512
Input time for GPU: 0.222688 (ms) 
Processing time for GPU: 0.656384 (ms) 
Calculation time in CPU: 0.041824 (ms)
0.239762857556343 +- 0.002505848184228
