Using device 1
The block size is 32
The grid size is 8
Enter the number of sampling: 
8192
Input time for GPU: 0.171552 (ms) 
Processing time for GPU: 0.136864 (ms) 
Calculation time in CPU: 0.042144 (ms)
0.237437844276428 +- 0.000642307626549
