Using device 1
The block size is 1024
The grid size is 4
Enter the number of sampling: 
256
Input time for GPU: 0.330272 (ms) 
Processing time for GPU: 0.241376 (ms) 
Calculation time in CPU: 0.042368 (ms)
0.243761956691742 +- 0.003627157304436
