Using device 1
The block size is 2
The grid size is 16
Enter the number of sampling: 
65536
Input time for GPU: 0.168448 (ms) 
Processing time for GPU: 17.459488 (ms) 
Calculation time in CPU: 0.041952 (ms)
0.237709876385602 +- 0.000226200544186
