Using device 1
The block size is 16
The grid size is 16
Enter the number of sampling: 
16384
Input time for GPU: 0.171584 (ms) 
Processing time for GPU: 0.206752 (ms) 
Calculation time in CPU: 0.041056 (ms)
0.237499788403511 +- 0.000456065754406
