Using device 1
The block size is 4
The grid size is 4
Enter the number of sampling: 
1024
Input time for GPU: 0.339872 (ms) 
Processing time for GPU: 0.509152 (ms) 
Calculation time in CPU: 0.043168 (ms)
0.242577850818634 +- 0.001765620778315
