Using device 1
The block size is 1
The grid size is 1
Enter the number of sampling: 
512
Input time for GPU: 0.335712 (ms) 
Processing time for GPU: 1.390176 (ms) 
Calculation time in CPU: 0.042592 (ms)
0.239798754453659 +- 0.002443890552968
