Using device 1
The block size is 1
The grid size is 16
Enter the number of sampling: 
64
Input time for GPU: 0.169056 (ms) 
Processing time for GPU: 0.124224 (ms) 
Calculation time in CPU: 0.041728 (ms)
0.246268853545189 +- 0.007520969491452
