Using device 1
The block size is 128
The grid size is 2
Enter the number of sampling: 
1024
Input time for GPU: 0.220096 (ms) 
Processing time for GPU: 0.118784 (ms) 
Calculation time in CPU: 0.039680 (ms)
0.238753497600555 +- 0.001794094336219
