Using device 1
The block size is 1
The grid size is 64
Enter the number of sampling: 
16384
Input time for GPU: 0.168416 (ms) 
Processing time for GPU: 0.649312 (ms) 
Calculation time in CPU: 0.041568 (ms)
0.237633556127548 +- 0.000450606079539
