Using device 1
The block size is 4
The grid size is 128
Enter the number of sampling: 
2048
Input time for GPU: 0.171712 (ms) 
Processing time for GPU: 0.069504 (ms) 
Calculation time in CPU: 0.042880 (ms)
0.239476040005684 +- 0.001262768520974
