Using device 1
The block size is 256
The grid size is 2
Enter the number of sampling: 
1024
Input time for GPU: 0.217824 (ms) 
Processing time for GPU: 0.110912 (ms) 
Calculation time in CPU: 0.040480 (ms)
0.241538614034653 +- 0.001832404290326
