Using device 1
The block size is 16
The grid size is 4
Enter the number of sampling: 
64
Input time for GPU: 0.176224 (ms) 
Processing time for GPU: 0.071168 (ms) 
Calculation time in CPU: 0.041632 (ms)
0.230888023972511 +- 0.006376453209668
