Using device 1
The block size is 64
The grid size is 1
Enter the number of sampling: 
16384
Input time for GPU: 0.180992 (ms) 
Processing time for GPU: 0.648672 (ms) 
Calculation time in CPU: 0.041760 (ms)
0.237633541226387 +- 0.000450606312370
