Using device 1
The block size is 4
The grid size is 8
Enter the number of sampling: 
4096
Input time for GPU: 0.171616 (ms) 
Processing time for GPU: 0.356544 (ms) 
Calculation time in CPU: 0.040896 (ms)
0.237967222929001 +- 0.000910923234187
