Using device 1
The block size is 4
The grid size is 4
Enter the number of sampling: 
65536
Input time for GPU: 0.315872 (ms) 
Processing time for GPU: 32.068928 (ms) 
Calculation time in CPU: 0.041024 (ms)
0.238005225482815 +- 0.000226991459964
