Using device 1
The block size is 8
The grid size is 1
Enter the number of sampling: 
16384
Input time for GPU: 0.180192 (ms) 
Processing time for GPU: 4.762272 (ms) 
Calculation time in CPU: 0.039712 (ms)
0.237509489059448 +- 0.000452809792478
