Using device 1
The block size is 64
The grid size is 32
Enter the number of sampling: 
4096
Input time for GPU: 0.222304 (ms) 
Processing time for GPU: 0.121888 (ms) 
Calculation time in CPU: 0.041600 (ms)
0.241137564182281 +- 0.000903425097931
