Using device 1
The block size is 16
The grid size is 512
Enter the number of sampling: 
512
Input time for GPU: 0.328832 (ms) 
Processing time for GPU: 0.140672 (ms) 
Calculation time in CPU: 0.040832 (ms)
0.241234943270683 +- 0.002451481064782
