Using device 1
The block size is 256
The grid size is 4
Enter the number of sampling: 
8192
Input time for GPU: 0.216032 (ms) 
Processing time for GPU: 0.134080 (ms) 
Calculation time in CPU: 0.039808 (ms)
0.238736301660538 +- 0.000643904961180
