Using device 1
The block size is 16
The grid size is 64
Enter the number of sampling: 
65536
Input time for GPU: 0.187840 (ms) 
Processing time for GPU: 0.866944 (ms) 
Calculation time in CPU: 0.041856 (ms)
0.237769447919691 +- 0.000227014576752
