Using device 1
The block size is 16
The grid size is 1024
Enter the number of sampling: 
128
Input time for GPU: 0.405888 (ms) 
Processing time for GPU: 0.419840 (ms) 
Calculation time in CPU: 0.063136 (ms)
0.239315778017044 +- 0.004902409855276
