Using device 1
The block size is 128
The grid size is 1
Enter the number of sampling: 
1024
Input time for GPU: 0.184384 (ms) 
Processing time for GPU: 0.079808 (ms) 
Calculation time in CPU: 0.039840 (ms)
0.239092677831650 +- 0.001911260420457
