Using device 1
The block size is 32
The grid size is 128
Enter the number of sampling: 
8192
Input time for GPU: 0.334592 (ms) 
Processing time for GPU: 0.167456 (ms) 
Calculation time in CPU: 0.044512 (ms)
0.241137042641640 +- 0.000644033832941
