Using device 1
The block size is 32
The grid size is 1
Enter the number of sampling: 
32768
Input time for GPU: 0.366880 (ms) 
Processing time for GPU: 8.391296 (ms) 
Calculation time in CPU: 0.043616 (ms)
0.237966643961867 +- 0.000320565949539
