Using device 1
The block size is 128
The grid size is 256
Enter the number of sampling: 
32768
Input time for GPU: 0.182048 (ms) 
Processing time for GPU: 0.364768 (ms) 
Calculation time in CPU: 0.040512 (ms)
0.242288013566681 +- 0.000322055070576
