Using device 1
The block size is 256
The grid size is 4
Enter the number of sampling: 
65536
Input time for GPU: 0.171744 (ms) 
Processing time for GPU: 0.949568 (ms) 
Calculation time in CPU: 0.040928 (ms)
0.237769447919691 +- 0.000227014576752
