Using device 1
The block size is 1
The grid size is 4
Enter the number of sampling: 
512
Input time for GPU: 0.169728 (ms) 
Processing time for GPU: 0.389824 (ms) 
Calculation time in CPU: 0.041536 (ms)
0.241230070590973 +- 0.002423754660413
