Using device 1
The block size is 8
The grid size is 2
Enter the number of sampling: 
2048
Input time for GPU: 0.310784 (ms) 
Processing time for GPU: 0.633632 (ms) 
Calculation time in CPU: 0.042336 (ms)
0.239603370428085 +- 0.001269279280677
