Using device 1
The block size is 16
The grid size is 256
Enter the number of sampling: 
2048
Input time for GPU: 0.186720 (ms) 
Processing time for GPU: 0.190688 (ms) 
Calculation time in CPU: 0.040352 (ms)
0.242138549685478 +- 0.001236860873178
