Using device 1
The block size is 16
The grid size is 1
Enter the number of sampling: 
256
Input time for GPU: 0.174656 (ms) 
Processing time for GPU: 0.104384 (ms) 
Calculation time in CPU: 0.040800 (ms)
0.245808646082878 +- 0.004086173139513
