Using device 1
The block size is 1024
The grid size is 2
Enter the number of sampling: 
128
Input time for GPU: 0.326112 (ms) 
Processing time for GPU: 0.352064 (ms) 
Calculation time in CPU: 0.060544 (ms)
0.239315778017044 +- 0.004902409855276
