Using device 1
The block size is 32
The grid size is 128
Enter the number of sampling: 
32768
Input time for GPU: 0.342624 (ms) 
Processing time for GPU: 0.366656 (ms) 
Calculation time in CPU: 0.043232 (ms)
0.238678306707512 +- 0.000320496390148
