Using device 1
The block size is 1024
The grid size is 4
Enter the number of sampling: 
8192
Input time for GPU: 0.181952 (ms) 
Processing time for GPU: 0.093024 (ms) 
Calculation time in CPU: 0.042688 (ms)
0.241137117147446 +- 0.000644031388219
