Using device 1
The block size is 512
The grid size is 16
Enter the number of sampling: 
32768
Input time for GPU: 0.167360 (ms) 
Processing time for GPU: 0.319776 (ms) 
Calculation time in CPU: 0.040160 (ms)
0.239011128950612 +- 0.000318419054071
