Using device 1
The block size is 1
The grid size is 1024
Enter the number of sampling: 
8192
Input time for GPU: 0.172096 (ms) 
Processing time for GPU: 0.477088 (ms) 
Calculation time in CPU: 0.043712 (ms)
0.238736286759377 +- 0.000643905368634
