Using device 1
The block size is 16
The grid size is 2
Enter the number of sampling: 
2048
Input time for GPU: 0.349184 (ms) 
Processing time for GPU: 0.447136 (ms) 
Calculation time in CPU: 0.040800 (ms)
0.239133641123772 +- 0.001290378742851
