Using device 1
The block size is 1
The grid size is 2
Enter the number of sampling: 
256
Input time for GPU: 0.218464 (ms) 
Processing time for GPU: 0.390080 (ms) 
Calculation time in CPU: 0.041408 (ms)
0.239640429615974 +- 0.003265581326559
