Using device 1
The block size is 1024
The grid size is 512
Enter the number of sampling: 
512
Input time for GPU: 0.181280 (ms) 
Processing time for GPU: 0.379840 (ms) 
Calculation time in CPU: 0.042656 (ms)
0.241234928369522 +- 0.002451483858749
