Using device 1
The block size is 32
The grid size is 256
Enter the number of sampling: 
16384
Input time for GPU: 0.285216 (ms) 
Processing time for GPU: 0.322208 (ms) 
Calculation time in CPU: 0.044448 (ms)
0.240236848592758 +- 0.000449406303233
