Using device 1
The block size is 1
The grid size is 1024
Enter the number of sampling: 
4096
Input time for GPU: 0.168928 (ms) 
Processing time for GPU: 0.148960 (ms) 
Calculation time in CPU: 0.041408 (ms)
0.239321753382683 +- 0.000890257419087
