Using device 1
The block size is 256
The grid size is 1024
Enter the number of sampling: 
128
Input time for GPU: 0.169056 (ms) 
Processing time for GPU: 0.239680 (ms) 
Calculation time in CPU: 0.043328 (ms)
0.239315778017044 +- 0.004902409855276
