Using device 1
The block size is 2
The grid size is 128
Enter the number of sampling: 
128
Input time for GPU: 0.327072 (ms) 
Processing time for GPU: 0.337760 (ms) 
Calculation time in CPU: 0.063232 (ms)
0.239315792918205 +- 0.004902409855276
