Using device 1
The block size is 1
The grid size is 32
Enter the number of sampling: 
1024
Input time for GPU: 0.169504 (ms) 
Processing time for GPU: 0.130208 (ms) 
Calculation time in CPU: 0.039680 (ms)
0.238267183303833 +- 0.001875955727883
