Using device 1
The block size is 1024
The grid size is 8
Enter the number of sampling: 
65536
Input time for GPU: 0.334336 (ms) 
Processing time for GPU: 0.411712 (ms) 
Calculation time in CPU: 0.047328 (ms)
0.238438069820404 +- 0.000226382806432
