Using device 1
The block size is 512
The grid size is 4
Enter the number of sampling: 
8192
Input time for GPU: 0.219392 (ms) 
Processing time for GPU: 0.135168 (ms) 
Calculation time in CPU: 0.040096 (ms)
0.239179790019989 +- 0.000633714953437
