Using device 1
The block size is 16
The grid size is 2
Enter the number of sampling: 
64
Input time for GPU: 0.172832 (ms) 
Processing time for GPU: 0.064480 (ms) 
Calculation time in CPU: 0.039712 (ms)
0.227923512458801 +- 0.005478468257934
