Using device 1
The block size is 16
The grid size is 2
Enter the number of sampling: 
8192
Input time for GPU: 0.174272 (ms) 
Processing time for GPU: 0.649920 (ms) 
Calculation time in CPU: 0.041312 (ms)
0.237565279006958 +- 0.000639291596599
