Using device 1
The block size is 4
The grid size is 128
Enter the number of sampling: 
4096
Input time for GPU: 0.322944 (ms) 
Processing time for GPU: 0.364800 (ms) 
Calculation time in CPU: 0.056960 (ms)
0.238727495074272 +- 0.000924795633182
