Using device 1
The block size is 4
The grid size is 4
Enter the number of sampling: 
256
Input time for GPU: 0.224864 (ms) 
Processing time for GPU: 0.153536 (ms) 
Calculation time in CPU: 0.041472 (ms)
0.245808631181717 +- 0.004086180124432
