Using device 1
The block size is 2
The grid size is 16
Enter the number of sampling: 
256
Input time for GPU: 0.169248 (ms) 
Processing time for GPU: 0.128608 (ms) 
Calculation time in CPU: 0.041312 (ms)
0.240485459566116 +- 0.004061502870172
