Using device 1
The block size is 128
The grid size is 1024
Enter the number of sampling: 
4096
Input time for GPU: 0.255296 (ms) 
Processing time for GPU: 0.222400 (ms) 
Calculation time in CPU: 0.042528 (ms)
0.242465525865555 +- 0.000893930671737
