Using device 1
The block size is 32
The grid size is 64
Enter the number of sampling: 
256
Input time for GPU: 0.221952 (ms) 
Processing time for GPU: 0.120320 (ms) 
Calculation time in CPU: 0.041408 (ms)
0.243761956691742 +- 0.003627161262557
