Using device 1
The block size is 16
The grid size is 1
Enter the number of sampling: 
8192
Input time for GPU: 0.170752 (ms) 
Processing time for GPU: 1.289504 (ms) 
Calculation time in CPU: 0.042208 (ms)
0.238227009773254 +- 0.000635026430245
