Using device 1
The block size is 128
The grid size is 1024
Enter the number of sampling: 
32768
Input time for GPU: 0.170688 (ms) 
Processing time for GPU: 0.728288 (ms) 
Calculation time in CPU: 0.044096 (ms)
0.242288013566681 +- 0.000322055070576
