Using device 1
The block size is 64
The grid size is 64
Enter the number of sampling: 
128
Input time for GPU: 0.215040 (ms) 
Processing time for GPU: 0.114496 (ms) 
Calculation time in CPU: 0.041120 (ms)
0.239315778017044 +- 0.004902409855276
