Using device 1
The block size is 8
The grid size is 2
Enter the number of sampling: 
64
Input time for GPU: 0.183136 (ms) 
Processing time for GPU: 0.129472 (ms) 
Calculation time in CPU: 0.046752 (ms)
0.246268853545189 +- 0.007520977407694
