Using device 1
The block size is 256
The grid size is 1
Enter the number of sampling: 
65536
Input time for GPU: 0.189024 (ms) 
Processing time for GPU: 3.621536 (ms) 
Calculation time in CPU: 0.042208 (ms)
0.237671819338992 +- 0.000227435879325
