Using device 1
The block size is 1024
The grid size is 64
Enter the number of sampling: 
512
Input time for GPU: 0.171552 (ms) 
Processing time for GPU: 0.092064 (ms) 
Calculation time in CPU: 0.040096 (ms)
0.241234928369522 +- 0.002451483858749
