Using device 1
The block size is 512
The grid size is 4
Enter the number of sampling: 
65536
Input time for GPU: 0.176672 (ms) 
Processing time for GPU: 0.965600 (ms) 
Calculation time in CPU: 0.045184 (ms)
0.238255284364123 +- 0.000227388159636
