Using device 1
The block size is 2
The grid size is 1
Enter the number of sampling: 
65536
Input time for GPU: 0.256416 (ms) 
Processing time for GPU: 244.588837 (ms) 
Calculation time in CPU: 0.042240 (ms)
0.237758851381928 +- 0.000226030396642
