Using device 1
The block size is 16
The grid size is 128
Enter the number of sampling: 
8192
Input time for GPU: 0.263040 (ms) 
Processing time for GPU: 0.331008 (ms) 
Calculation time in CPU: 0.044192 (ms)
0.239179775118828 +- 0.000633716408629
