Using device 1
The block size is 64
The grid size is 1
Enter the number of sampling: 
32768
Input time for GPU: 0.178784 (ms) 
Processing time for GPU: 4.510624 (ms) 
Calculation time in CPU: 0.040736 (ms)
0.237906106581323 +- 0.000320451881448
