Using device 1
The block size is 32
The grid size is 8
Enter the number of sampling: 
1024
Input time for GPU: 0.219872 (ms) 
Processing time for GPU: 0.367456 (ms) 
Calculation time in CPU: 0.062880 (ms)
0.238753497600555 +- 0.001794095383957
