Using device 1
The block size is 1
The grid size is 1
Enter the number of sampling: 
64
Input time for GPU: 0.325760 (ms) 
Processing time for GPU: 0.480576 (ms) 
Calculation time in CPU: 0.043648 (ms)
0.240067243576050 +- 0.006011638324708
