Using device 1
The block size is 2
The grid size is 512
Enter the number of sampling: 
512
Input time for GPU: 0.325568 (ms) 
Processing time for GPU: 0.141568 (ms) 
Calculation time in CPU: 0.041952 (ms)
0.241234987974167 +- 0.002451469190419
