Using device 1
The block size is 4
The grid size is 256
Enter the number of sampling: 
1024
Input time for GPU: 0.327392 (ms) 
Processing time for GPU: 0.311616 (ms) 
Calculation time in CPU: 0.059968 (ms)
0.241743400692940 +- 0.001777586527169
