Using device 1
The block size is 1
The grid size is 256
Enter the number of sampling: 
16384
Input time for GPU: 0.172128 (ms) 
Processing time for GPU: 0.354688 (ms) 
Calculation time in CPU: 0.040448 (ms)
0.237499773502350 +- 0.000456065754406
