Using device 1
The block size is 8
The grid size is 16
Enter the number of sampling: 
512
Input time for GPU: 0.188896 (ms) 
Processing time for GPU: 0.337952 (ms) 
Calculation time in CPU: 0.042336 (ms)
0.237259507179260 +- 0.002488828962669
