Using device 1
The block size is 16
The grid size is 256
Enter the number of sampling: 
1024
Input time for GPU: 0.361632 (ms) 
Processing time for GPU: 0.312480 (ms) 
Calculation time in CPU: 0.045376 (ms)
0.241743370890617 +- 0.001777589553967
