Using device 1
The block size is 128
The grid size is 1
Enter the number of sampling: 
16384
Input time for GPU: 0.171488 (ms) 
Processing time for GPU: 1.179520 (ms) 
Calculation time in CPU: 0.041472 (ms)
0.237654365239246 +- 0.000458403382401
