Using device 1
The block size is 8
The grid size is 64
Enter the number of sampling: 
8192
Input time for GPU: 0.325056 (ms) 
Processing time for GPU: 0.356928 (ms) 
Calculation time in CPU: 0.056512 (ms)
0.238649800419807 +- 0.000649939000141
