Using device 1
The block size is 1
The grid size is 128
Enter the number of sampling: 
256
Input time for GPU: 0.182656 (ms) 
Processing time for GPU: 0.065504 (ms) 
Calculation time in CPU: 0.039840 (ms)
0.238588482141495 +- 0.003601912641898
