Using device 1
The block size is 1
The grid size is 8
Enter the number of sampling: 
8192
Input time for GPU: 0.182080 (ms) 
Processing time for GPU: 2.241952 (ms) 
Calculation time in CPU: 0.039872 (ms)
0.237849876284599 +- 0.000635608739685
