Using device 1
The block size is 16
The grid size is 8
Enter the number of sampling: 
65536
Input time for GPU: 0.189088 (ms) 
Processing time for GPU: 4.092928 (ms) 
Calculation time in CPU: 0.042496 (ms)
0.237733519585478 +- 0.000226929896986
