Using device 1
The block size is 64
The grid size is 64
Enter the number of sampling: 
4096
Input time for GPU: 0.361504 (ms) 
Processing time for GPU: 0.323008 (ms) 
Calculation time in CPU: 0.045536 (ms)
0.242465525865555 +- 0.000893930147868
