Using device 1
The block size is 1
The grid size is 8
Enter the number of sampling: 
16384
Input time for GPU: 0.337504 (ms) 
Processing time for GPU: 4.691840 (ms) 
Calculation time in CPU: 0.041952 (ms)
0.237509474158287 +- 0.000452810811112
