Using device 1
The block size is 512
The grid size is 1024
Enter the number of sampling: 
128
Input time for GPU: 0.179648 (ms) 
Processing time for GPU: 0.355456 (ms) 
Calculation time in CPU: 0.043392 (ms)
0.239315778017044 +- 0.004902409855276
