Using device 1
The block size is 512
The grid size is 1024
Enter the number of sampling: 
16384
Input time for GPU: 0.347648 (ms) 
Processing time for GPU: 2.374752 (ms) 
Calculation time in CPU: 0.043712 (ms)
0.241758068520461 +- 0.000450413701911
