Using device 1
The block size is 2
The grid size is 16
Enter the number of sampling: 
4096
Input time for GPU: 0.165536 (ms) 
Processing time for GPU: 0.342528 (ms) 
Calculation time in CPU: 0.040960 (ms)
0.237967237830162 +- 0.000910921720788
