Using device 1
The block size is 512
The grid size is 64
Enter the number of sampling: 
32768
Input time for GPU: 0.217248 (ms) 
Processing time for GPU: 0.380160 (ms) 
Calculation time in CPU: 0.042528 (ms)
0.242288013566681 +- 0.000322055070576
