Using device 1
The block size is 16
The grid size is 128
Enter the number of sampling: 
32768
Input time for GPU: 0.334048 (ms) 
Processing time for GPU: 0.475616 (ms) 
Calculation time in CPU: 0.040544 (ms)
0.238512886028791 +- 0.000321064864038
