Using device 1
The block size is 512
The grid size is 512
Enter the number of sampling: 
32768
Input time for GPU: 0.176736 (ms) 
Processing time for GPU: 1.308256 (ms) 
Calculation time in CPU: 0.041120 (ms)
0.242288013566681 +- 0.000322055070576
