Using device 1
The block size is 32
The grid size is 16
Enter the number of sampling: 
2048
Input time for GPU: 0.186240 (ms) 
Processing time for GPU: 0.123936 (ms) 
Calculation time in CPU: 0.041056 (ms)
0.239476025104523 +- 0.001262767123990
