Using device 1
The block size is 256
The grid size is 512
Enter the number of sampling: 
65536
Input time for GPU: 0.166816 (ms) 
Processing time for GPU: 0.900128 (ms) 
Calculation time in CPU: 0.040736 (ms)
0.242524547403954 +- 0.000227459124061
