Using device 1
The block size is 8
The grid size is 32
Enter the number of sampling: 
16384
Input time for GPU: 0.324032 (ms) 
Processing time for GPU: 0.477504 (ms) 
Calculation time in CPU: 0.041568 (ms)
0.237499803304672 +- 0.000456065259641
