Using device 1
The block size is 1
The grid size is 512
Enter the number of sampling: 
512
Input time for GPU: 0.177056 (ms) 
Processing time for GPU: 0.086400 (ms) 
Calculation time in CPU: 0.042336 (ms)
0.241234973073006 +- 0.002451460342854
