Using device 1
The block size is 32
The grid size is 1024
Enter the number of sampling: 
65536
Input time for GPU: 0.331232 (ms) 
Processing time for GPU: 0.799936 (ms) 
Calculation time in CPU: 0.045024 (ms)
0.240631570967572 +- 0.000226852474902
