Using device 1
The block size is 16
The grid size is 16
Enter the number of sampling: 
2048
Input time for GPU: 0.180512 (ms) 
Processing time for GPU: 0.081184 (ms) 
Calculation time in CPU: 0.041344 (ms)
0.238495305180550 +- 0.001313439104706
