Using device 1
The block size is 128
The grid size is 1024
Enter the number of sampling: 
64
Input time for GPU: 0.184416 (ms) 
Processing time for GPU: 0.520864 (ms) 
Calculation time in CPU: 0.043168 (ms)
0.230888038873672 +- 0.006376444362104
