Using device 1
The block size is 512
The grid size is 512
Enter the number of sampling: 
8192
Input time for GPU: 0.181536 (ms) 
Processing time for GPU: 0.212928 (ms) 
Calculation time in CPU: 0.041952 (ms)
0.242033988237381 +- 0.000632609997410
