Using device 1
The block size is 64
The grid size is 128
Enter the number of sampling: 
32768
Input time for GPU: 0.175840 (ms) 
Processing time for GPU: 0.233184 (ms) 
Calculation time in CPU: 0.040608 (ms)
0.239011128950612 +- 0.000318419054071
