Using device 1
The block size is 2
The grid size is 1
Enter the number of sampling: 
1024
Input time for GPU: 0.221504 (ms) 
Processing time for GPU: 1.247008 (ms) 
Calculation time in CPU: 0.041344 (ms)
0.239411443471909 +- 0.001745708636008
