Using device 1
The block size is 128
The grid size is 8
Enter the number of sampling: 
256
Input time for GPU: 0.172384 (ms) 
Processing time for GPU: 0.061632 (ms) 
Calculation time in CPU: 0.041216 (ms)
0.243761956691742 +- 0.003627157304436
