Using device 1
The block size is 1024
The grid size is 128
Enter the number of sampling: 
64
Input time for GPU: 0.372960 (ms) 
Processing time for GPU: 0.390144 (ms) 
Calculation time in CPU: 0.042176 (ms)
0.230888038873672 +- 0.006376444362104
