Using device 1
The block size is 16
The grid size is 1
Enter the number of sampling: 
4096
Input time for GPU: 0.263552 (ms) 
Processing time for GPU: 0.742400 (ms) 
Calculation time in CPU: 0.043008 (ms)
0.238162443041801 +- 0.000890529598109
