Using device 1
The block size is 512
The grid size is 32
Enter the number of sampling: 
32768
Input time for GPU: 0.323328 (ms) 
Processing time for GPU: 0.589312 (ms) 
Calculation time in CPU: 0.041568 (ms)
0.240463359436758 +- 0.000319849135304
