Using device 1
The block size is 8
The grid size is 32
Enter the number of sampling: 
4096
Input time for GPU: 0.325440 (ms) 
Processing time for GPU: 0.339488 (ms) 
Calculation time in CPU: 0.056768 (ms)
0.237820059061050 +- 0.000916076067369
