Using device 1
The block size is 1
The grid size is 32
Enter the number of sampling: 
256
Input time for GPU: 0.171552 (ms) 
Processing time for GPU: 0.073088 (ms) 
Calculation time in CPU: 0.039616 (ms)
0.240485474467278 +- 0.004061497282237
