Using device 1
The block size is 8
The grid size is 16
Enter the number of sampling: 
4096
Input time for GPU: 0.170016 (ms) 
Processing time for GPU: 0.130368 (ms) 
Calculation time in CPU: 0.039520 (ms)
0.237387776374817 +- 0.000919750542380
