Using device 1
The block size is 8
The grid size is 8
Enter the number of sampling: 
32768
Input time for GPU: 0.330464 (ms) 
Processing time for GPU: 4.112608 (ms) 
Calculation time in CPU: 0.042048 (ms)
0.237906106581323 +- 0.000320451881448
