Using device 1
The block size is 2
The grid size is 256
Enter the number of sampling: 
8192
Input time for GPU: 0.172864 (ms) 
Processing time for GPU: 0.136256 (ms) 
Calculation time in CPU: 0.048160 (ms)
0.238649815320969 +- 0.000649936904665
