Using device 1
The block size is 8
The grid size is 1024
Enter the number of sampling: 
32768
Input time for GPU: 0.213792 (ms) 
Processing time for GPU: 0.904384 (ms) 
Calculation time in CPU: 0.042816 (ms)
0.239011128950612 +- 0.000318419054071
