Using device 1
The block size is 1024
The grid size is 128
Enter the number of sampling: 
512
Input time for GPU: 0.168320 (ms) 
Processing time for GPU: 0.191392 (ms) 
Calculation time in CPU: 0.041568 (ms)
0.241234928369522 +- 0.002451483858749
