Using device 1
The block size is 512
The grid size is 4
Enter the number of sampling: 
16384
Input time for GPU: 0.170208 (ms) 
Processing time for GPU: 0.297184 (ms) 
Calculation time in CPU: 0.039744 (ms)
0.238661073351784 +- 0.000453275549479
