Using device 1
The block size is 2
The grid size is 64
Enter the number of sampling: 
256
Input time for GPU: 0.170464 (ms) 
Processing time for GPU: 0.060064 (ms) 
Calculation time in CPU: 0.040128 (ms)
0.238588452339172 +- 0.003601920790970
