Using device 1
The block size is 16
The grid size is 512
Enter the number of sampling: 
2048
Input time for GPU: 0.316704 (ms) 
Processing time for GPU: 0.344672 (ms) 
Calculation time in CPU: 0.064832 (ms)
0.242138549685478 +- 0.001236860873178
