Using device 1
The block size is 512
The grid size is 8
Enter the number of sampling: 
65536
Input time for GPU: 0.268160 (ms) 
Processing time for GPU: 0.735616 (ms) 
Calculation time in CPU: 0.041216 (ms)
0.238441723339934 +- 0.000226956766245
