Using device 1
The block size is 8
The grid size is 128
Enter the number of sampling: 
16384
Input time for GPU: 0.172352 (ms) 
Processing time for GPU: 0.106592 (ms) 
Calculation time in CPU: 0.040032 (ms)
0.238232359290123 +- 0.000453047745395
