Using device 1
The block size is 64
The grid size is 16
Enter the number of sampling: 
65536
Input time for GPU: 0.182528 (ms) 
Processing time for GPU: 0.624704 (ms) 
Calculation time in CPU: 0.040480 (ms)
0.237769447919691 +- 0.000227014576752
