Using device 1
The block size is 4
The grid size is 8
Enter the number of sampling: 
16384
Input time for GPU: 0.170528 (ms) 
Processing time for GPU: 1.233408 (ms) 
Calculation time in CPU: 0.042432 (ms)
0.237866476178169 +- 0.000454177061329
