Using device 1
The block size is 4
The grid size is 128
Enter the number of sampling: 
65536
Input time for GPU: 0.249024 (ms) 
Processing time for GPU: 2.799392 (ms) 
Calculation time in CPU: 0.042816 (ms)
0.237811420531065 +- 0.000227846405112
