Using device 1
The block size is 32
The grid size is 256
Enter the number of sampling: 
8192
Input time for GPU: 0.256320 (ms) 
Processing time for GPU: 0.281984 (ms) 
Calculation time in CPU: 0.043104 (ms)
0.242034003138542 +- 0.000632609648164
