Using device 1
The block size is 2
The grid size is 32
Enter the number of sampling: 
2048
Input time for GPU: 0.262176 (ms) 
Processing time for GPU: 0.360256 (ms) 
Calculation time in CPU: 0.042272 (ms)
0.237319380044937 +- 0.001302973949350
