Using device 1
The block size is 512
The grid size is 1
Enter the number of sampling: 
32768
Input time for GPU: 0.185760 (ms) 
Processing time for GPU: 1.823840 (ms) 
Calculation time in CPU: 0.045664 (ms)
0.238032406494360 +- 0.000323610503687
