Using device 1
The block size is 32
The grid size is 1024
Enter the number of sampling: 
16384
Input time for GPU: 0.186976 (ms) 
Processing time for GPU: 0.309568 (ms) 
Calculation time in CPU: 0.042720 (ms)
0.241758063435555 +- 0.000450413033832
