Using device 1
The block size is 256
The grid size is 8
Enter the number of sampling: 
2048
Input time for GPU: 0.186816 (ms) 
Processing time for GPU: 0.186304 (ms) 
Calculation time in CPU: 0.041888 (ms)
0.242138549685478 +- 0.001236862270162
