Using device 1
The block size is 64
The grid size is 16
Enter the number of sampling: 
256
Input time for GPU: 0.171712 (ms) 
Processing time for GPU: 0.067840 (ms) 
Calculation time in CPU: 0.039520 (ms)
0.243761956691742 +- 0.003627157304436
