Using device 1
The block size is 8
The grid size is 128
Enter the number of sampling: 
32768
Input time for GPU: 0.324704 (ms) 
Processing time for GPU: 0.985312 (ms) 
Calculation time in CPU: 0.042656 (ms)
0.238224442320407 +- 0.000321551496836
