Using device 1
The block size is 512
The grid size is 8
Enter the number of sampling: 
8192
Input time for GPU: 0.217024 (ms) 
Processing time for GPU: 0.118016 (ms) 
Calculation time in CPU: 0.039680 (ms)
0.241137102246284 +- 0.000644032086711
