Using device 1
The block size is 1
The grid size is 16
Enter the number of sampling: 
65536
Input time for GPU: 0.227040 (ms) 
Processing time for GPU: 34.369793 (ms) 
Calculation time in CPU: 0.046560 (ms)
0.238005225482815 +- 0.000226991459964
