Using device 1
The block size is 16
The grid size is 256
Enter the number of sampling: 
65536
Input time for GPU: 0.181440 (ms) 
Processing time for GPU: 0.633856 (ms) 
Calculation time in CPU: 0.041920 (ms)
0.238441723339934 +- 0.000226956766245
