Using device 1
The block size is 64
The grid size is 16
Enter the number of sampling: 
16384
Input time for GPU: 0.188896 (ms) 
Processing time for GPU: 0.223840 (ms) 
Calculation time in CPU: 0.042208 (ms)
0.238232403993607 +- 0.000453046988696
