Using device 1
The block size is 64
The grid size is 8
Enter the number of sampling: 
16384
Input time for GPU: 0.339168 (ms) 
Processing time for GPU: 0.411360 (ms) 
Calculation time in CPU: 0.043872 (ms)
0.238682299852371 +- 0.000456797541119
