Using device 1
The block size is 256
The grid size is 64
Enter the number of sampling: 
16384
Input time for GPU: 0.180640 (ms) 
Processing time for GPU: 0.210464 (ms) 
Calculation time in CPU: 0.040928 (ms)
0.241758068520461 +- 0.000450413701911
