Using device 1
The block size is 8
The grid size is 256
Enter the number of sampling: 
4096
Input time for GPU: 0.312288 (ms) 
Processing time for GPU: 0.218560 (ms) 
Calculation time in CPU: 0.049632 (ms)
0.241137504577637 +- 0.000903427600861
