Using device 1
The block size is 256
The grid size is 1
Enter the number of sampling: 
1024
Input time for GPU: 0.168000 (ms) 
Processing time for GPU: 0.122816 (ms) 
Calculation time in CPU: 0.041184 (ms)
0.238753497600555 +- 0.001794095383957
