Using device 1
The block size is 4
The grid size is 1
Enter the number of sampling: 
32768
Input time for GPU: 0.324256 (ms) 
Processing time for GPU: 63.115746 (ms) 
Calculation time in CPU: 0.041760 (ms)
0.238519482241948 +- 0.000321129250207
