Using device 1
The block size is 8
The grid size is 256
Enter the number of sampling: 
65536
Input time for GPU: 0.316160 (ms) 
Processing time for GPU: 1.405504 (ms) 
Calculation time in CPU: 0.042688 (ms)
0.238255284364124 +- 0.000227388159636
