Using device 1
The block size is 128
The grid size is 4
Enter the number of sampling: 
2048
Input time for GPU: 0.171904 (ms) 
Processing time for GPU: 0.066720 (ms) 
Calculation time in CPU: 0.040960 (ms)
0.239476025104523 +- 0.001262767123990
