Using device 1
The block size is 2
The grid size is 256
Enter the number of sampling: 
4096
Input time for GPU: 0.297312 (ms) 
Processing time for GPU: 0.144832 (ms) 
Calculation time in CPU: 0.040256 (ms)
0.238727509975433 +- 0.000924794643652
