Using device 1
The block size is 32
The grid size is 2
Enter the number of sampling: 
16384
Input time for GPU: 0.180544 (ms) 
Processing time for GPU: 0.649472 (ms) 
Calculation time in CPU: 0.042368 (ms)
0.237633526325226 +- 0.000450606836239
