Using device 1
The block size is 64
The grid size is 16
Enter the number of sampling: 
2048
Input time for GPU: 0.173792 (ms) 
Processing time for GPU: 0.070592 (ms) 
Calculation time in CPU: 0.040192 (ms)
0.241309821605682 +- 0.001284569967538
