Using device 1
The block size is 256
The grid size is 64
Enter the number of sampling: 
512
Input time for GPU: 0.259232 (ms) 
Processing time for GPU: 0.292480 (ms) 
Calculation time in CPU: 0.044128 (ms)
0.241234928369522 +- 0.002451482461765
