Using device 1
The block size is 4
The grid size is 1024
Enter the number of sampling: 
256
Input time for GPU: 0.169760 (ms) 
Processing time for GPU: 0.069664 (ms) 
Calculation time in CPU: 0.042816 (ms)
0.243761971592903 +- 0.003627153346315
