Using device 1
The block size is 32
The grid size is 128
Enter the number of sampling: 
2048
Input time for GPU: 0.186176 (ms) 
Processing time for GPU: 0.186016 (ms) 
Calculation time in CPU: 0.040288 (ms)
0.242138519883156 +- 0.001236865995452
