Using device 1
The block size is 16
The grid size is 512
Enter the number of sampling: 
32768
Input time for GPU: 0.196704 (ms) 
Processing time for GPU: 0.490976 (ms) 
Calculation time in CPU: 0.041536 (ms)
0.239011128950612 +- 0.000318419054071
