Using device 1
The block size is 1
The grid size is 1
Enter the number of sampling: 
65536
Input time for GPU: 0.315904 (ms) 
Processing time for GPU: 454.822876 (ms) 
Calculation time in CPU: 0.039776 (ms)
0.237750899354632 +- 0.000226195805284
