Using device 1
The block size is 1
The grid size is 2
Enter the number of sampling: 
16384
Input time for GPU: 0.174176 (ms) 
Processing time for GPU: 17.590401 (ms) 
Calculation time in CPU: 0.042784 (ms)
0.237944900989532 +- 0.000453180982731
