Using device 1
The block size is 2
The grid size is 8
Enter the number of sampling: 
16384
Input time for GPU: 0.170432 (ms) 
Processing time for GPU: 2.398240 (ms) 
Calculation time in CPU: 0.040288 (ms)
0.238091856241226 +- 0.000450928637292
