Using device 1
The block size is 8
The grid size is 16
Enter the number of sampling: 
128
Input time for GPU: 0.215040 (ms) 
Processing time for GPU: 0.133728 (ms) 
Calculation time in CPU: 0.041312 (ms)
0.239315763115883 +- 0.004902409855276
