Using device 1
The block size is 4
The grid size is 1024
Enter the number of sampling: 
16384
Input time for GPU: 0.178688 (ms) 
Processing time for GPU: 0.154592 (ms) 
Calculation time in CPU: 0.041376 (ms)
0.239345997571945 +- 0.000452247564681
