Using device 1
The block size is 2
The grid size is 2
Enter the number of sampling: 
2048
Input time for GPU: 0.182080 (ms) 
Processing time for GPU: 1.192512 (ms) 
Calculation time in CPU: 0.041280 (ms)
0.239147350192070 +- 0.001255568582565
