Using device 1
The block size is 128
The grid size is 1
Enter the number of sampling: 
8192
Input time for GPU: 0.173248 (ms) 
Processing time for GPU: 0.206368 (ms) 
Calculation time in CPU: 0.042432 (ms)
0.238174438476562 +- 0.000655083335005
