Using device 1
The block size is 128
The grid size is 256
Enter the number of sampling: 
512
Input time for GPU: 0.350240 (ms) 
Processing time for GPU: 0.405376 (ms) 
Calculation time in CPU: 0.041856 (ms)
0.241234928369522 +- 0.002451482461765
