Using device 1
The block size is 16
The grid size is 1024
Enter the number of sampling: 
64
Input time for GPU: 0.325120 (ms) 
Processing time for GPU: 0.345888 (ms) 
Calculation time in CPU: 0.063392 (ms)
0.230888023972511 +- 0.006376453209668
