Using device 1
The block size is 512
The grid size is 2
Enter the number of sampling: 
8192
Input time for GPU: 0.329184 (ms) 
Processing time for GPU: 0.301792 (ms) 
Calculation time in CPU: 0.042208 (ms)
0.238736301660538 +- 0.000643904961180
