Using device 1
The block size is 128
The grid size is 16
Enter the number of sampling: 
1024
Input time for GPU: 0.220320 (ms) 
Processing time for GPU: 0.120000 (ms) 
Calculation time in CPU: 0.041792 (ms)
0.241743370890617 +- 0.001777592697181
