Using device 1
The block size is 1
The grid size is 512
Enter the number of sampling: 
8192
Input time for GPU: 0.260576 (ms) 
Processing time for GPU: 0.432640 (ms) 
Calculation time in CPU: 0.043008 (ms)
0.238649755716324 +- 0.000649942492601
