Using device 1
The block size is 64
The grid size is 1024
Enter the number of sampling: 
32768
Input time for GPU: 0.192896 (ms) 
Processing time for GPU: 0.476896 (ms) 
Calculation time in CPU: 0.043264 (ms)
0.242288013566680 +- 0.000322055070576
