Using device 1
The block size is 4
The grid size is 8
Enter the number of sampling: 
256
Input time for GPU: 0.222144 (ms) 
Processing time for GPU: 0.136032 (ms) 
Calculation time in CPU: 0.041056 (ms)
0.240485474467278 +- 0.004061497282237
