Using device 1
The block size is 512
The grid size is 2
Enter the number of sampling: 
4096
Input time for GPU: 0.323872 (ms) 
Processing time for GPU: 0.342144 (ms) 
Calculation time in CPU: 0.060480 (ms)
0.239321976900101 +- 0.000890248222277
