Using device 1
The block size is 64
The grid size is 1
Enter the number of sampling: 
8192
Input time for GPU: 0.412320 (ms) 
Processing time for GPU: 0.710720 (ms) 
Calculation time in CPU: 0.043008 (ms)
0.237839326262474 +- 0.000648934568744
