Using device 1
The block size is 32
The grid size is 256
Enter the number of sampling: 
1024
Input time for GPU: 0.211456 (ms) 
Processing time for GPU: 0.108768 (ms) 
Calculation time in CPU: 0.045856 (ms)
0.241743341088295 +- 0.001777595723979
