Using device 1
The block size is 2
The grid size is 1
Enter the number of sampling: 
512
Input time for GPU: 0.166624 (ms) 
Processing time for GPU: 0.635712 (ms) 
Calculation time in CPU: 0.041888 (ms)
0.239762857556343 +- 0.002505848184228
