Using device 1
The block size is 8
The grid size is 512
Enter the number of sampling: 
512
Input time for GPU: 0.334720 (ms) 
Processing time for GPU: 0.337760 (ms) 
Calculation time in CPU: 0.060704 (ms)
0.241234913468361 +- 0.002451485488564
