Using device 1
The block size is 64
The grid size is 1
Enter the number of sampling: 
128
Input time for GPU: 0.184128 (ms) 
Processing time for GPU: 0.079264 (ms) 
Calculation time in CPU: 0.041568 (ms)
0.238820463418961 +- 0.005340837873518
