Using device 1
The block size is 8
The grid size is 32
Enter the number of sampling: 
32768
Input time for GPU: 0.335968 (ms) 
Processing time for GPU: 1.392192 (ms) 
Calculation time in CPU: 0.042784 (ms)
0.237466573298758 +- 0.000322072730541
