Using device 1
The block size is 256
The grid size is 512
Enter the number of sampling: 
64
Input time for GPU: 0.182080 (ms) 
Processing time for GPU: 0.121664 (ms) 
Calculation time in CPU: 0.040960 (ms)
0.230888038873672 +- 0.006376444362104
