Using device 1
The block size is 2
The grid size is 32
Enter the number of sampling: 
4096
Input time for GPU: 0.202176 (ms) 
Processing time for GPU: 0.257344 (ms) 
Calculation time in CPU: 0.040480 (ms)
0.238231405615807 +- 0.000916763325222
