Using device 1
The block size is 256
The grid size is 1024
Enter the number of sampling: 
64
Input time for GPU: 0.311360 (ms) 
Processing time for GPU: 0.474048 (ms) 
Calculation time in CPU: 0.042912 (ms)
0.230888038873672 +- 0.006376444362104
