Using device 1
The block size is 1
The grid size is 64
Enter the number of sampling: 
256
Input time for GPU: 0.175264 (ms) 
Processing time for GPU: 0.075584 (ms) 
Calculation time in CPU: 0.040000 (ms)
0.237772271037102 +- 0.003551911329851
