Using device 1
The block size is 2
The grid size is 256
Enter the number of sampling: 
32768
Input time for GPU: 0.358240 (ms) 
Processing time for GPU: 2.496704 (ms) 
Calculation time in CPU: 0.043200 (ms)
0.238032406494360 +- 0.000323610503687
