Using device 1
The block size is 512
The grid size is 32
Enter the number of sampling: 
65536
Input time for GPU: 0.183296 (ms) 
Processing time for GPU: 0.465312 (ms) 
Calculation time in CPU: 0.046432 (ms)
0.238901105294779 +- 0.000226095482711
