Using device 1
The block size is 512
The grid size is 1
Enter the number of sampling: 
4096
Input time for GPU: 0.224000 (ms) 
Processing time for GPU: 0.145920 (ms) 
Calculation time in CPU: 0.041792 (ms)
0.238727480173111 +- 0.000924796622712
