Using device 1
The block size is 1
The grid size is 2
Enter the number of sampling: 
1024
Input time for GPU: 0.175232 (ms) 
Processing time for GPU: 1.151776 (ms) 
Calculation time in CPU: 0.041312 (ms)
0.239411443471909 +- 0.001745708636008
