Using device 1
The block size is 2
The grid size is 32
Enter the number of sampling: 
128
Input time for GPU: 0.322784 (ms) 
Processing time for GPU: 0.319488 (ms) 
Calculation time in CPU: 0.053984 (ms)
0.238820433616638 +- 0.005340842995793
