Using device 1
The block size is 16
The grid size is 1024
Enter the number of sampling: 
32768
Input time for GPU: 0.216320 (ms) 
Processing time for GPU: 0.577760 (ms) 
Calculation time in CPU: 0.043840 (ms)
0.240463359436758 +- 0.000319849135304
