Using device 1
The block size is 64
The grid size is 8
Enter the number of sampling: 
2048
Input time for GPU: 0.172416 (ms) 
Processing time for GPU: 0.068608 (ms) 
Calculation time in CPU: 0.040960 (ms)
0.239476025104523 +- 0.001262767123990
