Using device 1
The block size is 64
The grid size is 32
Enter the number of sampling: 
512
Input time for GPU: 0.328672 (ms) 
Processing time for GPU: 0.223520 (ms) 
Calculation time in CPU: 0.062656 (ms)
0.241234928369522 +- 0.002451482461765
