Using device 1
The block size is 512
The grid size is 8
Enter the number of sampling: 
64
Input time for GPU: 0.170464 (ms) 
Processing time for GPU: 0.060960 (ms) 
Calculation time in CPU: 0.041856 (ms)
0.230888038873672 +- 0.006376444362104
