Using device 1
The block size is 16
The grid size is 4
Enter the number of sampling: 
32768
Input time for GPU: 0.170560 (ms) 
Processing time for GPU: 4.036544 (ms) 
Calculation time in CPU: 0.041760 (ms)
0.237906106581323 +- 0.000320451881448
