Using device 1
The block size is 1
The grid size is 128
Enter the number of sampling: 
4096
Input time for GPU: 0.173632 (ms) 
Processing time for GPU: 0.159008 (ms) 
Calculation time in CPU: 0.041728 (ms)
0.237387746572495 +- 0.000919751008041
