Using device 1
The block size is 256
The grid size is 32
Enter the number of sampling: 
256
Input time for GPU: 0.249216 (ms) 
Processing time for GPU: 0.287104 (ms) 
Calculation time in CPU: 0.044192 (ms)
0.243761956691742 +- 0.003627157304436
