Using device 1
The block size is 1024
The grid size is 8
Enter the number of sampling: 
16384
Input time for GPU: 0.171168 (ms) 
Processing time for GPU: 0.135008 (ms) 
Calculation time in CPU: 0.039328 (ms)
0.240236863493919 +- 0.000449406565167
