Using device 1
The block size is 16
The grid size is 32
Enter the number of sampling: 
4096
Input time for GPU: 0.171616 (ms) 
Processing time for GPU: 0.146464 (ms) 
Calculation time in CPU: 0.041312 (ms)
0.238727465271950 +- 0.000924799067434
