Using device 1
The block size is 512
The grid size is 128
Enter the number of sampling: 
2048
Input time for GPU: 0.356192 (ms) 
Processing time for GPU: 0.326176 (ms) 
Calculation time in CPU: 0.041344 (ms)
0.242138549685478 +- 0.001236862270162
