Using device 1
The block size is 8
The grid size is 2
Enter the number of sampling: 
16384
Input time for GPU: 0.178400 (ms) 
Processing time for GPU: 2.410016 (ms) 
Calculation time in CPU: 0.040704 (ms)
0.238091856241226 +- 0.000450928899227
