Using device 1
The block size is 64
The grid size is 8
Enter the number of sampling: 
65536
Input time for GPU: 0.170720 (ms) 
Processing time for GPU: 1.183968 (ms) 
Calculation time in CPU: 0.042144 (ms)
0.237811420531065 +- 0.000227846405112
