Using device 1
The block size is 2
The grid size is 32
Enter the number of sampling: 
8192
Input time for GPU: 0.181248 (ms) 
Processing time for GPU: 0.347616 (ms) 
Calculation time in CPU: 0.040960 (ms)
0.237839326262474 +- 0.000648934917990
