Using device 1
The block size is 1024
The grid size is 256
Enter the number of sampling: 
8192
Input time for GPU: 0.212512 (ms) 
Processing time for GPU: 0.270944 (ms) 
Calculation time in CPU: 0.041824 (ms)
0.242034003138542 +- 0.000632609648164
