Using device 1
The block size is 1
The grid size is 1
Enter the number of sampling: 
16384
Input time for GPU: 0.218336 (ms) 
Processing time for GPU: 34.765888 (ms) 
Calculation time in CPU: 0.039520 (ms)
0.237498268485069 +- 0.000450551829999
