Using device 1
The block size is 2
The grid size is 1
Enter the number of sampling: 
4096
Input time for GPU: 0.170560 (ms) 
Processing time for GPU: 4.600384 (ms) 
Calculation time in CPU: 0.042560 (ms)
0.237673878669739 +- 0.000899772392586
