Using device 1
The block size is 8
The grid size is 512
Enter the number of sampling: 
65536
Input time for GPU: 0.179456 (ms) 
Processing time for GPU: 1.441024 (ms) 
Calculation time in CPU: 0.044000 (ms)
0.238441723339934 +- 0.000226956766245
