Using device 1
The block size is 16
The grid size is 1
Enter the number of sampling: 
2048
Input time for GPU: 0.187008 (ms) 
Processing time for GPU: 0.470976 (ms) 
Calculation time in CPU: 0.039328 (ms)
0.239603385329247 +- 0.001269277767278
