Using device 1
The block size is 256
The grid size is 8
Enter the number of sampling: 
4096
Input time for GPU: 0.184960 (ms) 
Processing time for GPU: 0.065952 (ms) 
Calculation time in CPU: 0.040576 (ms)
0.241137534379959 +- 0.000903426087461
