Using device 1
The block size is 2
The grid size is 256
Enter the number of sampling: 
1024
Input time for GPU: 0.220736 (ms) 
Processing time for GPU: 0.122752 (ms) 
Calculation time in CPU: 0.042720 (ms)
0.241538569331169 +- 0.001832411158830
