Using device 1
The block size is 2
The grid size is 512
Enter the number of sampling: 
1024
Input time for GPU: 0.165344 (ms) 
Processing time for GPU: 0.076128 (ms) 
Calculation time in CPU: 0.042432 (ms)
0.241743415594101 +- 0.001777588506229
