Using device 1
The block size is 512
The grid size is 1024
Enter the number of sampling: 
65536
Input time for GPU: 0.184992 (ms) 
Processing time for GPU: 2.653184 (ms) 
Calculation time in CPU: 0.045088 (ms)
0.242524547403954 +- 0.000227459124061
