Using device 1
The block size is 4
The grid size is 2
Enter the number of sampling: 
32768
Input time for GPU: 0.173696 (ms) 
Processing time for GPU: 31.544161 (ms) 
Calculation time in CPU: 0.041952 (ms)
0.238115831509189 +- 0.000322178619484
