Using device 1
The block size is 2
The grid size is 4
Enter the number of sampling: 
64
Input time for GPU: 0.226272 (ms) 
Processing time for GPU: 0.132736 (ms) 
Calculation time in CPU: 0.040672 (ms)
0.249652832746506 +- 0.007750060409307
