Using device 1
The block size is 32
The grid size is 64
Enter the number of sampling: 
128
Input time for GPU: 0.319008 (ms) 
Processing time for GPU: 0.238752 (ms) 
Calculation time in CPU: 0.060096 (ms)
0.239315778017044 +- 0.004902409855276
