Using device 1
The block size is 2
The grid size is 1
Enter the number of sampling: 
128
Input time for GPU: 0.320512 (ms) 
Processing time for GPU: 0.414272 (ms) 
Calculation time in CPU: 0.041280 (ms)
0.241353616118431 +- 0.004293987061828
