Using device 1
The block size is 256
The grid size is 16
Enter the number of sampling: 
32768
Input time for GPU: 0.219392 (ms) 
Processing time for GPU: 0.348064 (ms) 
Calculation time in CPU: 0.040800 (ms)
0.238678306707512 +- 0.000320496390148
