Using device 1
The block size is 256
The grid size is 4
Enter the number of sampling: 
128
Input time for GPU: 0.166592 (ms) 
Processing time for GPU: 0.056832 (ms) 
Calculation time in CPU: 0.039296 (ms)
0.239315778017044 +- 0.004902409855276
