Using device 1
The block size is 8
The grid size is 16
Enter the number of sampling: 
256
Input time for GPU: 0.168000 (ms) 
Processing time for GPU: 0.059584 (ms) 
Calculation time in CPU: 0.046240 (ms)
0.238588497042656 +- 0.003601914737374
