Using device 1
The block size is 128
The grid size is 1
Enter the number of sampling: 
65536
Input time for GPU: 0.166048 (ms) 
Processing time for GPU: 4.498272 (ms) 
Calculation time in CPU: 0.042752 (ms)
0.237733519585478 +- 0.000226929896986
