Using device 1
The block size is 256
The grid size is 2
Enter the number of sampling: 
32768
Input time for GPU: 0.261152 (ms) 
Processing time for GPU: 0.998848 (ms) 
Calculation time in CPU: 0.040448 (ms)
0.238032406494360 +- 0.000323610503687
