Using device 1
The block size is 4
The grid size is 1
Enter the number of sampling: 
4096
Input time for GPU: 0.178624 (ms) 
Processing time for GPU: 2.405952 (ms) 
Calculation time in CPU: 0.041248 (ms)
0.238453239202499 +- 0.000894434691872
