Using device 1
The block size is 1
The grid size is 32
Enter the number of sampling: 
65536
Input time for GPU: 0.217344 (ms) 
Processing time for GPU: 17.285215 (ms) 
Calculation time in CPU: 0.040032 (ms)
0.237709876385602 +- 0.000226200544186
