Using device 1
The block size is 64
The grid size is 1024
Enter the number of sampling: 
1024
Input time for GPU: 0.183008 (ms) 
Processing time for GPU: 0.145056 (ms) 
Calculation time in CPU: 0.043104 (ms)
0.241743355989456 +- 0.001777593628503
