Using device 1
The block size is 64
The grid size is 32
Enter the number of sampling: 
256
Input time for GPU: 0.174048 (ms) 
Processing time for GPU: 0.117888 (ms) 
Calculation time in CPU: 0.041632 (ms)
0.243761956691742 +- 0.003627157304436
