Using device 1
The block size is 128
The grid size is 4
Enter the number of sampling: 
256
Input time for GPU: 0.347616 (ms) 
Processing time for GPU: 0.285696 (ms) 
Calculation time in CPU: 0.043776 (ms)
0.243761956691742 +- 0.003627157304436
