Using device 1
The block size is 2
The grid size is 256
Enter the number of sampling: 
2048
Input time for GPU: 0.181440 (ms) 
Processing time for GPU: 0.078848 (ms) 
Calculation time in CPU: 0.039712 (ms)
0.239476040005684 +- 0.001262767123990
