Using device 1
The block size is 16
The grid size is 128
Enter the number of sampling: 
256
Input time for GPU: 0.316032 (ms) 
Processing time for GPU: 0.336864 (ms) 
Calculation time in CPU: 0.060480 (ms)
0.243761956691742 +- 0.003627157304436
