Using device 1
The block size is 2
The grid size is 128
Enter the number of sampling: 
2048
Input time for GPU: 0.324704 (ms) 
Processing time for GPU: 0.358848 (ms) 
Calculation time in CPU: 0.060096 (ms)
0.238495334982872 +- 0.001313436310738
