Using device 1
The block size is 1024
The grid size is 16
Enter the number of sampling: 
4096
Input time for GPU: 0.341568 (ms) 
Processing time for GPU: 0.363296 (ms) 
Calculation time in CPU: 0.042208 (ms)
0.242465510964394 +- 0.000893931195606
