Using device 1
The block size is 8
The grid size is 1024
Enter the number of sampling: 
65536
Input time for GPU: 0.214208 (ms) 
Processing time for GPU: 1.554976 (ms) 
Calculation time in CPU: 0.044000 (ms)
0.238438058238255 +- 0.000226383073658
