Using device 1
The block size is 1
The grid size is 16
Enter the number of sampling: 
32768
Input time for GPU: 0.249984 (ms) 
Processing time for GPU: 17.371328 (ms) 
Calculation time in CPU: 0.041600 (ms)
0.237535406387042 +- 0.000318685772792
