Using device 1
The block size is 2
The grid size is 16
Enter the number of sampling: 
32768
Input time for GPU: 0.170400 (ms) 
Processing time for GPU: 8.748608 (ms) 
Calculation time in CPU: 0.042304 (ms)
0.237966643961867 +- 0.000320565949539
