Using device 1
The block size is 16
The grid size is 16
Enter the number of sampling: 
8192
Input time for GPU: 0.340224 (ms) 
Processing time for GPU: 0.393888 (ms) 
Calculation time in CPU: 0.047584 (ms)
0.237437844276428 +- 0.000642307626549
