Using device 1
The block size is 512
The grid size is 512
Enter the number of sampling: 
256
Input time for GPU: 0.431392 (ms) 
Processing time for GPU: 0.549088 (ms) 
Calculation time in CPU: 0.042944 (ms)
0.243761956691742 +- 0.003627157304436
