Using device 1
The block size is 2
The grid size is 1024
Enter the number of sampling: 
16384
Input time for GPU: 0.168960 (ms) 
Processing time for GPU: 0.231200 (ms) 
Calculation time in CPU: 0.042528 (ms)
0.238661050796509 +- 0.000453276559711
