Using device 1
The block size is 128
The grid size is 64
Enter the number of sampling: 
4096
Input time for GPU: 0.165056 (ms) 
Processing time for GPU: 0.062272 (ms) 
Calculation time in CPU: 0.039776 (ms)
0.242465525865555 +- 0.000893930671737
