Using device 1
The block size is 8
The grid size is 32
Enter the number of sampling: 
2048
Input time for GPU: 0.165920 (ms) 
Processing time for GPU: 0.073728 (ms) 
Calculation time in CPU: 0.040800 (ms)
0.238495320081711 +- 0.001313437707722
