Using device 1
The block size is 1
The grid size is 256
Enter the number of sampling: 
512
Input time for GPU: 0.221568 (ms) 
Processing time for GPU: 0.122720 (ms) 
Calculation time in CPU: 0.041920 (ms)
0.241899773478508 +- 0.002613827586174
