Using device 1
The block size is 8
The grid size is 2
Enter the number of sampling: 
128
Input time for GPU: 0.187392 (ms) 
Processing time for GPU: 0.201440 (ms) 
Calculation time in CPU: 0.041152 (ms)
0.254128932952881 +- 0.006282194051892
