Using device 1
The block size is 128
The grid size is 2
Enter the number of sampling: 
2048
Input time for GPU: 0.340832 (ms) 
Processing time for GPU: 0.268128 (ms) 
Calculation time in CPU: 0.041760 (ms)
0.238495320081711 +- 0.001313438406214
