Using device 1
The block size is 8
The grid size is 16
Enter the number of sampling: 
16384
Input time for GPU: 0.172160 (ms) 
Processing time for GPU: 0.409984 (ms) 
Calculation time in CPU: 0.044768 (ms)
0.237654358148575 +- 0.000458403723314
