Using device 1
The block size is 128
The grid size is 2
Enter the number of sampling: 
8192
Input time for GPU: 0.169408 (ms) 
Processing time for GPU: 0.134688 (ms) 
Calculation time in CPU: 0.041376 (ms)
0.237437859177589 +- 0.000642307626549
