Using device 1
The block size is 16
The grid size is 4
Enter the number of sampling: 
16384
Input time for GPU: 0.188864 (ms) 
Processing time for GPU: 0.899744 (ms) 
Calculation time in CPU: 0.043136 (ms)
0.237633526325226 +- 0.000450606574304
