Using device 1
The block size is 1024
The grid size is 256
Enter the number of sampling: 
4096
Input time for GPU: 0.170304 (ms) 
Processing time for GPU: 0.274016 (ms) 
Calculation time in CPU: 0.041152 (ms)
0.242465510964394 +- 0.000893931195606
