Using device 1
The block size is 32
The grid size is 4
Enter the number of sampling: 
16384
Input time for GPU: 0.184512 (ms) 
Processing time for GPU: 0.358464 (ms) 
Calculation time in CPU: 0.042048 (ms)
0.237654358148575 +- 0.000458403490484
