Using device 1
The block size is 8
The grid size is 8
Enter the number of sampling: 
65536
Input time for GPU: 0.179456 (ms) 
Processing time for GPU: 8.013152 (ms) 
Calculation time in CPU: 0.041792 (ms)
0.238197239472571 +- 0.000227488531608
