Using device 1
The block size is 64
The grid size is 8
Enter the number of sampling: 
1024
Input time for GPU: 0.325216 (ms) 
Processing time for GPU: 0.212224 (ms) 
Calculation time in CPU: 0.051936 (ms)
0.241538628935814 +- 0.001832402194850
