Using device 1
The block size is 1024
The grid size is 8
Enter the number of sampling: 
512
Input time for GPU: 0.172352 (ms) 
Processing time for GPU: 0.073088 (ms) 
Calculation time in CPU: 0.039008 (ms)
0.241234928369522 +- 0.002451483858749
