Using device 1
The block size is 256
The grid size is 1024
Enter the number of sampling: 
16384
Input time for GPU: 0.175904 (ms) 
Processing time for GPU: 1.174112 (ms) 
Calculation time in CPU: 0.044416 (ms)
0.241758068520461 +- 0.000450413701911
