Using device 1
The block size is 256
The grid size is 16
Enter the number of sampling: 
65536
Input time for GPU: 0.182624 (ms) 
Processing time for GPU: 0.516544 (ms) 
Calculation time in CPU: 0.041888 (ms)
0.238441723339934 +- 0.000226956766245
