Using device 1
The block size is 2
The grid size is 1024
Enter the number of sampling: 
8192
Input time for GPU: 0.166496 (ms) 
Processing time for GPU: 0.210336 (ms) 
Calculation time in CPU: 0.042880 (ms)
0.239179849624634 +- 0.000633709947579
