Using device 1
The block size is 16
The grid size is 512
Enter the number of sampling: 
256
Input time for GPU: 0.349152 (ms) 
Processing time for GPU: 0.274688 (ms) 
Calculation time in CPU: 0.044000 (ms)
0.243761956691742 +- 0.003627157304436
