Using device 1
The block size is 64
The grid size is 1
Enter the number of sampling: 
1024
Input time for GPU: 0.168608 (ms) 
Processing time for GPU: 0.149472 (ms) 
Calculation time in CPU: 0.041440 (ms)
0.237888842821121 +- 0.001900628674775
