Using device 1
The block size is 2
The grid size is 512
Enter the number of sampling: 
64
Input time for GPU: 0.359008 (ms) 
Processing time for GPU: 0.283328 (ms) 
Calculation time in CPU: 0.045248 (ms)
0.230888053774834 +- 0.006376439705491
