Using device 1
The block size is 8
The grid size is 16
Enter the number of sampling: 
32768
Input time for GPU: 0.190272 (ms) 
Processing time for GPU: 2.301152 (ms) 
Calculation time in CPU: 0.041024 (ms)
0.237522777918806 +- 0.000319625949442
