Using device 1
The block size is 512
The grid size is 128
Enter the number of sampling: 
32768
Input time for GPU: 0.338432 (ms) 
Processing time for GPU: 0.619200 (ms) 
Calculation time in CPU: 0.041632 (ms)
0.242288013566681 +- 0.000322055070576
