Using device 1
The block size is 2
The grid size is 512
Enter the number of sampling: 
16384
Input time for GPU: 0.184512 (ms) 
Processing time for GPU: 0.306080 (ms) 
Calculation time in CPU: 0.045312 (ms)
0.238232553005219 +- 0.000453041720903
