Using device 1
The block size is 16
The grid size is 1
Enter the number of sampling: 
32768
Input time for GPU: 0.171040 (ms) 
Processing time for GPU: 15.855776 (ms) 
Calculation time in CPU: 0.040640 (ms)
0.237535406387042 +- 0.000318685772792
