Using device 1
The block size is 32
The grid size is 2
Enter the number of sampling: 
65536
Input time for GPU: 0.186304 (ms) 
Processing time for GPU: 8.068896 (ms) 
Calculation time in CPU: 0.042208 (ms)
0.238197239472571 +- 0.000227488531608
