Using device 1
The block size is 32
The grid size is 2
Enter the number of sampling: 
512
Input time for GPU: 0.258016 (ms) 
Processing time for GPU: 0.306848 (ms) 
Calculation time in CPU: 0.042976 (ms)
0.238451838493347 +- 0.002795989625156
