Using device 1
The block size is 64
The grid size is 64
Enter the number of sampling: 
65536
Input time for GPU: 0.336704 (ms) 
Processing time for GPU: 0.686368 (ms) 
Calculation time in CPU: 0.041760 (ms)
0.238441723339934 +- 0.000226956766245
