Using device 1
The block size is 4
The grid size is 512
Enter the number of sampling: 
65536
Input time for GPU: 0.176448 (ms) 
Processing time for GPU: 2.744064 (ms) 
Calculation time in CPU: 0.042784 (ms)
0.238255284364123 +- 0.000227388159636
