Using device 1
The block size is 16
The grid size is 16
Enter the number of sampling: 
32768
Input time for GPU: 0.174752 (ms) 
Processing time for GPU: 1.237952 (ms) 
Calculation time in CPU: 0.040064 (ms)
0.237466573298758 +- 0.000322072730541
