Using device 1
The block size is 1
The grid size is 256
Enter the number of sampling: 
32768
Input time for GPU: 0.175328 (ms) 
Processing time for GPU: 4.414624 (ms) 
Calculation time in CPU: 0.041088 (ms)
0.237466573298757 +- 0.000322072730541
