Using device 1
The block size is 1
The grid size is 256
Enter the number of sampling: 
65536
Input time for GPU: 0.348992 (ms) 
Processing time for GPU: 8.949408 (ms) 
Calculation time in CPU: 0.043296 (ms)
0.237671819338992 +- 0.000227435879325
