Using device 1
The block size is 16
The grid size is 64
Enter the number of sampling: 
8192
Input time for GPU: 0.171872 (ms) 
Processing time for GPU: 0.077408 (ms) 
Calculation time in CPU: 0.041952 (ms)
0.238736316561699 +- 0.000643903913442
