Using device 1
The block size is 1
The grid size is 2
Enter the number of sampling: 
32768
Input time for GPU: 0.315520 (ms) 
Processing time for GPU: 122.432289 (ms) 
Calculation time in CPU: 0.042752 (ms)
0.237646385361824 +- 0.000319989347692
