Using device 1
The block size is 8
The grid size is 16
Enter the number of sampling: 
1024
Input time for GPU: 0.182016 (ms) 
Processing time for GPU: 0.133568 (ms) 
Calculation time in CPU: 0.046592 (ms)
0.239092648029327 +- 0.001911262283102
