Using device 1
The block size is 2
The grid size is 64
Enter the number of sampling: 
512
Input time for GPU: 0.322944 (ms) 
Processing time for GPU: 0.356544 (ms) 
Calculation time in CPU: 0.063008 (ms)
0.237259522080421 +- 0.002488820347935
