Using device 1
The block size is 32
The grid size is 1
Enter the number of sampling: 
1024
Input time for GPU: 0.173312 (ms) 
Processing time for GPU: 0.133824 (ms) 
Calculation time in CPU: 0.041216 (ms)
0.238267168402672 +- 0.001875958638266
