Using device 1
The block size is 1024
The grid size is 16
Enter the number of sampling: 
1024
Input time for GPU: 0.306656 (ms) 
Processing time for GPU: 0.183904 (ms) 
Calculation time in CPU: 0.060192 (ms)
0.241743355989456 +- 0.001777593628503
