Using device 1
The block size is 16
The grid size is 256
Enter the number of sampling: 
16384
Input time for GPU: 0.171552 (ms) 
Processing time for GPU: 0.077184 (ms) 
Calculation time in CPU: 0.041280 (ms)
0.239345937967300 +- 0.000452249310911
