Using device 1
The block size is 1
The grid size is 8
Enter the number of sampling: 
2048
Input time for GPU: 0.175680 (ms) 
Processing time for GPU: 0.613952 (ms) 
Calculation time in CPU: 0.040288 (ms)
0.239028215408325 +- 0.001268498715945
