Using device 1
The block size is 64
The grid size is 256
Enter the number of sampling: 
65536
Input time for GPU: 0.168416 (ms) 
Processing time for GPU: 0.508320 (ms) 
Calculation time in CPU: 0.042304 (ms)
0.238901105294779 +- 0.000226095482711
