Using device 1
The block size is 256
The grid size is 256
Enter the number of sampling: 
8192
Input time for GPU: 0.181088 (ms) 
Processing time for GPU: 0.095808 (ms) 
Calculation time in CPU: 0.041600 (ms)
0.242034003138542 +- 0.000632609240711
