Using device 1
The block size is 512
The grid size is 1
Enter the number of sampling: 
16384
Input time for GPU: 0.176416 (ms) 
Processing time for GPU: 0.958432 (ms) 
Calculation time in CPU: 0.041472 (ms)
0.238682313463395 +- 0.000456797231376
