Using device 1
The block size is 2
The grid size is 64
Enter the number of sampling: 
128
Input time for GPU: 0.315520 (ms) 
Processing time for GPU: 0.342048 (ms) 
Calculation time in CPU: 0.060928 (ms)
0.239315792918205 +- 0.004902409855276
