Using device 1
The block size is 32
The grid size is 2
Enter the number of sampling: 
32768
Input time for GPU: 0.341856 (ms) 
Processing time for GPU: 4.116960 (ms) 
Calculation time in CPU: 0.040640 (ms)
0.237906106581323 +- 0.000320451881448
