Using device 1
The block size is 64
The grid size is 4
Enter the number of sampling: 
65536
Input time for GPU: 0.166176 (ms) 
Processing time for GPU: 2.307264 (ms) 
Calculation time in CPU: 0.041696 (ms)
0.237671819338992 +- 0.000227435879325
