Using device 1
The block size is 128
The grid size is 128
Enter the number of sampling: 
32768
Input time for GPU: 0.331200 (ms) 
Processing time for GPU: 0.506560 (ms) 
Calculation time in CPU: 0.042112 (ms)
0.240463359436758 +- 0.000319849135304
