Using device 1
The block size is 1
The grid size is 32
Enter the number of sampling: 
16384
Input time for GPU: 0.220064 (ms) 
Processing time for GPU: 1.432768 (ms) 
Calculation time in CPU: 0.041024 (ms)
0.237866491079330 +- 0.000454177061329
