Using device 1
The block size is 4
The grid size is 16
Enter the number of sampling: 
4096
Input time for GPU: 0.172768 (ms) 
Processing time for GPU: 0.262624 (ms) 
Calculation time in CPU: 0.039808 (ms)
0.238231420516968 +- 0.000916762801353
