Using device 1
The block size is 64
The grid size is 512
Enter the number of sampling: 
1024
Input time for GPU: 0.168320 (ms) 
Processing time for GPU: 0.069088 (ms) 
Calculation time in CPU: 0.041376 (ms)
0.241743355989456 +- 0.001777593628503
