Using device 1
The block size is 32
The grid size is 16
Enter the number of sampling: 
32768
Input time for GPU: 0.258528 (ms) 
Processing time for GPU: 0.828000 (ms) 
Calculation time in CPU: 0.042112 (ms)
0.238032406494360 +- 0.000323610503687
