Using device 1
The block size is 4
The grid size is 16
Enter the number of sampling: 
256
Input time for GPU: 0.169856 (ms) 
Processing time for GPU: 0.065184 (ms) 
Calculation time in CPU: 0.041600 (ms)
0.237772256135941 +- 0.003551915520802
