Using device 1
The block size is 32
The grid size is 64
Enter the number of sampling: 
65536
Input time for GPU: 0.189408 (ms) 
Processing time for GPU: 0.799296 (ms) 
Calculation time in CPU: 0.041056 (ms)
0.238255284364123 +- 0.000227388159636
