Using device 1
The block size is 4
The grid size is 256
Enter the number of sampling: 
65536
Input time for GPU: 0.328512 (ms) 
Processing time for GPU: 2.406400 (ms) 
Calculation time in CPU: 0.041984 (ms)
0.237769447919691 +- 0.000227014576752
