Using device 1
The block size is 128
The grid size is 16
Enter the number of sampling: 
16384
Input time for GPU: 0.216832 (ms) 
Processing time for GPU: 0.233024 (ms) 
Calculation time in CPU: 0.040416 (ms)
0.238661073351784 +- 0.000453275549479
