Using device 1
The block size is 32
The grid size is 512
Enter the number of sampling: 
32768
Input time for GPU: 0.344256 (ms) 
Processing time for GPU: 0.544672 (ms) 
Calculation time in CPU: 0.043328 (ms)
0.240463359436759 +- 0.000319849135304
