Using device 1
The block size is 256
The grid size is 16
Enter the number of sampling: 
256
Input time for GPU: 0.214272 (ms) 
Processing time for GPU: 0.111904 (ms) 
Calculation time in CPU: 0.039808 (ms)
0.243761956691742 +- 0.003627157304436
