Using device 1
The block size is 16
The grid size is 64
Enter the number of sampling: 
64
Input time for GPU: 0.325024 (ms) 
Processing time for GPU: 0.337440 (ms) 
Calculation time in CPU: 0.062560 (ms)
0.230888023972511 +- 0.006376453209668
