Using device 1
The block size is 128
The grid size is 128
Enter the number of sampling: 
512
Input time for GPU: 0.217088 (ms) 
Processing time for GPU: 0.094816 (ms) 
Calculation time in CPU: 0.039712 (ms)
0.241234928369522 +- 0.002451482461765
