Using device 1
The block size is 2
The grid size is 4
Enter the number of sampling: 
512
Input time for GPU: 0.328000 (ms) 
Processing time for GPU: 0.471328 (ms) 
Calculation time in CPU: 0.042496 (ms)
0.240766882896423 +- 0.002290070522577
