Using device 1
The block size is 128
The grid size is 8
Enter the number of sampling: 
2048
Input time for GPU: 0.171744 (ms) 
Processing time for GPU: 0.123520 (ms) 
Calculation time in CPU: 0.040640 (ms)
0.241309806704521 +- 0.001284571364522
