Using device 1
The block size is 64
The grid size is 64
Enter the number of sampling: 
32768
Input time for GPU: 0.172800 (ms) 
Processing time for GPU: 0.295040 (ms) 
Calculation time in CPU: 0.040896 (ms)
0.238678306707512 +- 0.000320496390148
