Using device 1
The block size is 512
The grid size is 512
Enter the number of sampling: 
512
Input time for GPU: 0.221376 (ms) 
Processing time for GPU: 0.260544 (ms) 
Calculation time in CPU: 0.042208 (ms)
0.241234928369522 +- 0.002451483858749
