Using device 1
The block size is 4
The grid size is 8
Enter the number of sampling: 
64
Input time for GPU: 0.170752 (ms) 
Processing time for GPU: 0.061376 (ms) 
Calculation time in CPU: 0.039872 (ms)
0.227923512458801 +- 0.005478463135660
