Using device 1
The block size is 4
The grid size is 256
Enter the number of sampling: 
256
Input time for GPU: 0.172512 (ms) 
Processing time for GPU: 0.067488 (ms) 
Calculation time in CPU: 0.042432 (ms)
0.243761971592903 +- 0.003627153346315
