Using device 1
The block size is 2
The grid size is 128
Enter the number of sampling: 
8192
Input time for GPU: 0.172352 (ms) 
Processing time for GPU: 0.157504 (ms) 
Calculation time in CPU: 0.040576 (ms)
0.237437814474106 +- 0.000642309722025
