Using device 1
The block size is 4
The grid size is 16
Enter the number of sampling: 
512
Input time for GPU: 0.323072 (ms) 
Processing time for GPU: 0.359392 (ms) 
Calculation time in CPU: 0.058880 (ms)
0.238451853394508 +- 0.002795987064019
