Using device 1
The block size is 64
The grid size is 4
Enter the number of sampling: 
2048
Input time for GPU: 0.176512 (ms) 
Processing time for GPU: 0.087584 (ms) 
Calculation time in CPU: 0.041472 (ms)
0.238495334982872 +- 0.001313437009230
