Using device 1
The block size is 1
The grid size is 512
Enter the number of sampling: 
1024
Input time for GPU: 0.380288 (ms) 
Processing time for GPU: 0.333184 (ms) 
Calculation time in CPU: 0.059520 (ms)
0.241538688540459 +- 0.001832396257669
