Using device 1
The block size is 4
The grid size is 1
Enter the number of sampling: 
512
Input time for GPU: 0.315328 (ms) 
Processing time for GPU: 0.628800 (ms) 
Calculation time in CPU: 0.042304 (ms)
0.241230070590973 +- 0.002423753030598
