Using device 1
The block size is 32
The grid size is 4
Enter the number of sampling: 
256
Input time for GPU: 0.183104 (ms) 
Processing time for GPU: 0.079008 (ms) 
Calculation time in CPU: 0.042624 (ms)
0.238588482141495 +- 0.003601914737374
