Using device 1
The block size is 2
The grid size is 4
Enter the number of sampling: 
128
Input time for GPU: 0.237888 (ms) 
Processing time for GPU: 0.152096 (ms) 
Calculation time in CPU: 0.044512 (ms)
0.242658913135529 +- 0.005323814228177
