Using device 1
The block size is 2
The grid size is 4
Enter the number of sampling: 
1024
Input time for GPU: 0.319840 (ms) 
Processing time for GPU: 0.421792 (ms) 
Calculation time in CPU: 0.041856 (ms)
0.238955751061440 +- 0.001748240785673
