Using device 1
The block size is 4
The grid size is 512
Enter the number of sampling: 
512
Input time for GPU: 0.370976 (ms) 
Processing time for GPU: 0.317024 (ms) 
Calculation time in CPU: 0.045792 (ms)
0.241234973073006 +- 0.002451476640999
