Using device 1
The block size is 8
The grid size is 256
Enter the number of sampling: 
1024
Input time for GPU: 0.217312 (ms) 
Processing time for GPU: 0.113216 (ms) 
Calculation time in CPU: 0.041664 (ms)
0.241743355989456 +- 0.001777594676241
