Using device 1
The block size is 256
The grid size is 1024
Enter the number of sampling: 
65536
Input time for GPU: 0.221696 (ms) 
Processing time for GPU: 1.427008 (ms) 
Calculation time in CPU: 0.043680 (ms)
0.242524547403954 +- 0.000227459124061
