Using device 1
The block size is 1024
The grid size is 16
Enter the number of sampling: 
65536
Input time for GPU: 0.217408 (ms) 
Processing time for GPU: 0.182976 (ms) 
Calculation time in CPU: 0.041312 (ms)
0.238901093602180 +- 0.000226095871767
