Using device 1
The block size is 16
The grid size is 2
Enter the number of sampling: 
32768
Input time for GPU: 0.172288 (ms) 
Processing time for GPU: 7.961568 (ms) 
Calculation time in CPU: 0.040928 (ms)
0.237966643961867 +- 0.000320565949539
