Using device 1
The block size is 4
The grid size is 1
Enter the number of sampling: 
65536
Input time for GPU: 0.276128 (ms) 
Processing time for GPU: 126.159645 (ms) 
Calculation time in CPU: 0.043008 (ms)
0.238066909876813 +- 0.000227407888195
