Using device 1
The block size is 64
The grid size is 1024
Enter the number of sampling: 
512
Input time for GPU: 0.275488 (ms) 
Processing time for GPU: 0.197952 (ms) 
Calculation time in CPU: 0.057792 (ms)
0.241234928369522 +- 0.002451482461765
