Using device 1
The block size is 2
The grid size is 2
Enter the number of sampling: 
512
Input time for GPU: 0.326400 (ms) 
Processing time for GPU: 0.635232 (ms) 
Calculation time in CPU: 0.040704 (ms)
0.241230070590973 +- 0.002423754660413
