Using device 1
The block size is 8
The grid size is 2
Enter the number of sampling: 
256
Input time for GPU: 0.171424 (ms) 
Processing time for GPU: 0.100928 (ms) 
Calculation time in CPU: 0.039904 (ms)
0.245808631181717 +- 0.004086180124432
