Using device 1
The block size is 512
The grid size is 2
Enter the number of sampling: 
32768
Input time for GPU: 0.339680 (ms) 
Processing time for GPU: 1.230848 (ms) 
Calculation time in CPU: 0.042816 (ms)
0.238224442320407 +- 0.000321551496836
