Using device 1
The block size is 512
The grid size is 2
Enter the number of sampling: 
65536
Input time for GPU: 0.168320 (ms) 
Processing time for GPU: 1.876608 (ms) 
Calculation time in CPU: 0.041472 (ms)
0.237769447919691 +- 0.000227014576752
