Using device 1
The block size is 256
The grid size is 64
Enter the number of sampling: 
65536
Input time for GPU: 0.170656 (ms) 
Processing time for GPU: 0.516928 (ms) 
Calculation time in CPU: 0.041600 (ms)
0.238901105294779 +- 0.000226095482711
