Using device 1
The block size is 256
The grid size is 16
Enter the number of sampling: 
8192
Input time for GPU: 0.167808 (ms) 
Processing time for GPU: 0.120128 (ms) 
Calculation time in CPU: 0.039360 (ms)
0.241137132048607 +- 0.000644030689728
