Using device 1
The block size is 4
The grid size is 1024
Enter the number of sampling: 
512
Input time for GPU: 0.189344 (ms) 
Processing time for GPU: 0.131584 (ms) 
Calculation time in CPU: 0.042656 (ms)
0.241234973073006 +- 0.002451476640999
