Using device 1
The block size is 32
The grid size is 8
Enter the number of sampling: 
512
Input time for GPU: 0.323200 (ms) 
Processing time for GPU: 0.138176 (ms) 
Calculation time in CPU: 0.041728 (ms)
0.241899698972702 +- 0.002613838994876
