Using device 1
The block size is 1
The grid size is 4
Enter the number of sampling: 
2048
Input time for GPU: 0.348160 (ms) 
Processing time for GPU: 1.352192 (ms) 
Calculation time in CPU: 0.041056 (ms)
0.239147365093231 +- 0.001255567185581
