Using device 1
The block size is 4
The grid size is 64
Enter the number of sampling: 
32768
Input time for GPU: 0.181600 (ms) 
Processing time for GPU: 1.427104 (ms) 
Calculation time in CPU: 0.041632 (ms)
0.237466573298758 +- 0.000322072730541
