Using device 1
The block size is 4
The grid size is 64
Enter the number of sampling: 
128
Input time for GPU: 0.177792 (ms) 
Processing time for GPU: 0.068288 (ms) 
Calculation time in CPU: 0.041696 (ms)
0.239315763115883 +- 0.004902418702841
