Using device 1
The block size is 4
The grid size is 256
Enter the number of sampling: 
16384
Input time for GPU: 0.207360 (ms) 
Processing time for GPU: 0.188864 (ms) 
Calculation time in CPU: 0.041376 (ms)
0.238232359290123 +- 0.000453047512565
