Using device 1
The block size is 64
The grid size is 2
Enter the number of sampling: 
16384
Input time for GPU: 0.183136 (ms) 
Processing time for GPU: 0.356224 (ms) 
Calculation time in CPU: 0.040224 (ms)
0.237654358148575 +- 0.000458403490484
