Using device 1
The block size is 16
The grid size is 256
Enter the number of sampling: 
4096
Input time for GPU: 0.168096 (ms) 
Processing time for GPU: 0.064000 (ms) 
Calculation time in CPU: 0.040960 (ms)
0.242465540766716 +- 0.000893929158337
