Using device 1
The block size is 8
The grid size is 1024
Enter the number of sampling: 
1024
Input time for GPU: 0.242752 (ms) 
Processing time for GPU: 0.290496 (ms) 
Calculation time in CPU: 0.045632 (ms)
0.241743355989456 +- 0.001777594676241
