Using device 1
The block size is 2
The grid size is 64
Enter the number of sampling: 
4096
Input time for GPU: 0.173120 (ms) 
Processing time for GPU: 0.195264 (ms) 
Calculation time in CPU: 0.044928 (ms)
0.237387746572495 +- 0.000919752987102
