Using device 1
The block size is 8
The grid size is 64
Enter the number of sampling: 
256
Input time for GPU: 0.169248 (ms) 
Processing time for GPU: 0.118592 (ms) 
Calculation time in CPU: 0.042176 (ms)
0.243761956691742 +- 0.003627157304436
