Using device 1
The block size is 16
The grid size is 4
Enter the number of sampling: 
1024
Input time for GPU: 0.340032 (ms) 
Processing time for GPU: 0.416000 (ms) 
Calculation time in CPU: 0.056288 (ms)
0.237888842821121 +- 0.001900628674775
