Using device 1
The block size is 64
The grid size is 1024
Enter the number of sampling: 
64
Input time for GPU: 0.165824 (ms) 
Processing time for GPU: 0.082048 (ms) 
Calculation time in CPU: 0.040672 (ms)
0.230888038873672 +- 0.006376444362104
