Using device 1
The block size is 8
The grid size is 4
Enter the number of sampling: 
256
Input time for GPU: 0.172160 (ms) 
Processing time for GPU: 0.082784 (ms) 
Calculation time in CPU: 0.039968 (ms)
0.240485489368439 +- 0.004061497282237
