Using device 1
The block size is 256
The grid size is 2
Enter the number of sampling: 
65536
Input time for GPU: 0.228672 (ms) 
Processing time for GPU: 1.880256 (ms) 
Calculation time in CPU: 0.041664 (ms)
0.237811420531065 +- 0.000227846405112
