Using device 1
The block size is 2
The grid size is 64
Enter the number of sampling: 
8192
Input time for GPU: 0.171936 (ms) 
Processing time for GPU: 0.212256 (ms) 
Calculation time in CPU: 0.041056 (ms)
0.238174393773079 +- 0.000655085721519
