Using device 1
The block size is 16
The grid size is 8
Enter the number of sampling: 
2048
Input time for GPU: 0.179968 (ms) 
Processing time for GPU: 0.095264 (ms) 
Calculation time in CPU: 0.039744 (ms)
0.237250626087189 +- 0.001319763250649
