Using device 1
The block size is 128
The grid size is 16
Enter the number of sampling: 
64
Input time for GPU: 0.189152 (ms) 
Processing time for GPU: 0.114208 (ms) 
Calculation time in CPU: 0.041280 (ms)
0.230888038873672 +- 0.006376444362104
