Using device 1
The block size is 4
The grid size is 256
Enter the number of sampling: 
2048
Input time for GPU: 0.169920 (ms) 
Processing time for GPU: 0.124224 (ms) 
Calculation time in CPU: 0.039936 (ms)
0.241309791803360 +- 0.001284570666030
