Using device 1
The block size is 512
The grid size is 8
Enter the number of sampling: 
16384
Input time for GPU: 0.181312 (ms) 
Processing time for GPU: 0.189472 (ms) 
Calculation time in CPU: 0.040416 (ms)
0.239346005853007 +- 0.000452247721303
