Using device 1
The block size is 1
The grid size is 256
Enter the number of sampling: 
4096
Input time for GPU: 0.214400 (ms) 
Processing time for GPU: 0.327584 (ms) 
Calculation time in CPU: 0.042272 (ms)
0.237820133566856 +- 0.000916073564440
