Using device 1
The block size is 2
The grid size is 64
Enter the number of sampling: 
2048
Input time for GPU: 0.355488 (ms) 
Processing time for GPU: 0.481120 (ms) 
Calculation time in CPU: 0.042752 (ms)
0.237250626087189 +- 0.001319766044617
