Using device 1
The block size is 2
The grid size is 16
Enter the number of sampling: 
64
Input time for GPU: 0.336192 (ms) 
Processing time for GPU: 0.339872 (ms) 
Calculation time in CPU: 0.060864 (ms)
0.227923497557640 +- 0.005478478968143
