Using device 1
The block size is 1
The grid size is 128
Enter the number of sampling: 
512
Input time for GPU: 0.316096 (ms) 
Processing time for GPU: 0.242336 (ms) 
Calculation time in CPU: 0.056192 (ms)
0.237259536981583 +- 0.002488820347935
