Using device 1
The block size is 1
The grid size is 8
Enter the number of sampling: 
64
Input time for GPU: 0.407296 (ms) 
Processing time for GPU: 0.361568 (ms) 
Calculation time in CPU: 0.060960 (ms)
0.249652862548828 +- 0.007750045508146
