Using device 1
The block size is 8
The grid size is 4
Enter the number of sampling: 
4096
Input time for GPU: 0.263264 (ms) 
Processing time for GPU: 0.454848 (ms) 
Calculation time in CPU: 0.043424 (ms)
0.237967222929001 +- 0.000910923234187
