Using device 1
The block size is 128
The grid size is 16
Enter the number of sampling: 
4096
Input time for GPU: 0.169536 (ms) 
Processing time for GPU: 0.119008 (ms) 
Calculation time in CPU: 0.041120 (ms)
0.241137534379959 +- 0.000903425621800
