Using device 1
The block size is 2
The grid size is 8
Enter the number of sampling: 
256
Input time for GPU: 0.226272 (ms) 
Processing time for GPU: 0.154464 (ms) 
Calculation time in CPU: 0.039616 (ms)
0.245808631181717 +- 0.004086180124432
