Using device 1
The block size is 128
The grid size is 1
Enter the number of sampling: 
256
Input time for GPU: 0.171072 (ms) 
Processing time for GPU: 0.060896 (ms) 
Calculation time in CPU: 0.039136 (ms)
0.238588482141495 +- 0.003601916600019
