Using device 1
The block size is 512
The grid size is 128
Enter the number of sampling: 
1024
Input time for GPU: 0.172032 (ms) 
Processing time for GPU: 0.144736 (ms) 
Calculation time in CPU: 0.040160 (ms)
0.241743355989456 +- 0.001777594676241
