Using device 1
The block size is 1
The grid size is 512
Enter the number of sampling: 
65536
Input time for GPU: 0.310304 (ms) 
Processing time for GPU: 10.504896 (ms) 
Calculation time in CPU: 0.042848 (ms)
0.237811420531065 +- 0.000227846405112
