Using device 1
The block size is 32
The grid size is 1024
Enter the number of sampling: 
4096
Input time for GPU: 0.164832 (ms) 
Processing time for GPU: 0.071904 (ms) 
Calculation time in CPU: 0.041280 (ms)
0.242465510964394 +- 0.000893931719474
