Using device 1
The block size is 1
The grid size is 8
Enter the number of sampling: 
256
Input time for GPU: 0.174976 (ms) 
Processing time for GPU: 0.125280 (ms) 
Calculation time in CPU: 0.041888 (ms)
0.239089444279671 +- 0.003374041058123
