Using device 1
The block size is 32
The grid size is 1024
Enter the number of sampling: 
2048
Input time for GPU: 0.179392 (ms) 
Processing time for GPU: 0.072160 (ms) 
Calculation time in CPU: 0.043392 (ms)
0.242138519883156 +- 0.001236865995452
