Using device 1
The block size is 8
The grid size is 8
Enter the number of sampling: 
2048
Input time for GPU: 0.344736 (ms) 
Processing time for GPU: 0.381184 (ms) 
Calculation time in CPU: 0.042400 (ms)
0.237319380044937 +- 0.001302974647842
