Using device 1
The block size is 64
The grid size is 2
Enter the number of sampling: 
256
Input time for GPU: 0.255520 (ms) 
Processing time for GPU: 0.283744 (ms) 
Calculation time in CPU: 0.044352 (ms)
0.238588482141495 +- 0.003601918695495
