Using device 1
The block size is 2
The grid size is 2
Enter the number of sampling: 
65536
Input time for GPU: 0.213952 (ms) 
Processing time for GPU: 124.439453 (ms) 
Calculation time in CPU: 0.040864 (ms)
0.238066909876813 +- 0.000227407888195
