Using device 1
The block size is 2
The grid size is 1024
Enter the number of sampling: 
4096
Input time for GPU: 0.173472 (ms) 
Processing time for GPU: 0.119040 (ms) 
Calculation time in CPU: 0.040384 (ms)
0.241137549281120 +- 0.000903427600861
