Using device 1
The block size is 64
The grid size is 8
Enter the number of sampling: 
8192
Input time for GPU: 0.229344 (ms) 
Processing time for GPU: 0.149760 (ms) 
Calculation time in CPU: 0.044896 (ms)
0.238649800419807 +- 0.000649939349387
