Using device 1
The block size is 16
The grid size is 16
Enter the number of sampling: 
512
Input time for GPU: 0.169056 (ms) 
Processing time for GPU: 0.061376 (ms) 
Calculation time in CPU: 0.040736 (ms)
0.241899684071541 +- 0.002613842952996
