Using device 1
The block size is 4
The grid size is 256
Enter the number of sampling: 
8192
Input time for GPU: 0.217568 (ms) 
Processing time for GPU: 0.150400 (ms) 
Calculation time in CPU: 0.040704 (ms)
0.238736346364021 +- 0.000643904262688
