Using device 1
The block size is 1
The grid size is 256
Enter the number of sampling: 
64
Input time for GPU: 0.183104 (ms) 
Processing time for GPU: 0.284128 (ms) 
Calculation time in CPU: 0.043424 (ms)
0.230888083577156 +- 0.006376421544701
