Using device 1
The block size is 8
The grid size is 2
Enter the number of sampling: 
4096
Input time for GPU: 0.176576 (ms) 
Processing time for GPU: 0.656384 (ms) 
Calculation time in CPU: 0.039936 (ms)
0.238162457942963 +- 0.000890529132448
