Using device 1
The block size is 256
The grid size is 32
Enter the number of sampling: 
32768
Input time for GPU: 0.171168 (ms) 
Processing time for GPU: 0.308672 (ms) 
Calculation time in CPU: 0.041792 (ms)
0.239011128950612 +- 0.000318419054071
