Using device 1
The block size is 4
The grid size is 4
Enter the number of sampling: 
128
Input time for GPU: 0.187264 (ms) 
Processing time for GPU: 0.129600 (ms) 
Calculation time in CPU: 0.040416 (ms)
0.254128932952881 +- 0.006282194051892
