Using device 1
The block size is 2
The grid size is 256
Enter the number of sampling: 
65536
Input time for GPU: 0.169408 (ms) 
Processing time for GPU: 4.454368 (ms) 
Calculation time in CPU: 0.040704 (ms)
0.237811420531065 +- 0.000227846405112
