Using device 1
The block size is 128
The grid size is 512
Enter the number of sampling: 
512
Input time for GPU: 0.172800 (ms) 
Processing time for GPU: 0.092320 (ms) 
Calculation time in CPU: 0.041568 (ms)
0.241234928369522 +- 0.002451482461765
