Using device 1
The block size is 1
The grid size is 64
Enter the number of sampling: 
128
Input time for GPU: 0.227680 (ms) 
Processing time for GPU: 0.118624 (ms) 
Calculation time in CPU: 0.041312 (ms)
0.238820508122444 +- 0.005340826697648
