Using device 1
The block size is 16
The grid size is 2
Enter the number of sampling: 
16384
Input time for GPU: 0.210976 (ms) 
Processing time for GPU: 1.360032 (ms) 
Calculation time in CPU: 0.043136 (ms)
0.237866476178169 +- 0.000454177323263
