Using device 1
The block size is 16
The grid size is 64
Enter the number of sampling: 
32768
Input time for GPU: 0.188384 (ms) 
Processing time for GPU: 0.519008 (ms) 
Calculation time in CPU: 0.042080 (ms)
0.238224442320407 +- 0.000321551496836
