Using device 1
The block size is 2
The grid size is 16
Enter the number of sampling: 
2048
Input time for GPU: 0.171808 (ms) 
Processing time for GPU: 0.201312 (ms) 
Calculation time in CPU: 0.040736 (ms)
0.239133656024933 +- 0.001290375948884
