Using device 1
The block size is 16
The grid size is 128
Enter the number of sampling: 
64
Input time for GPU: 0.186720 (ms) 
Processing time for GPU: 0.067360 (ms) 
Calculation time in CPU: 0.045376 (ms)
0.230888023972511 +- 0.006376453209668
