Using device 1
The block size is 32
The grid size is 128
Enter the number of sampling: 
512
Input time for GPU: 0.258944 (ms) 
Processing time for GPU: 0.325408 (ms) 
Calculation time in CPU: 0.045120 (ms)
0.241234928369522 +- 0.002451485488564
