Using device 1
The block size is 2
The grid size is 32
Enter the number of sampling: 
65536
Input time for GPU: 0.359840 (ms) 
Processing time for GPU: 9.048192 (ms) 
Calculation time in CPU: 0.042752 (ms)
0.238197239472571 +- 0.000227488531608
