Using device 1
The block size is 2
The grid size is 128
Enter the number of sampling: 
4096
Input time for GPU: 0.335232 (ms) 
Processing time for GPU: 0.354656 (ms) 
Calculation time in CPU: 0.055520 (ms)
0.237820133566856 +- 0.000916070595849
