Using device 1
The block size is 1024
The grid size is 32
Enter the number of sampling: 
128
Input time for GPU: 0.168576 (ms) 
Processing time for GPU: 0.130624 (ms) 
Calculation time in CPU: 0.042112 (ms)
0.239315778017044 +- 0.004902409855276
