Using device 1
The block size is 1024
The grid size is 32
Enter the number of sampling: 
65536
Input time for GPU: 0.180768 (ms) 
Processing time for GPU: 0.131360 (ms) 
Calculation time in CPU: 0.039648 (ms)
0.240631565451622 +- 0.000226852484047
