Using device 1
The block size is 512
The grid size is 2
Enter the number of sampling: 
512
Input time for GPU: 0.168512 (ms) 
Processing time for GPU: 0.060896 (ms) 
Calculation time in CPU: 0.039456 (ms)
0.241234928369522 +- 0.002451483858749
