Using device 1
The block size is 4
The grid size is 8
Enter the number of sampling: 
32768
Input time for GPU: 0.325376 (ms) 
Processing time for GPU: 8.267232 (ms) 
Calculation time in CPU: 0.043040 (ms)
0.237966643961867 +- 0.000320565949539
