Using device 1
The block size is 4
The grid size is 128
Enter the number of sampling: 
256
Input time for GPU: 0.323168 (ms) 
Processing time for GPU: 0.134784 (ms) 
Calculation time in CPU: 0.039584 (ms)
0.243761971592903 +- 0.003627153346315
