Using device 1
The block size is 2
The grid size is 32
Enter the number of sampling: 
16384
Input time for GPU: 0.262944 (ms) 
Processing time for GPU: 0.900704 (ms) 
Calculation time in CPU: 0.041664 (ms)
0.237633526325226 +- 0.000450606312370
