Using device 1
The block size is 512
The grid size is 8
Enter the number of sampling: 
32768
Input time for GPU: 0.214528 (ms) 
Processing time for GPU: 0.347968 (ms) 
Calculation time in CPU: 0.040640 (ms)
0.238678306707512 +- 0.000320496390148
