Using device 1
The block size is 8
The grid size is 512
Enter the number of sampling: 
4096
Input time for GPU: 0.183040 (ms) 
Processing time for GPU: 0.092000 (ms) 
Calculation time in CPU: 0.043584 (ms)
0.242465466260910 +- 0.000893934746273
