Using device 1
The block size is 64
The grid size is 128
Enter the number of sampling: 
65536
Input time for GPU: 0.174304 (ms) 
Processing time for GPU: 0.366816 (ms) 
Calculation time in CPU: 0.042208 (ms)
0.238438058238255 +- 0.000226383073658
