Using device 1
The block size is 128
The grid size is 32
Enter the number of sampling: 
32768
Input time for GPU: 0.180768 (ms) 
Processing time for GPU: 0.239040 (ms) 
Calculation time in CPU: 0.042400 (ms)
0.238678306707512 +- 0.000320496390148
