Using device 1
The block size is 64
The grid size is 16
Enter the number of sampling: 
512
Input time for GPU: 0.345984 (ms) 
Processing time for GPU: 0.418976 (ms) 
Calculation time in CPU: 0.043296 (ms)
0.241234928369522 +- 0.002451482461765
