Using device 1
The block size is 256
The grid size is 4
Enter the number of sampling: 
32768
Input time for GPU: 0.185760 (ms) 
Processing time for GPU: 0.626336 (ms) 
Calculation time in CPU: 0.039904 (ms)
0.238224442320407 +- 0.000321551496836
